GFORTRAN module version '0' created from /home/csic/gim/drp/DE_experiments/paralleltestbed_CURRENT/src/method_module_fortran/funcevalinterface.f90 on Mon Feb 23 14:11:33 2015
MD5:75fb8e386250c7d78fdb7c5b9d497ba2 -- If you edit this, you'll get what you deserve.

(() () () () () () () () () () () ()
() () () () () () () () () () () () () () ())

()

()

()

()

(2 '__iso_c_binding' '__iso_c_binding' '__iso_c_binding' 1 ((MODULE
UNKNOWN-INTENT UNKNOWN-PROC UNKNOWN UNKNOWN INTRINSIC) (UNKNOWN 0 0 0
UNKNOWN ()) 0 0 () () 0 () () () 2 0)
3 'abs_matrix' 'common_functions' 'abs_matrix' 1 ((PROCEDURE
UNKNOWN-INTENT MODULE-PROC DECL UNKNOWN ALLOCATABLE DIMENSION FUNCTION
ALWAYS_EXPLICIT) (REAL 8 0 0 REAL ()) 4 0 (5) (2 DEFERRED () () () ()) 6
() () () 0 0)
7 'all_positive' 'common_functions' 'all_positive' 1 ((PROCEDURE
UNKNOWN-INTENT MODULE-PROC DECL UNKNOWN SUBROUTINE ALWAYS_EXPLICIT) (
UNKNOWN 0 0 0 UNKNOWN ()) 8 0 (9) () 0 () () () 0 0)
10 'auxprecisin' 'scattersearchtypes' 'auxprecisin' 1 ((PARAMETER
UNKNOWN-INTENT UNKNOWN-PROC UNKNOWN IMPLICIT-SAVE) (REAL 8 0 0 REAL ())
0 0 () (CONSTANT (REAL 8 0 0 REAL ()) 0 '0.27100000000000@4') () 0 () ()
() 0 0)
11 'c_alert' '__iso_c_binding' '' 1 ((PARAMETER UNKNOWN-INTENT
UNKNOWN-PROC UNKNOWN UNKNOWN IS_C_INTEROP IS_ISO_C) (CHARACTER 1 1 1
CHARACTER ((CONSTANT (INTEGER 4 0 0 INTEGER ()) 0 '1'))) 0 0 () (
CONSTANT (CHARACTER 1 1 1 UNKNOWN (())) 0 1 '\U00000007') () 0 () () ()
2 32)
12 'c_associated' '__iso_c_binding' '__iso_c_binding_c_associated' 1 ((
PROCEDURE UNKNOWN-INTENT MODULE-PROC DECL UNKNOWN FUNCTION
ALWAYS_EXPLICIT IS_ISO_C) (LOGICAL 4 0 0 LOGICAL ()) 13 0 (14 15) () 12
() () () 2 44)
16 'c_backspace' '__iso_c_binding' '' 1 ((PARAMETER UNKNOWN-INTENT
UNKNOWN-PROC UNKNOWN UNKNOWN IS_C_INTEROP IS_ISO_C) (CHARACTER 1 1 1
CHARACTER ((CONSTANT (INTEGER 4 0 0 INTEGER ()) 0 '1'))) 0 0 () (
CONSTANT (CHARACTER 1 1 1 UNKNOWN (())) 0 1 '\U00000008') () 0 () () ()
2 33)
17 'c_bool' '__iso_c_binding' '' 1 ((PARAMETER UNKNOWN-INTENT
UNKNOWN-PROC UNKNOWN UNKNOWN IS_C_INTEROP IS_ISO_C) (INTEGER 4 1 1
LOGICAL ()) 0 0 () (CONSTANT (INTEGER 4 1 1 UNKNOWN ()) 0 '1') () 0 () ()
() 2 29)
18 'c_carriage_return' '__iso_c_binding' '' 1 ((PARAMETER UNKNOWN-INTENT
UNKNOWN-PROC UNKNOWN UNKNOWN IS_C_INTEROP IS_ISO_C) (CHARACTER 1 1 1
CHARACTER ((CONSTANT (INTEGER 4 0 0 INTEGER ()) 0 '1'))) 0 0 () (
CONSTANT (CHARACTER 1 1 1 UNKNOWN (())) 0 1 '\U0000000d') () 0 () () ()
2 36)
19 'c_char' '__iso_c_binding' '' 1 ((PARAMETER UNKNOWN-INTENT
UNKNOWN-PROC UNKNOWN UNKNOWN IS_C_INTEROP IS_ISO_C) (INTEGER 4 1 1
CHARACTER ()) 0 0 () (CONSTANT (INTEGER 4 1 1 UNKNOWN ()) 0 '1') () 0 ()
() () 2 30)
20 'c_double' '__iso_c_binding' '' 1 ((PARAMETER UNKNOWN-INTENT
UNKNOWN-PROC UNKNOWN UNKNOWN IS_C_INTEROP IS_ISO_C) (INTEGER 4 1 1 REAL
()) 0 0 () (CONSTANT (INTEGER 4 1 1 UNKNOWN ()) 0 '8') () 0 () () () 2
24)
21 'c_double_complex' '__iso_c_binding' '' 1 ((PARAMETER UNKNOWN-INTENT
UNKNOWN-PROC UNKNOWN UNKNOWN IS_C_INTEROP IS_ISO_C) (INTEGER 4 1 1
COMPLEX ()) 0 0 () (CONSTANT (INTEGER 4 1 1 UNKNOWN ()) 0 '8') () 0 () ()
() 2 27)
22 'c_f_pointer' '__iso_c_binding' '__iso_c_binding_c_f_pointer' 1 ((
PROCEDURE UNKNOWN-INTENT MODULE-PROC DECL UNKNOWN SUBROUTINE
ALWAYS_EXPLICIT IS_ISO_C) (UNKNOWN 0 0 0 UNKNOWN ()) 23 0 (24 25 26) ()
0 () () () 2 43)
27 'c_f_procpointer' '__iso_c_binding' '__iso_c_binding_c_f_procpointer'
1 ((PROCEDURE UNKNOWN-INTENT MODULE-PROC DECL UNKNOWN SUBROUTINE
IS_ISO_C) (UNKNOWN 0 0 0 UNKNOWN ()) 28 0 (29 30) () 0 () () () 2 47)
31 'c_float' '__iso_c_binding' '' 1 ((PARAMETER UNKNOWN-INTENT
UNKNOWN-PROC UNKNOWN UNKNOWN IS_C_INTEROP IS_ISO_C) (INTEGER 4 1 1 REAL
()) 0 0 () (CONSTANT (INTEGER 4 1 1 UNKNOWN ()) 0 '4') () 0 () () () 2
23)
32 'c_float_complex' '__iso_c_binding' '' 1 ((PARAMETER UNKNOWN-INTENT
UNKNOWN-PROC UNKNOWN UNKNOWN IS_C_INTEROP IS_ISO_C) (INTEGER 4 1 1
COMPLEX ()) 0 0 () (CONSTANT (INTEGER 4 1 1 UNKNOWN ()) 0 '4') () 0 () ()
() 2 26)
33 'c_form_feed' '__iso_c_binding' '' 1 ((PARAMETER UNKNOWN-INTENT
UNKNOWN-PROC UNKNOWN UNKNOWN IS_C_INTEROP IS_ISO_C) (CHARACTER 1 1 1
CHARACTER ((CONSTANT (INTEGER 4 0 0 INTEGER ()) 0 '1'))) 0 0 () (
CONSTANT (CHARACTER 1 1 1 UNKNOWN (())) 0 1 '\U0000000c') () 0 () () ()
2 34)
34 'c_funloc' '__iso_c_binding' '__iso_c_binding_c_funloc' 1 ((
PROCEDURE UNKNOWN-INTENT UNKNOWN-PROC UNKNOWN UNKNOWN EXTERNAL PURE
IS_ISO_C) (DERIVED 35 0 0 DERIVED ()) 0 0 () () 34 () () () 2 46)
35 'c_funptr' '__iso_c_binding' '' 1 ((DERIVED UNKNOWN-INTENT
UNKNOWN-PROC UNKNOWN UNKNOWN IS_BIND_C IS_C_INTEROP IS_ISO_C) (DERIVED
35 1 1 UNKNOWN ()) 0 0 () () 0 ((36 '__c_funptr_c_address' (INTEGER 8 1
0 INTEGER ()) () (UNKNOWN-FL UNKNOWN-INTENT UNKNOWN-PROC UNKNOWN UNKNOWN)
UNKNOWN-ACCESS ())) UNKNOWN-ACCESS () () 2 41)
37 'c_horizontal_tab' '__iso_c_binding' '' 1 ((PARAMETER UNKNOWN-INTENT
UNKNOWN-PROC UNKNOWN UNKNOWN IS_C_INTEROP IS_ISO_C) (CHARACTER 1 1 1
CHARACTER ((CONSTANT (INTEGER 4 0 0 INTEGER ()) 0 '1'))) 0 0 () (
CONSTANT (CHARACTER 1 1 1 UNKNOWN (())) 0 1 '\U00000009') () 0 () () ()
2 37)
38 'c_int' '__iso_c_binding' '' 1 ((PARAMETER UNKNOWN-INTENT
UNKNOWN-PROC UNKNOWN UNKNOWN IS_C_INTEROP IS_ISO_C) (INTEGER 4 1 1
INTEGER ()) 0 0 () (CONSTANT (INTEGER 4 1 1 UNKNOWN ()) 0 '4') () 0 () ()
() 2 0)
39 'c_int128_t' '__iso_c_binding' '' 1 ((PARAMETER UNKNOWN-INTENT
UNKNOWN-PROC UNKNOWN UNKNOWN IS_C_INTEROP IS_ISO_C) (INTEGER 4 1 1
INTEGER ()) 0 0 () (CONSTANT (INTEGER 4 1 1 UNKNOWN ()) 0 '16') () 0 ()
() () 2 12)
40 'c_int16_t' '__iso_c_binding' '' 1 ((PARAMETER UNKNOWN-INTENT
UNKNOWN-PROC UNKNOWN UNKNOWN IS_C_INTEROP IS_ISO_C) (INTEGER 4 1 1
INTEGER ()) 0 0 () (CONSTANT (INTEGER 4 1 1 UNKNOWN ()) 0 '2') () 0 () ()
() 2 9)
41 'c_int32_t' '__iso_c_binding' '' 1 ((PARAMETER UNKNOWN-INTENT
UNKNOWN-PROC UNKNOWN UNKNOWN IS_C_INTEROP IS_ISO_C) (INTEGER 4 1 1
INTEGER ()) 0 0 () (CONSTANT (INTEGER 4 1 1 UNKNOWN ()) 0 '4') () 0 () ()
() 2 10)
42 'c_int64_t' '__iso_c_binding' '' 1 ((PARAMETER UNKNOWN-INTENT
UNKNOWN-PROC UNKNOWN UNKNOWN IS_C_INTEROP IS_ISO_C) (INTEGER 4 1 1
INTEGER ()) 0 0 () (CONSTANT (INTEGER 4 1 1 UNKNOWN ()) 0 '8') () 0 () ()
() 2 11)
43 'c_int8_t' '__iso_c_binding' '' 1 ((PARAMETER UNKNOWN-INTENT
UNKNOWN-PROC UNKNOWN UNKNOWN IS_C_INTEROP IS_ISO_C) (INTEGER 4 1 1
INTEGER ()) 0 0 () (CONSTANT (INTEGER 4 1 1 UNKNOWN ()) 0 '1') () 0 () ()
() 2 8)
44 'c_int_fast128_t' '__iso_c_binding' '' 1 ((PARAMETER UNKNOWN-INTENT
UNKNOWN-PROC UNKNOWN UNKNOWN IS_C_INTEROP IS_ISO_C) (INTEGER 4 1 1
INTEGER ()) 0 0 () (CONSTANT (INTEGER 4 1 1 UNKNOWN ()) 0 '-2') () 0 ()
() () 2 22)
45 'c_int_fast16_t' '__iso_c_binding' '' 1 ((PARAMETER UNKNOWN-INTENT
UNKNOWN-PROC UNKNOWN UNKNOWN IS_C_INTEROP IS_ISO_C) (INTEGER 4 1 1
INTEGER ()) 0 0 () (CONSTANT (INTEGER 4 1 1 UNKNOWN ()) 0 '-2') () 0 ()
() () 2 19)
46 'c_int_fast32_t' '__iso_c_binding' '' 1 ((PARAMETER UNKNOWN-INTENT
UNKNOWN-PROC UNKNOWN UNKNOWN IS_C_INTEROP IS_ISO_C) (INTEGER 4 1 1
INTEGER ()) 0 0 () (CONSTANT (INTEGER 4 1 1 UNKNOWN ()) 0 '-2') () 0 ()
() () 2 20)
47 'c_int_fast64_t' '__iso_c_binding' '' 1 ((PARAMETER UNKNOWN-INTENT
UNKNOWN-PROC UNKNOWN UNKNOWN IS_C_INTEROP IS_ISO_C) (INTEGER 4 1 1
INTEGER ()) 0 0 () (CONSTANT (INTEGER 4 1 1 UNKNOWN ()) 0 '-2') () 0 ()
() () 2 21)
48 'c_int_fast8_t' '__iso_c_binding' '' 1 ((PARAMETER UNKNOWN-INTENT
UNKNOWN-PROC UNKNOWN UNKNOWN IS_C_INTEROP IS_ISO_C) (INTEGER 4 1 1
INTEGER ()) 0 0 () (CONSTANT (INTEGER 4 1 1 UNKNOWN ()) 0 '-2') () 0 ()
() () 2 18)
49 'c_int_least128_t' '__iso_c_binding' '' 1 ((PARAMETER UNKNOWN-INTENT
UNKNOWN-PROC UNKNOWN UNKNOWN IS_C_INTEROP IS_ISO_C) (INTEGER 4 1 1
INTEGER ()) 0 0 () (CONSTANT (INTEGER 4 1 1 UNKNOWN ()) 0 '16') () 0 ()
() () 2 17)
50 'c_int_least16_t' '__iso_c_binding' '' 1 ((PARAMETER UNKNOWN-INTENT
UNKNOWN-PROC UNKNOWN UNKNOWN IS_C_INTEROP IS_ISO_C) (INTEGER 4 1 1
INTEGER ()) 0 0 () (CONSTANT (INTEGER 4 1 1 UNKNOWN ()) 0 '2') () 0 () ()
() 2 14)
51 'c_int_least32_t' '__iso_c_binding' '' 1 ((PARAMETER UNKNOWN-INTENT
UNKNOWN-PROC UNKNOWN UNKNOWN IS_C_INTEROP IS_ISO_C) (INTEGER 4 1 1
INTEGER ()) 0 0 () (CONSTANT (INTEGER 4 1 1 UNKNOWN ()) 0 '4') () 0 () ()
() 2 15)
52 'c_int_least64_t' '__iso_c_binding' '' 1 ((PARAMETER UNKNOWN-INTENT
UNKNOWN-PROC UNKNOWN UNKNOWN IS_C_INTEROP IS_ISO_C) (INTEGER 4 1 1
INTEGER ()) 0 0 () (CONSTANT (INTEGER 4 1 1 UNKNOWN ()) 0 '8') () 0 () ()
() 2 16)
53 'c_int_least8_t' '__iso_c_binding' '' 1 ((PARAMETER UNKNOWN-INTENT
UNKNOWN-PROC UNKNOWN UNKNOWN IS_C_INTEROP IS_ISO_C) (INTEGER 4 1 1
INTEGER ()) 0 0 () (CONSTANT (INTEGER 4 1 1 UNKNOWN ()) 0 '1') () 0 () ()
() 2 13)
54 'c_intmax_t' '__iso_c_binding' '' 1 ((PARAMETER UNKNOWN-INTENT
UNKNOWN-PROC UNKNOWN UNKNOWN IS_C_INTEROP IS_ISO_C) (INTEGER 4 1 1
INTEGER ()) 0 0 () (CONSTANT (INTEGER 4 1 1 UNKNOWN ()) 0 '8') () 0 () ()
() 2 4)
55 'c_intptr_t' '__iso_c_binding' '' 1 ((PARAMETER UNKNOWN-INTENT
UNKNOWN-PROC UNKNOWN UNKNOWN IS_C_INTEROP IS_ISO_C) (INTEGER 4 1 1
INTEGER ()) 0 0 () (CONSTANT (INTEGER 4 1 1 UNKNOWN ()) 0 '8') () 0 () ()
() 2 5)
56 'c_loc' '__iso_c_binding' '__iso_c_binding_c_loc' 1 ((PROCEDURE
UNKNOWN-INTENT UNKNOWN-PROC UNKNOWN UNKNOWN EXTERNAL PURE IS_ISO_C) (
DERIVED 57 0 0 DERIVED ()) 0 0 () () 56 () () () 2 45)
58 'c_long' '__iso_c_binding' '' 1 ((PARAMETER UNKNOWN-INTENT
UNKNOWN-PROC UNKNOWN UNKNOWN IS_C_INTEROP IS_ISO_C) (INTEGER 4 1 1
INTEGER ()) 0 0 () (CONSTANT (INTEGER 4 1 1 UNKNOWN ()) 0 '8') () 0 () ()
() 2 2)
59 'c_long_double' '__iso_c_binding' '' 1 ((PARAMETER UNKNOWN-INTENT
UNKNOWN-PROC UNKNOWN UNKNOWN IS_C_INTEROP IS_ISO_C) (INTEGER 4 1 1 REAL
()) 0 0 () (CONSTANT (INTEGER 4 1 1 UNKNOWN ()) 0 '10') () 0 () () () 2
25)
60 'c_long_double_complex' '__iso_c_binding' '' 1 ((PARAMETER
UNKNOWN-INTENT UNKNOWN-PROC UNKNOWN UNKNOWN IS_C_INTEROP IS_ISO_C) (
INTEGER 4 1 1 COMPLEX ()) 0 0 () (CONSTANT (INTEGER 4 1 1 UNKNOWN ()) 0
'10') () 0 () () () 2 28)
61 'c_long_long' '__iso_c_binding' '' 1 ((PARAMETER UNKNOWN-INTENT
UNKNOWN-PROC UNKNOWN UNKNOWN IS_C_INTEROP IS_ISO_C) (INTEGER 4 1 1
INTEGER ()) 0 0 () (CONSTANT (INTEGER 4 1 1 UNKNOWN ()) 0 '8') () 0 () ()
() 2 3)
62 'c_new_line' '__iso_c_binding' '' 1 ((PARAMETER UNKNOWN-INTENT
UNKNOWN-PROC UNKNOWN UNKNOWN IS_C_INTEROP IS_ISO_C) (CHARACTER 1 1 1
CHARACTER ((CONSTANT (INTEGER 4 0 0 INTEGER ()) 0 '1'))) 0 0 () (
CONSTANT (CHARACTER 1 1 1 UNKNOWN (())) 0 1 '\U0000000a') () 0 () () ()
2 35)
63 'c_null_char' '__iso_c_binding' '' 1 ((PARAMETER UNKNOWN-INTENT
UNKNOWN-PROC UNKNOWN UNKNOWN IS_C_INTEROP IS_ISO_C) (CHARACTER 1 1 1
CHARACTER ((CONSTANT (INTEGER 4 0 0 INTEGER ()) 0 '1'))) 0 0 () (
CONSTANT (CHARACTER 1 1 1 UNKNOWN (())) 0 1 '\U00000000') () 0 () () ()
2 31)
64 'c_null_funptr' '__iso_c_binding' '__iso_c_binding_c_null_funptr' 1 (
(PARAMETER UNKNOWN-INTENT UNKNOWN-PROC UNKNOWN EXPLICIT-SAVE IS_BIND_C
IS_C_INTEROP IS_ISO_C) (DERIVED 35 1 1 UNKNOWN ()) 0 0 () (STRUCTURE (
DERIVED 35 0 0 DERIVED ()) 0 ((() ())) ()) () 0 () () () 2 42)
65 'c_null_ptr' '__iso_c_binding' '__iso_c_binding_c_null_ptr' 1 ((
PARAMETER UNKNOWN-INTENT UNKNOWN-PROC UNKNOWN EXPLICIT-SAVE IS_BIND_C
IS_C_INTEROP IS_ISO_C) (DERIVED 57 1 1 UNKNOWN ()) 0 0 () (STRUCTURE (
DERIVED 57 0 0 DERIVED ()) 0 ((() ())) ()) () 0 () () () 2 40)
57 'c_ptr' '__iso_c_binding' '' 1 ((DERIVED UNKNOWN-INTENT UNKNOWN-PROC
UNKNOWN UNKNOWN IS_BIND_C IS_C_INTEROP IS_ISO_C) (DERIVED 57 1 1 UNKNOWN
()) 0 0 () () 0 ((66 '__c_ptr_c_address' (INTEGER 8 1 0 INTEGER ()) () (
UNKNOWN-FL UNKNOWN-INTENT UNKNOWN-PROC UNKNOWN UNKNOWN) UNKNOWN-ACCESS ()))
UNKNOWN-ACCESS () () 2 39)
67 'c_short' '__iso_c_binding' '' 1 ((PARAMETER UNKNOWN-INTENT
UNKNOWN-PROC UNKNOWN UNKNOWN IS_C_INTEROP IS_ISO_C) (INTEGER 4 1 1
INTEGER ()) 0 0 () (CONSTANT (INTEGER 4 1 1 UNKNOWN ()) 0 '2') () 0 () ()
() 2 1)
68 'c_signed_char' '__iso_c_binding' '' 1 ((PARAMETER UNKNOWN-INTENT
UNKNOWN-PROC UNKNOWN UNKNOWN IS_C_INTEROP IS_ISO_C) (INTEGER 4 1 1
INTEGER ()) 0 0 () (CONSTANT (INTEGER 4 1 1 UNKNOWN ()) 0 '1') () 0 () ()
() 2 7)
69 'c_size_t' '__iso_c_binding' '' 1 ((PARAMETER UNKNOWN-INTENT
UNKNOWN-PROC UNKNOWN UNKNOWN IS_C_INTEROP IS_ISO_C) (INTEGER 4 1 1
INTEGER ()) 0 0 () (CONSTANT (INTEGER 4 1 1 UNKNOWN ()) 0 '8') () 0 () ()
() 2 6)
70 'c_vertical_tab' '__iso_c_binding' '' 1 ((PARAMETER UNKNOWN-INTENT
UNKNOWN-PROC UNKNOWN UNKNOWN IS_C_INTEROP IS_ISO_C) (CHARACTER 1 1 1
CHARACTER ((CONSTANT (INTEGER 4 0 0 INTEGER ()) 0 '1'))) 0 0 () (
CONSTANT (CHARACTER 1 1 1 UNKNOWN (())) 0 1 '\U0000000b') () 0 () () ()
2 38)
71 'choose' 'common_functions' 'choose' 1 ((PROCEDURE UNKNOWN-INTENT
MODULE-PROC DECL UNKNOWN FUNCTION ALWAYS_EXPLICIT) (INTEGER 4 0 0
INTEGER ()) 72 0 (73) () 74 () () () 0 0)
75 'common_functions' 'common_functions' 'common_functions' 1 ((MODULE
UNKNOWN-INTENT UNKNOWN-PROC UNKNOWN UNKNOWN) (UNKNOWN 0 0 0 UNKNOWN ())
0 0 () () 0 () () () 0 0)
76 'compare_matrix' 'common_functions' 'compare_matrix' 1 ((PROCEDURE
UNKNOWN-INTENT MODULE-PROC DECL UNKNOWN ALLOCATABLE DIMENSION FUNCTION
ALWAYS_EXPLICIT) (INTEGER 4 0 0 INTEGER ()) 77 0 (78 79 80) (2 DEFERRED
() () () ()) 81 () () () 0 0)
82 'compare_multiple_matrix' 'common_functions' 'compare_multiple_matrix'
1 ((PROCEDURE UNKNOWN-INTENT MODULE-PROC DECL UNKNOWN ALLOCATABLE
DIMENSION FUNCTION ALWAYS_EXPLICIT) (INTEGER 4 0 0 INTEGER ()) 83 0 (84
85 86 87) (2 DEFERRED () () () ()) 88 () () () 0 0)
89 'compare_multiple_vector' 'common_functions' 'compare_multiple_vector'
1 ((PROCEDURE UNKNOWN-INTENT MODULE-PROC DECL UNKNOWN ALLOCATABLE
DIMENSION FUNCTION ALWAYS_EXPLICIT) (INTEGER 4 0 0 INTEGER ()) 90 0 (91
92 93 94) (1 DEFERRED () ()) 95 () () () 0 0)
96 'compare_vector' 'common_functions' 'compare_vector' 1 ((PROCEDURE
UNKNOWN-INTENT MODULE-PROC DECL UNKNOWN ALLOCATABLE DIMENSION FUNCTION
ALWAYS_EXPLICIT) (INTEGER 4 0 0 INTEGER ()) 97 0 (98 99 100 101) (1
DEFERRED () ()) 102 () () () 0 0)
103 'delete_values_vector_int' 'common_functions'
'delete_values_vector_int' 1 ((PROCEDURE UNKNOWN-INTENT MODULE-PROC DECL
UNKNOWN SUBROUTINE ALWAYS_EXPLICIT) (UNKNOWN 0 0 0 UNKNOWN ()) 104 0 (
105 106) () 0 () () () 0 0)
107 'destroy_outfuction' 'funcevalinterface' 'destroy_outfuction' 1 ((
PROCEDURE UNKNOWN-INTENT MODULE-PROC DECL UNKNOWN SUBROUTINE) (UNKNOWN 0
0 0 UNKNOWN ()) 108 0 (109) () 0 () () () 0 0)
110 'destroy_vector' 'common_functions' 'destroy_vector' 1 ((PROCEDURE
UNKNOWN-INTENT MODULE-PROC DECL UNKNOWN SUBROUTINE ALWAYS_EXPLICIT) (
UNKNOWN 0 0 0 UNKNOWN ()) 111 0 (112) () 0 () () () 0 0)
113 'eps_m' 'scattersearchtypes' 'eps_m' 1 ((PARAMETER UNKNOWN-INTENT
UNKNOWN-PROC UNKNOWN IMPLICIT-SAVE) (REAL 8 0 0 REAL ()) 0 0 () (
CONSTANT (REAL 8 0 0 REAL ()) 0 '0.12725dd1d243ac@-14') () 0 () () () 0
0)
114 'ex1' 'common_functions' 'ex1' 1 ((PROCEDURE UNKNOWN-INTENT
MODULE-PROC DECL UNKNOWN FUNCTION ALWAYS_EXPLICIT) (REAL 8 0 0 REAL ())
115 0 (116) () 114 () () () 0 0)
117 'extraparametters' 'scattersearchtypes' 'extraparametters' 1 ((
DERIVED UNKNOWN-INTENT UNKNOWN-PROC UNKNOWN UNKNOWN ALLOC_COMP) (
UNKNOWN 0 0 0 UNKNOWN ()) 0 0 () () 0 ((118 'empty' (INTEGER 4 0 0
INTEGER ()) () (UNKNOWN-FL UNKNOWN-INTENT UNKNOWN-PROC UNKNOWN UNKNOWN)
UNKNOWN-ACCESS ()) (119 'texp' (INTEGER 8 0 0 INTEGER ()) (1 DEFERRED ()
()) (UNKNOWN-FL UNKNOWN-INTENT UNKNOWN-PROC UNKNOWN UNKNOWN ALLOCATABLE
DIMENSION) UNKNOWN-ACCESS ()) (120 'yexp' (REAL 8 0 0 REAL ()) (2
DEFERRED () () () ()) (UNKNOWN-FL UNKNOWN-INTENT UNKNOWN-PROC UNKNOWN
UNKNOWN ALLOCATABLE DIMENSION) UNKNOWN-ACCESS ()) (121 'k1' (REAL 4 1 0
REAL ()) () (UNKNOWN-FL UNKNOWN-INTENT UNKNOWN-PROC UNKNOWN UNKNOWN)
UNKNOWN-ACCESS ()) (122 'k2' (REAL 4 1 0 REAL ()) () (UNKNOWN-FL
UNKNOWN-INTENT UNKNOWN-PROC UNKNOWN UNKNOWN) UNKNOWN-ACCESS ()) (123 'k3'
(REAL 4 1 0 REAL ()) () (UNKNOWN-FL UNKNOWN-INTENT UNKNOWN-PROC UNKNOWN
UNKNOWN) UNKNOWN-ACCESS ()) (124 'k4' (REAL 4 1 0 REAL ()) () (
UNKNOWN-FL UNKNOWN-INTENT UNKNOWN-PROC UNKNOWN UNKNOWN) UNKNOWN-ACCESS ()))
PUBLIC (() ()) () 0 0)
125 'find_in_vector' 'common_functions' 'find_in_vector' 1 ((PROCEDURE
UNKNOWN-INTENT MODULE-PROC DECL UNKNOWN SUBROUTINE ALWAYS_EXPLICIT) (
UNKNOWN 0 0 0 UNKNOWN ()) 126 0 (127 128 129 130) () 0 () () () 0 0)
131 'find_in_vector_int' 'common_functions' 'find_in_vector_int' 1 ((
PROCEDURE UNKNOWN-INTENT MODULE-PROC DECL UNKNOWN SUBROUTINE
ALWAYS_EXPLICIT) (UNKNOWN 0 0 0 UNKNOWN ()) 132 0 (133 134 135 136) () 0
() () () 0 0)
137 'findinteger' 'common_functions' 'findinteger' 1 ((PROCEDURE
UNKNOWN-INTENT MODULE-PROC DECL UNKNOWN FUNCTION ALWAYS_EXPLICIT) (
INTEGER 4 0 0 INTEGER ()) 138 0 (139 140) () 141 () () () 0 0)
142 'funcevalinterface' 'funcevalinterface' 'funcevalinterface' 1 ((
MODULE UNKNOWN-INTENT UNKNOWN-PROC UNKNOWN UNKNOWN) (UNKNOWN 0 0 0
UNKNOWN ()) 0 0 () () 0 () () () 0 0)
143 'fusion_matrix' 'common_functions' 'fusion_matrix' 1 ((PROCEDURE
UNKNOWN-INTENT MODULE-PROC DECL UNKNOWN SUBROUTINE ALWAYS_EXPLICIT) (
UNKNOWN 0 0 0 UNKNOWN ()) 144 0 (145 146) () 0 () () () 0 0)
147 'fusion_vector' 'common_functions' 'fusion_vector' 1 ((PROCEDURE
UNKNOWN-INTENT MODULE-PROC DECL UNKNOWN SUBROUTINE ALWAYS_EXPLICIT) (
UNKNOWN 0 0 0 UNKNOWN ()) 148 0 (149 150) () 0 () () () 0 0)
151 'fusion_vector_int' 'common_functions' 'fusion_vector_int' 1 ((
PROCEDURE UNKNOWN-INTENT MODULE-PROC DECL UNKNOWN SUBROUTINE
ALWAYS_EXPLICIT) (UNKNOWN 0 0 0 UNKNOWN ()) 152 0 (153 154) () 0 () () ()
0 0)
155 'goptions' 'scattersearchtypes' 'goptions' 1 ((DERIVED
UNKNOWN-INTENT UNKNOWN-PROC UNKNOWN UNKNOWN) (UNKNOWN 0 0 0 UNKNOWN ())
0 0 () () 0 ((156 'empty' (INTEGER 4 0 0 INTEGER ()) () (UNKNOWN-FL
UNKNOWN-INTENT UNKNOWN-PROC UNKNOWN UNKNOWN) UNKNOWN-ACCESS ()) (157
'dim_refset' (INTEGER 4 0 0 INTEGER ()) () (UNKNOWN-FL UNKNOWN-INTENT
UNKNOWN-PROC UNKNOWN UNKNOWN) UNKNOWN-ACCESS ()) (158 'ndiverse' (
INTEGER 4 0 0 INTEGER ()) () (UNKNOWN-FL UNKNOWN-INTENT UNKNOWN-PROC
UNKNOWN UNKNOWN) UNKNOWN-ACCESS ()) (159 'initiate' (INTEGER 4 0 0
INTEGER ()) () (UNKNOWN-FL UNKNOWN-INTENT UNKNOWN-PROC UNKNOWN UNKNOWN)
UNKNOWN-ACCESS ()) (160 'combination' (INTEGER 4 0 0 INTEGER ()) () (
UNKNOWN-FL UNKNOWN-INTENT UNKNOWN-PROC UNKNOWN UNKNOWN) UNKNOWN-ACCESS ())
(161 'regenerate' (INTEGER 4 0 0 INTEGER ()) () (UNKNOWN-FL
UNKNOWN-INTENT UNKNOWN-PROC UNKNOWN UNKNOWN) UNKNOWN-ACCESS ()) (162
'intens' (INTEGER 4 0 0 INTEGER ()) () (UNKNOWN-FL UNKNOWN-INTENT
UNKNOWN-PROC UNKNOWN UNKNOWN) UNKNOWN-ACCESS ()) (163 'diverse_criteria'
(INTEGER 4 0 0 INTEGER ()) () (UNKNOWN-FL UNKNOWN-INTENT UNKNOWN-PROC
UNKNOWN UNKNOWN) UNKNOWN-ACCESS ()) (164 'n_stuck' (INTEGER 4 0 0
INTEGER ()) () (UNKNOWN-FL UNKNOWN-INTENT UNKNOWN-PROC UNKNOWN UNKNOWN)
UNKNOWN-ACCESS ()) (165 'tolf' (REAL 8 0 0 REAL ()) () (UNKNOWN-FL
UNKNOWN-INTENT UNKNOWN-PROC UNKNOWN UNKNOWN) UNKNOWN-ACCESS ()) (166
'tolx' (REAL 8 0 0 REAL ()) () (UNKNOWN-FL UNKNOWN-INTENT UNKNOWN-PROC
UNKNOWN UNKNOWN) UNKNOWN-ACCESS ()) (167 'delete' (CHARACTER 1 1 0
CHARACTER ((CONSTANT (INTEGER 4 0 0 INTEGER ()) 0 '20'))) () (
UNKNOWN-FL UNKNOWN-INTENT UNKNOWN-PROC UNKNOWN UNKNOWN) UNKNOWN-ACCESS ()))
PUBLIC (() ()) () 0 0)
168 'index_of_ones' 'common_functions' 'index_of_ones' 1 ((PROCEDURE
UNKNOWN-INTENT MODULE-PROC DECL UNKNOWN SUBROUTINE ALWAYS_EXPLICIT) (
UNKNOWN 0 0 0 UNKNOWN ()) 169 0 (170 171) () 0 () () () 0 0)
172 'index_of_ones_matrix' 'common_functions' 'index_of_ones_matrix' 1 (
(PROCEDURE UNKNOWN-INTENT MODULE-PROC DECL UNKNOWN SUBROUTINE
ALWAYS_EXPLICIT) (UNKNOWN 0 0 0 UNKNOWN ()) 173 0 (174 175) () 0 () () ()
0 0)
176 'infinite' 'scattersearchtypes' 'infinite' 1 ((PARAMETER
UNKNOWN-INTENT UNKNOWN-PROC UNKNOWN IMPLICIT-SAVE) (REAL 8 0 0 REAL ())
0 0 () (CONSTANT (REAL 8 0 0 REAL ()) 0 '0.fffffffffffff8@256') () 0 ()
() () 0 0)
177 'inicializa_vector' 'common_functions' 'inicializa_vector' 1 ((
PROCEDURE UNKNOWN-INTENT MODULE-PROC DECL UNKNOWN SUBROUTINE
ALWAYS_EXPLICIT) (UNKNOWN 0 0 0 UNKNOWN ()) 178 0 (179 180) () 0 () () ()
0 0)
181 'inicializa_vector_value' 'common_functions' 'inicializa_vector_value'
1 ((PROCEDURE UNKNOWN-INTENT MODULE-PROC DECL UNKNOWN SUBROUTINE
ALWAYS_EXPLICIT) (UNKNOWN 0 0 0 UNKNOWN ()) 182 0 (183 184 185) () 0 ()
() () 0 0)
186 'insert_dinamic_vector_double_precission' 'common_functions'
'insert_dinamic_vector_double_precission' 1 ((PROCEDURE UNKNOWN-INTENT
MODULE-PROC DECL UNKNOWN SUBROUTINE ALWAYS_EXPLICIT) (UNKNOWN 0 0 0
UNKNOWN ()) 187 0 (188 189) () 0 () () () 0 0)
190 'loptions' 'scattersearchtypes' 'loptions' 1 ((DERIVED
UNKNOWN-INTENT UNKNOWN-PROC UNKNOWN UNKNOWN ALLOC_COMP) (UNKNOWN 0 0 0
UNKNOWN ()) 0 0 () () 0 ((191 'empty' (INTEGER 4 0 0 INTEGER ()) () (
UNKNOWN-FL UNKNOWN-INTENT UNKNOWN-PROC UNKNOWN UNKNOWN) UNKNOWN-ACCESS ())
(192 'tol' (INTEGER 4 0 0 INTEGER ()) () (UNKNOWN-FL UNKNOWN-INTENT
UNKNOWN-PROC UNKNOWN UNKNOWN) UNKNOWN-ACCESS ()) (193 'iterprint' (
INTEGER 4 0 0 INTEGER ()) () (UNKNOWN-FL UNKNOWN-INTENT UNKNOWN-PROC
UNKNOWN UNKNOWN) UNKNOWN-ACCESS ()) (194 'n1' (INTEGER 4 0 0 INTEGER ())
() (UNKNOWN-FL UNKNOWN-INTENT UNKNOWN-PROC UNKNOWN UNKNOWN)
UNKNOWN-ACCESS ()) (195 'n2' (INTEGER 4 0 0 INTEGER ()) () (UNKNOWN-FL
UNKNOWN-INTENT UNKNOWN-PROC UNKNOWN UNKNOWN) UNKNOWN-ACCESS ()) (196
'bestx' (INTEGER 4 0 0 INTEGER ()) () (UNKNOWN-FL UNKNOWN-INTENT
UNKNOWN-PROC UNKNOWN UNKNOWN) UNKNOWN-ACCESS ()) (197 'merit_filter' (
INTEGER 4 0 0 INTEGER ()) () (UNKNOWN-FL UNKNOWN-INTENT UNKNOWN-PROC
UNKNOWN UNKNOWN) UNKNOWN-ACCESS ()) (198 'distance_filter' (INTEGER 4 0
0 INTEGER ()) () (UNKNOWN-FL UNKNOWN-INTENT UNKNOWN-PROC UNKNOWN UNKNOWN)
UNKNOWN-ACCESS ()) (199 'wait_maxdist_limit' (INTEGER 4 0 0 INTEGER ())
() (UNKNOWN-FL UNKNOWN-INTENT UNKNOWN-PROC UNKNOWN UNKNOWN)
UNKNOWN-ACCESS ()) (200 'wait_th_limit' (INTEGER 4 0 0 INTEGER ()) () (
UNKNOWN-FL UNKNOWN-INTENT UNKNOWN-PROC UNKNOWN UNKNOWN) UNKNOWN-ACCESS ())
(201 'threshold_local' (REAL 8 0 0 REAL ()) () (UNKNOWN-FL
UNKNOWN-INTENT UNKNOWN-PROC UNKNOWN UNKNOWN) UNKNOWN-ACCESS ()) (202
'thfactor' (REAL 8 0 0 REAL ()) () (UNKNOWN-FL UNKNOWN-INTENT
UNKNOWN-PROC UNKNOWN UNKNOWN) UNKNOWN-ACCESS ()) (203 'maxdistfactor' (
REAL 8 0 0 REAL ()) () (UNKNOWN-FL UNKNOWN-INTENT UNKNOWN-PROC UNKNOWN
UNKNOWN) UNKNOWN-ACCESS ()) (204 'balance' (REAL 8 0 0 REAL ()) () (
UNKNOWN-FL UNKNOWN-INTENT UNKNOWN-PROC UNKNOWN UNKNOWN) UNKNOWN-ACCESS ())
(205 'extrap' (DERIVED 117 0 0 DERIVED ()) () (UNKNOWN-FL UNKNOWN-INTENT
UNKNOWN-PROC UNKNOWN UNKNOWN) UNKNOWN-ACCESS (STRUCTURE (DERIVED 117 0 0
DERIVED ()) 0 ((() ()) ((NULL (INTEGER 8 0 0 INTEGER ()) 0) ()) ((NULL (
REAL 8 0 0 REAL ()) 0) ()) (() ()) (() ()) (() ()) (() ())) ())) (206
'solver' (CHARACTER 1 1 0 CHARACTER ((CONSTANT (INTEGER 4 0 0 INTEGER ())
0 '20'))) () (UNKNOWN-FL UNKNOWN-INTENT UNKNOWN-PROC UNKNOWN UNKNOWN)
UNKNOWN-ACCESS ()) (207 'finish' (CHARACTER 1 1 0 CHARACTER ((CONSTANT (
INTEGER 4 0 0 INTEGER ()) 0 '20'))) (1 DEFERRED () ()) (UNKNOWN-FL
UNKNOWN-INTENT UNKNOWN-PROC UNKNOWN UNKNOWN ALLOCATABLE DIMENSION)
UNKNOWN-ACCESS ())) PUBLIC (() ()) () 0 0)
208 'max_matrix' 'common_functions' 'max_matrix' 1 ((PROCEDURE
UNKNOWN-INTENT MODULE-PROC DECL UNKNOWN ALLOCATABLE DIMENSION FUNCTION
ALWAYS_EXPLICIT) (REAL 8 0 0 REAL ()) 209 0 (210 211) (2 DEFERRED () ()
() ()) 212 () () () 0 0)
213 'nchoosek_fpar' 'common_functions' 'nchoosek_fpar' 1 ((PROCEDURE
UNKNOWN-INTENT MODULE-PROC DECL UNKNOWN SUBROUTINE ALWAYS_EXPLICIT) (
UNKNOWN 0 0 0 UNKNOWN ()) 214 0 (215 216 217) () 0 () () () 0 0)
218 'opts' 'scattersearchtypes' 'opts' 1 ((DERIVED UNKNOWN-INTENT
UNKNOWN-PROC UNKNOWN UNKNOWN ALLOC_COMP) (UNKNOWN 0 0 0 UNKNOWN ()) 0 0
() () 0 ((219 'empty' (INTEGER 4 0 0 INTEGER ()) () (UNKNOWN-FL
UNKNOWN-INTENT UNKNOWN-PROC UNKNOWN UNKNOWN) UNKNOWN-ACCESS ()) (220
'useroptions' (DERIVED 221 0 0 DERIVED ()) () (UNKNOWN-FL UNKNOWN-INTENT
UNKNOWN-PROC UNKNOWN UNKNOWN) UNKNOWN-ACCESS (STRUCTURE (DERIVED 221 0 0
DERIVED ()) 0 ((() ()) (() ()) (() ()) (() ()) (() ()) (() ()) (() ()) (
() ()) (() ()) (() ()) (() ()) ((NULL (INTEGER 4 0 0 INTEGER ()) 0) ())
(() ())) ())) (222 'globaloptions' (DERIVED 155 0 0 DERIVED ()) () (
UNKNOWN-FL UNKNOWN-INTENT UNKNOWN-PROC UNKNOWN UNKNOWN) UNKNOWN-ACCESS ())
(223 'localoptions' (DERIVED 190 0 0 DERIVED ()) () (UNKNOWN-FL
UNKNOWN-INTENT UNKNOWN-PROC UNKNOWN UNKNOWN) UNKNOWN-ACCESS (STRUCTURE (
DERIVED 190 0 0 DERIVED ()) 0 ((() ()) (() ()) (() ()) (() ()) (() ()) (
() ()) (() ()) (() ()) (() ()) (() ()) (() ()) (() ()) (() ()) (() ()) (
(STRUCTURE (DERIVED 117 0 0 DERIVED ()) 0 ((() ()) ((NULL (INTEGER 8 0 0
INTEGER ()) 0) ()) ((NULL (REAL 8 0 0 REAL ()) 0) ()) (() ()) (() ()) (
() ()) (() ())) ()) ()) (() ()) ((NULL (CHARACTER 1 1 0 CHARACTER ((
CONSTANT (INTEGER 4 0 0 INTEGER ()) 0 '20'))) 0) ())) ()))) PUBLIC (() ())
() 0 0)
224 'outfuction' 'scattersearchtypes' 'outfuction' 1 ((DERIVED
UNKNOWN-INTENT UNKNOWN-PROC UNKNOWN UNKNOWN ALLOC_COMP) (UNKNOWN 0 0 0
UNKNOWN ()) 0 0 () () 0 ((225 'value' (REAL 8 0 0 REAL ()) () (
UNKNOWN-FL UNKNOWN-INTENT UNKNOWN-PROC UNKNOWN UNKNOWN) UNKNOWN-ACCESS ())
(226 'value_penalty' (REAL 8 0 0 REAL ()) () (UNKNOWN-FL UNKNOWN-INTENT
UNKNOWN-PROC UNKNOWN UNKNOWN) UNKNOWN-ACCESS ()) (227 'pena' (REAL 8 0 0
REAL ()) () (UNKNOWN-FL UNKNOWN-INTENT UNKNOWN-PROC UNKNOWN UNKNOWN)
UNKNOWN-ACCESS ()) (228 'nlc' (REAL 8 0 0 REAL ()) (1 DEFERRED () ()) (
UNKNOWN-FL UNKNOWN-INTENT UNKNOWN-PROC UNKNOWN UNKNOWN ALLOCATABLE
DIMENSION) UNKNOWN-ACCESS ()) (229 'include' (INTEGER 4 0 0 INTEGER ())
() (UNKNOWN-FL UNKNOWN-INTENT UNKNOWN-PROC UNKNOWN UNKNOWN)
UNKNOWN-ACCESS ()) (230 'x' (REAL 8 0 0 REAL ()) (1 DEFERRED () ()) (
UNKNOWN-FL UNKNOWN-INTENT UNKNOWN-PROC UNKNOWN UNKNOWN ALLOCATABLE
DIMENSION) UNKNOWN-ACCESS ())) PUBLIC (() ()) () 0 0)
231 'precision_d' 'scattersearchtypes' 'precision_d' 1 ((PARAMETER
UNKNOWN-INTENT UNKNOWN-PROC UNKNOWN IMPLICIT-SAVE) (INTEGER 4 0 0
INTEGER ()) 0 0 () (CONSTANT (INTEGER 4 0 0 INTEGER ()) 0 '15') () 0 ()
() () 0 0)
232 'precision_f' 'scattersearchtypes' 'precision_f' 1 ((PARAMETER
UNKNOWN-INTENT UNKNOWN-PROC UNKNOWN IMPLICIT-SAVE) (INTEGER 4 0 0
INTEGER ()) 0 0 () (CONSTANT (INTEGER 4 0 0 INTEGER ()) 0 '7') () 0 () ()
() 0 0)
233 'print_matrix' 'common_functions' 'print_matrix' 1 ((PROCEDURE
UNKNOWN-INTENT MODULE-PROC DECL UNKNOWN SUBROUTINE ALWAYS_EXPLICIT) (
UNKNOWN 0 0 0 UNKNOWN ()) 234 0 (235) () 0 () () () 0 0)
236 'print_matrix_integer' 'common_functions' 'print_matrix_integer' 1 (
(PROCEDURE UNKNOWN-INTENT MODULE-PROC DECL UNKNOWN SUBROUTINE
ALWAYS_EXPLICIT) (UNKNOWN 0 0 0 UNKNOWN ()) 237 0 (238) () 0 () () () 0
0)
239 'print_vector' 'common_functions' 'print_vector' 1 ((PROCEDURE
UNKNOWN-INTENT MODULE-PROC DECL UNKNOWN SUBROUTINE ALWAYS_EXPLICIT) (
UNKNOWN 0 0 0 UNKNOWN ()) 240 0 (241) () 0 () () () 0 0)
242 'problem' 'scattersearchtypes' 'problem' 1 ((DERIVED UNKNOWN-INTENT
UNKNOWN-PROC UNKNOWN UNKNOWN ALLOC_COMP) (UNKNOWN 0 0 0 UNKNOWN ()) 0 0
() () 0 ((243 'empty' (INTEGER 4 0 0 INTEGER ()) () (UNKNOWN-FL
UNKNOWN-INTENT UNKNOWN-PROC UNKNOWN UNKNOWN) UNKNOWN-ACCESS ()) (244 'f'
(CHARACTER 1 0 0 CHARACTER ((CONSTANT (INTEGER 4 0 0 INTEGER ()) 0 '20')))
() (UNKNOWN-FL UNKNOWN-INTENT UNKNOWN-PROC UNKNOWN UNKNOWN)
UNKNOWN-ACCESS ()) (245 'neq' (INTEGER 4 0 0 INTEGER ()) () (UNKNOWN-FL
UNKNOWN-INTENT UNKNOWN-PROC UNKNOWN UNKNOWN) UNKNOWN-ACCESS ()) (246
'int_var' (INTEGER 4 0 0 INTEGER ()) () (UNKNOWN-FL UNKNOWN-INTENT
UNKNOWN-PROC UNKNOWN UNKNOWN) UNKNOWN-ACCESS ()) (247 'bin_var' (
INTEGER 4 0 0 INTEGER ()) () (UNKNOWN-FL UNKNOWN-INTENT UNKNOWN-PROC
UNKNOWN UNKNOWN) UNKNOWN-ACCESS ()) (248 'vtr' (REAL 8 0 0 REAL ()) (1
DEFERRED () ()) (UNKNOWN-FL UNKNOWN-INTENT UNKNOWN-PROC UNKNOWN UNKNOWN
ALLOCATABLE DIMENSION) UNKNOWN-ACCESS ()) (249 'xl' (REAL 8 0 0 REAL ())
(1 DEFERRED () ()) (UNKNOWN-FL UNKNOWN-INTENT UNKNOWN-PROC UNKNOWN
UNKNOWN ALLOCATABLE DIMENSION) UNKNOWN-ACCESS ()) (250 'xu' (REAL 8 0 0
REAL ()) (1 DEFERRED () ()) (UNKNOWN-FL UNKNOWN-INTENT UNKNOWN-PROC
UNKNOWN UNKNOWN ALLOCATABLE DIMENSION) UNKNOWN-ACCESS ()) (251 'cl' (
REAL 8 0 0 REAL ()) (1 DEFERRED () ()) (UNKNOWN-FL UNKNOWN-INTENT
UNKNOWN-PROC UNKNOWN UNKNOWN ALLOCATABLE DIMENSION) UNKNOWN-ACCESS ()) (
252 'cu' (REAL 8 0 0 REAL ()) (1 DEFERRED () ()) (UNKNOWN-FL
UNKNOWN-INTENT UNKNOWN-PROC UNKNOWN UNKNOWN ALLOCATABLE DIMENSION)
UNKNOWN-ACCESS ()) (253 'ineq' (INTEGER 4 0 0 INTEGER ()) () (
UNKNOWN-FL UNKNOWN-INTENT UNKNOWN-PROC UNKNOWN UNKNOWN) UNKNOWN-ACCESS ())
(254 'x0' (REAL 8 0 0 REAL ()) (2 DEFERRED () () () ()) (UNKNOWN-FL
UNKNOWN-INTENT UNKNOWN-PROC UNKNOWN UNKNOWN ALLOCATABLE DIMENSION)
UNKNOWN-ACCESS ()) (255 'f0' (REAL 8 0 0 REAL ()) (1 DEFERRED () ()) (
UNKNOWN-FL UNKNOWN-INTENT UNKNOWN-PROC UNKNOWN UNKNOWN ALLOCATABLE
DIMENSION) UNKNOWN-ACCESS ())) PUBLIC (() ()) () 0 0)
256 'random_det_matrix_seed_10' 'common_functions'
'random_det_matrix_seed_10' 1 ((PROCEDURE UNKNOWN-INTENT MODULE-PROC
DECL UNKNOWN SUBROUTINE ALWAYS_EXPLICIT) (UNKNOWN 0 0 0 UNKNOWN ()) 257
0 (258 259 260 261 262) () 0 () () () 0 0)
263 'random_det_number' 'common_functions' 'random_det_number' 1 ((
PROCEDURE UNKNOWN-INTENT MODULE-PROC DECL UNKNOWN SUBROUTINE
ALWAYS_EXPLICIT) (UNKNOWN 0 0 0 UNKNOWN ()) 264 0 (265 266 267) () 0 ()
() () 0 0)
268 'random_det_vector_5' 'common_functions' 'random_det_vector_5' 1 ((
PROCEDURE UNKNOWN-INTENT MODULE-PROC DECL UNKNOWN SUBROUTINE
ALWAYS_EXPLICIT) (UNKNOWN 0 0 0 UNKNOWN ()) 269 0 (270 271 272 273 274
275 276) () 0 () () () 0 0)
277 'random_det_vector_seed' 'common_functions' 'random_det_vector_seed'
1 ((PROCEDURE UNKNOWN-INTENT MODULE-PROC DECL UNKNOWN SUBROUTINE
ALWAYS_EXPLICIT) (UNKNOWN 0 0 0 UNKNOWN ()) 278 0 (279 280 281 282 283
284) () 0 () () () 0 0)
285 'random_det_vector_seed_10' 'common_functions'
'random_det_vector_seed_10' 1 ((PROCEDURE UNKNOWN-INTENT MODULE-PROC
DECL UNKNOWN SUBROUTINE ALWAYS_EXPLICIT) (UNKNOWN 0 0 0 UNKNOWN ()) 286
0 (287 288 289 290) () 0 () () () 0 0)
291 'random_matrix_seed_10' 'common_functions' 'random_matrix_seed_10' 1
((PROCEDURE UNKNOWN-INTENT MODULE-PROC DECL UNKNOWN SUBROUTINE
ALWAYS_EXPLICIT) (UNKNOWN 0 0 0 UNKNOWN ()) 292 0 (293 294 295 296) () 0
() () () 0 0)
297 'random_vector_5' 'common_functions' 'random_vector_5' 1 ((
PROCEDURE UNKNOWN-INTENT MODULE-PROC DECL UNKNOWN SUBROUTINE
ALWAYS_EXPLICIT) (UNKNOWN 0 0 0 UNKNOWN ()) 298 0 (299 300 301 302 303
304) () 0 () () () 0 0)
305 'random_vector_seed' 'common_functions' 'random_vector_seed' 1 ((
PROCEDURE UNKNOWN-INTENT MODULE-PROC DECL UNKNOWN SUBROUTINE
ALWAYS_EXPLICIT) (UNKNOWN 0 0 0 UNKNOWN ()) 306 0 (307 308 309 310 311)
() 0 () () () 0 0)
312 'random_vector_seed_10' 'common_functions' 'random_vector_seed_10' 1
((PROCEDURE UNKNOWN-INTENT MODULE-PROC DECL UNKNOWN SUBROUTINE
ALWAYS_EXPLICIT) (UNKNOWN 0 0 0 UNKNOWN ()) 313 0 (314 315 316) () 0 ()
() () 0 0)
317 'randperm_int' 'common_functions' 'randperm_int' 1 ((PROCEDURE
UNKNOWN-INTENT MODULE-PROC DECL UNKNOWN SUBROUTINE ALWAYS_EXPLICIT) (
UNKNOWN 0 0 0 UNKNOWN ()) 318 0 (319) () 0 () () () 0 0)
320 'range_d' 'scattersearchtypes' 'range_d' 1 ((PARAMETER
UNKNOWN-INTENT UNKNOWN-PROC UNKNOWN IMPLICIT-SAVE) (INTEGER 4 0 0
INTEGER ()) 0 0 () (CONSTANT (INTEGER 4 0 0 INTEGER ()) 0 '307') () 0 ()
() () 0 0)
321 'range_f' 'scattersearchtypes' 'range_f' 1 ((PARAMETER
UNKNOWN-INTENT UNKNOWN-PROC UNKNOWN IMPLICIT-SAVE) (INTEGER 4 0 0
INTEGER ()) 0 0 () (CONSTANT (INTEGER 4 0 0 INTEGER ()) 0 '150') () 0 ()
() () 0 0)
322 'reajust_index' 'common_functions' 'reajust_index' 1 ((PROCEDURE
UNKNOWN-INTENT MODULE-PROC DECL UNKNOWN SUBROUTINE ALWAYS_EXPLICIT) (
UNKNOWN 0 0 0 UNKNOWN ()) 323 0 (324) () 0 () () () 0 0)
325 'real' '(intrinsic)' 'real' 1 ((PROCEDURE UNKNOWN-INTENT
UNKNOWN-PROC UNKNOWN UNKNOWN FUNCTION) (REAL 4 0 0 REAL ()) 0 0 () ()
325 () () () 0 0)
326 'refsettype' 'scattersearchtypes' 'refsettype' 1 ((DERIVED
UNKNOWN-INTENT UNKNOWN-PROC UNKNOWN UNKNOWN ALLOC_COMP) (UNKNOWN 0 0 0
UNKNOWN ()) 0 0 () () 0 ((327 'x' (REAL 8 0 0 REAL ()) (2 DEFERRED () ()
() ()) (UNKNOWN-FL UNKNOWN-INTENT UNKNOWN-PROC UNKNOWN UNKNOWN
ALLOCATABLE DIMENSION) UNKNOWN-ACCESS ()) (328 'f' (REAL 8 0 0 REAL ())
(1 DEFERRED () ()) (UNKNOWN-FL UNKNOWN-INTENT UNKNOWN-PROC UNKNOWN
UNKNOWN ALLOCATABLE DIMENSION) UNKNOWN-ACCESS ()) (329 'fpen' (REAL 8 0
0 REAL ()) (1 DEFERRED () ()) (UNKNOWN-FL UNKNOWN-INTENT UNKNOWN-PROC
UNKNOWN UNKNOWN ALLOCATABLE DIMENSION) UNKNOWN-ACCESS ()) (330 'nlc' (
REAL 8 0 0 REAL ()) (2 DEFERRED () () () ()) (UNKNOWN-FL UNKNOWN-INTENT
UNKNOWN-PROC UNKNOWN UNKNOWN ALLOCATABLE DIMENSION) UNKNOWN-ACCESS ()) (
331 'penalty' (REAL 8 0 0 REAL ()) (1 DEFERRED () ()) (UNKNOWN-FL
UNKNOWN-INTENT UNKNOWN-PROC UNKNOWN UNKNOWN ALLOCATABLE DIMENSION)
UNKNOWN-ACCESS ()) (332 'parent_index' (INTEGER 4 0 0 INTEGER ()) (1
DEFERRED () ()) (UNKNOWN-FL UNKNOWN-INTENT UNKNOWN-PROC UNKNOWN UNKNOWN
ALLOCATABLE DIMENSION) UNKNOWN-ACCESS ())) PUBLIC (() ()) () 0 0)
333 'replace_matrix' 'common_functions' 'replace_matrix' 1 ((PROCEDURE
UNKNOWN-INTENT MODULE-PROC DECL UNKNOWN SUBROUTINE ALWAYS_EXPLICIT) (
UNKNOWN 0 0 0 UNKNOWN ()) 334 0 (335 336) () 0 () () () 0 0)
337 'resultsf' 'scattersearchtypes' 'resultsf' 1 ((DERIVED
UNKNOWN-INTENT UNKNOWN-PROC UNKNOWN UNKNOWN ALLOC_COMP) (UNKNOWN 0 0 0
UNKNOWN ()) 0 0 () () 0 ((338 'refsett' (DERIVED 326 0 0 DERIVED ()) ()
(UNKNOWN-FL UNKNOWN-INTENT UNKNOWN-PROC UNKNOWN UNKNOWN) UNKNOWN-ACCESS
(STRUCTURE (DERIVED 326 0 0 DERIVED ()) 0 (((NULL (REAL 8 0 0 REAL ()) 0)
()) ((NULL (REAL 8 0 0 REAL ()) 0) ()) ((NULL (REAL 8 0 0 REAL ()) 0) ())
((NULL (REAL 8 0 0 REAL ()) 0) ()) ((NULL (REAL 8 0 0 REAL ()) 0) ()) (
(NULL (INTEGER 4 0 0 INTEGER ()) 0) ())) ())) (339 'fbest' (REAL 8 0 0
REAL ()) (1 DEFERRED () ()) (UNKNOWN-FL UNKNOWN-INTENT UNKNOWN-PROC
UNKNOWN UNKNOWN ALLOCATABLE DIMENSION) UNKNOWN-ACCESS ()) (340 'xbest' (
REAL 8 0 0 REAL ()) (1 DEFERRED () ()) (UNKNOWN-FL UNKNOWN-INTENT
UNKNOWN-PROC UNKNOWN UNKNOWN ALLOCATABLE DIMENSION) UNKNOWN-ACCESS ()) (
341 'cputime' (REAL 8 1 0 REAL ()) () (UNKNOWN-FL UNKNOWN-INTENT
UNKNOWN-PROC UNKNOWN UNKNOWN) UNKNOWN-ACCESS ()) (342 'f' (REAL 8 0 0
REAL ()) (1 DEFERRED () ()) (UNKNOWN-FL UNKNOWN-INTENT UNKNOWN-PROC
UNKNOWN UNKNOWN ALLOCATABLE DIMENSION) UNKNOWN-ACCESS ()) (343 'x' (
REAL 8 0 0 REAL ()) (2 DEFERRED () () () ()) (UNKNOWN-FL UNKNOWN-INTENT
UNKNOWN-PROC UNKNOWN UNKNOWN ALLOCATABLE DIMENSION) UNKNOWN-ACCESS ()) (
344 'time' (REAL 8 1 0 REAL ()) (1 DEFERRED () ()) (UNKNOWN-FL
UNKNOWN-INTENT UNKNOWN-PROC UNKNOWN UNKNOWN ALLOCATABLE DIMENSION)
UNKNOWN-ACCESS ()) (345 'neval' (INTEGER 8 1 0 INTEGER ()) (1 DEFERRED ()
()) (UNKNOWN-FL UNKNOWN-INTENT UNKNOWN-PROC UNKNOWN UNKNOWN ALLOCATABLE
DIMENSION) UNKNOWN-ACCESS ()) (346 'numeval' (INTEGER 8 1 0 INTEGER ())
() (UNKNOWN-FL UNKNOWN-INTENT UNKNOWN-PROC UNKNOWN UNKNOWN)
UNKNOWN-ACCESS ()) (347 'local_solutions' (INTEGER 8 1 0 INTEGER ()) ()
(UNKNOWN-FL UNKNOWN-INTENT UNKNOWN-PROC UNKNOWN UNKNOWN) UNKNOWN-ACCESS
()) (348 'local_solutions_values' (INTEGER 8 1 0 INTEGER ()) (1 DEFERRED
() ()) (UNKNOWN-FL UNKNOWN-INTENT UNKNOWN-PROC UNKNOWN UNKNOWN
ALLOCATABLE DIMENSION) UNKNOWN-ACCESS ()) (349 'end_crit' (INTEGER 8 1 0
INTEGER ()) () (UNKNOWN-FL UNKNOWN-INTENT UNKNOWN-PROC UNKNOWN UNKNOWN)
UNKNOWN-ACCESS ())) PUBLIC (() ()) () 0 0)
350 'return_random_number' 'common_functions' 'return_random_number' 1 (
(PROCEDURE UNKNOWN-INTENT MODULE-PROC DECL UNKNOWN FUNCTION) (REAL 8 0 0
REAL ()) 351 0 (352) () 353 () () () 0 0)
354 'return_values_matrix_index' 'common_functions'
'return_values_matrix_index' 1 ((PROCEDURE UNKNOWN-INTENT MODULE-PROC
DECL UNKNOWN SUBROUTINE ALWAYS_EXPLICIT) (UNKNOWN 0 0 0 UNKNOWN ()) 355
0 (356 357 358) () 0 () () () 0 0)
359 'row_one' 'common_functions' 'row_one' 1 ((PROCEDURE UNKNOWN-INTENT
MODULE-PROC DECL UNKNOWN SUBROUTINE ALWAYS_EXPLICIT) (UNKNOWN 0 0 0
UNKNOWN ()) 360 0 (361 362 363) () 0 () () () 0 0)
364 'scattersearchtypes' 'scattersearchtypes' 'scattersearchtypes' 1 ((
MODULE UNKNOWN-INTENT UNKNOWN-PROC UNKNOWN UNKNOWN) (UNKNOWN 0 0 0
UNKNOWN ()) 0 0 () () 0 () () () 0 0)
365 'selected_real_kind' '(intrinsic)' 'selected_real_kind' 1 ((
PROCEDURE UNKNOWN-INTENT UNKNOWN-PROC UNKNOWN UNKNOWN FUNCTION) (REAL 4
0 0 REAL ()) 0 0 () () 365 () () () 0 0)
366 'square_roots_polinom' 'common_functions' 'square_roots_polinom' 1 (
(PROCEDURE UNKNOWN-INTENT MODULE-PROC DECL UNKNOWN SUBROUTINE) (UNKNOWN
0 0 0 UNKNOWN ()) 367 0 (368 369) () 0 () () () 0 0)
370 'ssm_evalfc' 'funcevalinterface' 'ssm_evalfc' 1 ((PROCEDURE
UNKNOWN-INTENT MODULE-PROC DECL UNKNOWN FUNCTION ALWAYS_EXPLICIT) (
DERIVED 224 0 0 DERIVED ()) 371 0 (372 373 374 375 376 377 378) () 379 ()
() () 0 0)
380 'ssm_penalty_function' 'funcevalinterface' 'ssm_penalty_function' 1
((PROCEDURE UNKNOWN-INTENT MODULE-PROC DECL UNKNOWN FUNCTION
ALWAYS_EXPLICIT) (REAL 8 0 0 REAL ()) 381 0 (382 383 384 385) () 386 ()
() () 0 0)
387 'ssm_round_int' 'funcevalinterface' 'ssm_round_int' 1 ((PROCEDURE
UNKNOWN-INTENT MODULE-PROC DECL UNKNOWN SUBROUTINE ALWAYS_EXPLICIT) (
UNKNOWN 0 0 0 UNKNOWN ()) 388 0 (389 390 391 392) () 0 () () () 0 0)
393 'tol_prec' 'scattersearchtypes' 'tol_prec' 1 ((PARAMETER
UNKNOWN-INTENT UNKNOWN-PROC UNKNOWN IMPLICIT-SAVE) (REAL 8 0 0 REAL ())
0 0 () (CONSTANT (REAL 8 0 0 REAL ()) 0 '0.12725dd1d243ac@-14') () 0 ()
() () 0 0)
394 'topology_data_fortran' 'scattersearchtypes' 'topology_data_fortran'
1 ((DERIVED UNKNOWN-INTENT UNKNOWN-PROC UNKNOWN UNKNOWN ALLOC_COMP) (
UNKNOWN 0 0 0 UNKNOWN ()) 0 0 () () 0 ((395 'num_r' (INTEGER 4 0 0
INTEGER ()) () (UNKNOWN-FL UNKNOWN-INTENT UNKNOWN-PROC UNKNOWN UNKNOWN)
UNKNOWN-ACCESS ()) (396 'num_left' (INTEGER 4 0 0 INTEGER ()) () (
UNKNOWN-FL UNKNOWN-INTENT UNKNOWN-PROC UNKNOWN UNKNOWN) UNKNOWN-ACCESS ())
(397 'rigth' (INTEGER 4 0 0 INTEGER ()) (1 DEFERRED () ()) (UNKNOWN-FL
UNKNOWN-INTENT UNKNOWN-PROC UNKNOWN UNKNOWN ALLOCATABLE DIMENSION)
UNKNOWN-ACCESS ()) (398 'left' (INTEGER 4 0 0 INTEGER ()) (1 DEFERRED ()
()) (UNKNOWN-FL UNKNOWN-INTENT UNKNOWN-PROC UNKNOWN UNKNOWN ALLOCATABLE
DIMENSION) UNKNOWN-ACCESS ())) PUBLIC (() ()) () 0 0)
221 'uoptions' 'scattersearchtypes' 'uoptions' 1 ((DERIVED
UNKNOWN-INTENT UNKNOWN-PROC UNKNOWN UNKNOWN ALLOC_COMP) (UNKNOWN 0 0 0
UNKNOWN ()) 0 0 () () 0 ((399 'empty' (INTEGER 4 0 0 INTEGER ()) () (
UNKNOWN-FL UNKNOWN-INTENT UNKNOWN-PROC UNKNOWN UNKNOWN) UNKNOWN-ACCESS ())
(400 'iterprint' (INTEGER 4 0 0 INTEGER ()) () (UNKNOWN-FL
UNKNOWN-INTENT UNKNOWN-PROC UNKNOWN UNKNOWN) UNKNOWN-ACCESS ()) (401
'plot' (INTEGER 4 0 0 INTEGER ()) () (UNKNOWN-FL UNKNOWN-INTENT
UNKNOWN-PROC UNKNOWN UNKNOWN) UNKNOWN-ACCESS ()) (402 'weight' (INTEGER
4 0 0 INTEGER ()) () (UNKNOWN-FL UNKNOWN-INTENT UNKNOWN-PROC UNKNOWN
UNKNOWN) UNKNOWN-ACCESS ()) (403 'nstuck_solution' (INTEGER 4 0 0
INTEGER ()) () (UNKNOWN-FL UNKNOWN-INTENT UNKNOWN-PROC UNKNOWN UNKNOWN)
UNKNOWN-ACCESS ()) (404 'strategy' (INTEGER 4 0 0 INTEGER ()) () (
UNKNOWN-FL UNKNOWN-INTENT UNKNOWN-PROC UNKNOWN UNKNOWN) UNKNOWN-ACCESS ())
(405 'inter_save' (INTEGER 4 0 0 INTEGER ()) () (UNKNOWN-FL
UNKNOWN-INTENT UNKNOWN-PROC UNKNOWN UNKNOWN) UNKNOWN-ACCESS ()) (406
'maxeval' (INTEGER 8 1 0 INTEGER ()) () (UNKNOWN-FL UNKNOWN-INTENT
UNKNOWN-PROC UNKNOWN UNKNOWN) UNKNOWN-ACCESS ()) (407 'maxtime' (REAL 8
1 0 REAL ()) () (UNKNOWN-FL UNKNOWN-INTENT UNKNOWN-PROC UNKNOWN UNKNOWN)
UNKNOWN-ACCESS ()) (408 'tolc' (REAL 8 0 0 REAL ()) () (UNKNOWN-FL
UNKNOWN-INTENT UNKNOWN-PROC UNKNOWN UNKNOWN) UNKNOWN-ACCESS ()) (409
'prob_bound' (REAL 8 0 0 REAL ()) () (UNKNOWN-FL UNKNOWN-INTENT
UNKNOWN-PROC UNKNOWN UNKNOWN) UNKNOWN-ACCESS ()) (410 'log_var' (
INTEGER 4 0 0 INTEGER ()) (1 DEFERRED () ()) (UNKNOWN-FL UNKNOWN-INTENT
UNKNOWN-PROC UNKNOWN UNKNOWN ALLOCATABLE DIMENSION) UNKNOWN-ACCESS ()) (
411 'init_point' (INTEGER 4 0 0 INTEGER ()) () (UNKNOWN-FL
UNKNOWN-INTENT UNKNOWN-PROC UNKNOWN UNKNOWN) UNKNOWN-ACCESS ())) PUBLIC
(() ()) () 0 0)
412 'variance_vector' 'common_functions' 'variance_vector' 1 ((
PROCEDURE UNKNOWN-INTENT MODULE-PROC DECL UNKNOWN FUNCTION
ALWAYS_EXPLICIT) (REAL 8 0 0 REAL ()) 413 0 (414) () 415 () () () 0 0)
24 'cptr' '__iso_c_binding' 'cptr' 23 ((DERIVED IN UNKNOWN-PROC UNKNOWN
UNKNOWN VALUE DUMMY) (DERIVED 57 0 0 DERIVED ()) 0 0 () () 0 () () () 0
0)
25 'fptr' '__iso_c_binding' 'fptr' 23 ((VARIABLE UNKNOWN-INTENT
UNKNOWN-PROC UNKNOWN UNKNOWN POINTER DUMMY) (VOID 0 0 0 VOID ()) 0 0 ()
() 0 () () () 0 0)
26 'shape' '__iso_c_binding' 'shape' 23 ((VARIABLE IN UNKNOWN-PROC
UNKNOWN UNKNOWN DIMENSION OPTIONAL DUMMY) (VOID 4 0 0 VOID ()) 0 0 () (
1 ASSUMED_SHAPE (CONSTANT (INTEGER 4 0 0 INTEGER ()) 0 '1') ()) 0 () ()
() 0 0)
14 'c_ptr_1' '__iso_c_binding' 'c_ptr_1' 13 ((DERIVED IN UNKNOWN-PROC
UNKNOWN UNKNOWN VALUE DUMMY) (DERIVED 57 0 0 DERIVED ()) 0 0 () () 0 ()
() () 0 0)
15 'c_ptr_2' '__iso_c_binding' 'c_ptr_2' 13 ((DERIVED IN UNKNOWN-PROC
UNKNOWN UNKNOWN OPTIONAL VALUE DUMMY) (DERIVED 57 0 0 DERIVED ()) 0 0 ()
() 0 () () () 0 0)
29 'cptr' '__iso_c_binding' 'cptr' 28 ((DERIVED IN UNKNOWN-PROC UNKNOWN
UNKNOWN VALUE DUMMY) (DERIVED 35 0 0 DERIVED ()) 0 0 () () 0 () () () 0
0)
30 'fptr' '__iso_c_binding' 'fptr' 28 ((VARIABLE UNKNOWN-INTENT
UNKNOWN-PROC UNKNOWN UNKNOWN DUMMY PROC_POINTER) (VOID 0 0 0 VOID ()) 0
0 () () 0 () () () 0 0)
372 'exp1' '' 'exp1' 371 ((VARIABLE INOUT UNKNOWN-PROC UNKNOWN UNKNOWN
DUMMY) (DERIVED 57 0 0 DERIVED ()) 0 0 () () 0 () () () 0 0)
373 'fitnessfunction' '' 'fitnessfunction' 371 ((VARIABLE INOUT
UNKNOWN-PROC UNKNOWN UNKNOWN DUMMY) (DERIVED 35 0 0 DERIVED ()) 0 0 () ()
0 () () () 0 0)
374 'x' '' 'x' 371 ((VARIABLE INOUT UNKNOWN-PROC UNKNOWN UNKNOWN
ALLOCATABLE DIMENSION DUMMY) (REAL 8 0 0 REAL ()) 0 0 () (1 DEFERRED ()
()) 0 () () () 0 0)
375 'problem1' '' 'problem1' 371 ((VARIABLE IN UNKNOWN-PROC UNKNOWN
UNKNOWN DUMMY) (DERIVED 242 0 0 DERIVED ()) 0 0 () () 0 () () () 0 0)
376 'opts1' '' 'opts1' 371 ((VARIABLE IN UNKNOWN-PROC UNKNOWN UNKNOWN
DUMMY) (DERIVED 218 0 0 DERIVED ()) 0 0 () () 0 () () () 0 0)
377 'nconst' '' 'nconst' 371 ((VARIABLE IN UNKNOWN-PROC UNKNOWN UNKNOWN
DUMMY) (INTEGER 4 0 0 INTEGER ()) 0 0 () () 0 () () () 0 0)
378 'idopenmp' '' 'idopenmp' 371 ((VARIABLE IN UNKNOWN-PROC UNKNOWN
UNKNOWN DUMMY) (INTEGER 4 0 0 INTEGER ()) 0 0 () () 0 () () () 0 0)
379 'outt' '' 'outt' 371 ((VARIABLE UNKNOWN-INTENT UNKNOWN-PROC UNKNOWN
UNKNOWN RESULT ALWAYS_EXPLICIT) (DERIVED 224 0 0 DERIVED ()) 0 0 () () 0
() () () 0 0)
9 'x' '' 'x' 8 ((VARIABLE INOUT UNKNOWN-PROC UNKNOWN UNKNOWN ALLOCATABLE
DIMENSION DUMMY) (REAL 8 0 0 REAL ()) 0 0 () (1 DEFERRED () ()) 0 () ()
() 0 0)
6 'res' '' 'res' 4 ((VARIABLE UNKNOWN-INTENT UNKNOWN-PROC UNKNOWN
UNKNOWN ALLOCATABLE DIMENSION RESULT ALWAYS_EXPLICIT) (REAL 8 0 0 REAL ())
0 0 () (2 DEFERRED () () () ()) 0 () () () 0 0)
5 'vector1' '' 'vector1' 4 ((VARIABLE IN UNKNOWN-PROC UNKNOWN UNKNOWN
ALLOCATABLE DIMENSION DUMMY) (REAL 8 0 0 REAL ()) 0 0 () (2 DEFERRED ()
() () ()) 0 () () () 0 0)
74 'res' '' 'res' 72 ((VARIABLE UNKNOWN-INTENT UNKNOWN-PROC UNKNOWN
UNKNOWN RESULT ALWAYS_EXPLICIT) (INTEGER 4 0 0 INTEGER ()) 0 0 () () 0 ()
() () 0 0)
79 'value1' '' 'value1' 77 ((VARIABLE IN UNKNOWN-PROC UNKNOWN UNKNOWN
DUMMY) (REAL 8 0 0 REAL ()) 0 0 () () 0 () () () 0 0)
81 'res1' '' 'res1' 77 ((VARIABLE UNKNOWN-INTENT UNKNOWN-PROC UNKNOWN
UNKNOWN ALLOCATABLE DIMENSION RESULT ALWAYS_EXPLICIT) (INTEGER 4 0 0
INTEGER ()) 0 0 () (2 DEFERRED () () () ()) 0 () () () 0 0)
80 'opt' '' 'opt' 77 ((VARIABLE IN UNKNOWN-PROC UNKNOWN UNKNOWN DUMMY) (
CHARACTER 1 0 0 CHARACTER ((CONSTANT (INTEGER 4 0 0 INTEGER ()) 0 '2')))
0 0 () () 0 () () () 0 0)
78 'matrix1' '' 'matrix1' 77 ((VARIABLE IN UNKNOWN-PROC UNKNOWN UNKNOWN
ALLOCATABLE DIMENSION DUMMY) (REAL 8 0 0 REAL ()) 0 0 () (2 DEFERRED ()
() () ()) 0 () () () 0 0)
93 'sizer' '' 'sizer' 90 ((VARIABLE INOUT UNKNOWN-PROC UNKNOWN UNKNOWN
DUMMY) (INTEGER 4 0 0 INTEGER ()) 0 0 () () 0 () () () 0 0)
95 'res1' '' 'res1' 90 ((VARIABLE UNKNOWN-INTENT UNKNOWN-PROC UNKNOWN
UNKNOWN ALLOCATABLE DIMENSION RESULT ALWAYS_EXPLICIT) (INTEGER 4 0 0
INTEGER ()) 0 0 () (1 DEFERRED () ()) 0 () () () 0 0)
94 'opt' '' 'opt' 90 ((VARIABLE IN UNKNOWN-PROC UNKNOWN UNKNOWN DUMMY) (
CHARACTER 1 0 0 CHARACTER ((CONSTANT (INTEGER 4 0 0 INTEGER ()) 0 '2')))
0 0 () () 0 () () () 0 0)
92 'vector2' '' 'vector2' 90 ((VARIABLE IN UNKNOWN-PROC UNKNOWN UNKNOWN
ALLOCATABLE DIMENSION DUMMY) (REAL 8 0 0 REAL ()) 0 0 () (1 DEFERRED ()
()) 0 () () () 0 0)
101 'sizer' '' 'sizer' 97 ((VARIABLE INOUT UNKNOWN-PROC UNKNOWN UNKNOWN
DUMMY) (INTEGER 4 0 0 INTEGER ()) 0 0 () () 0 () () () 0 0)
100 'opt' '' 'opt' 97 ((VARIABLE IN UNKNOWN-PROC UNKNOWN UNKNOWN DUMMY)
(CHARACTER 1 0 0 CHARACTER ((CONSTANT (INTEGER 4 0 0 INTEGER ()) 0 '2')))
0 0 () () 0 () () () 0 0)
129 'vectorout' '' 'vectorout' 126 ((VARIABLE INOUT UNKNOWN-PROC UNKNOWN
UNKNOWN ALLOCATABLE DIMENSION DUMMY) (INTEGER 4 0 0 INTEGER ()) 0 0 () (
1 DEFERRED () ()) 0 () () () 0 0)
128 'value' '' 'value' 126 ((VARIABLE IN UNKNOWN-PROC UNKNOWN UNKNOWN
DUMMY) (REAL 8 0 0 REAL ()) 0 0 () () 0 () () () 0 0)
127 'vector' '' 'vector' 126 ((VARIABLE IN UNKNOWN-PROC UNKNOWN UNKNOWN
ALLOCATABLE DIMENSION DUMMY) (REAL 8 0 0 REAL ()) 0 0 () (1 DEFERRED ()
()) 0 () () () 0 0)
106 'num' '' 'num' 104 ((VARIABLE UNKNOWN-INTENT UNKNOWN-PROC UNKNOWN
UNKNOWN DUMMY) (INTEGER 4 0 0 INTEGER ()) 0 0 () () 0 () () () 0 0)
135 'vectorout' '' 'vectorout' 132 ((VARIABLE INOUT UNKNOWN-PROC UNKNOWN
UNKNOWN ALLOCATABLE DIMENSION DUMMY) (INTEGER 4 0 0 INTEGER ()) 0 0 () (
1 DEFERRED () ()) 0 () () () 0 0)
136 'opt' '' 'opt' 132 ((VARIABLE IN UNKNOWN-PROC UNKNOWN UNKNOWN DUMMY)
(CHARACTER 1 0 0 CHARACTER ((CONSTANT (INTEGER 4 0 0 INTEGER ()) 0 '2')))
0 0 () () 0 () () () 0 0)
130 'opt' '' 'opt' 126 ((VARIABLE IN UNKNOWN-PROC UNKNOWN UNKNOWN DUMMY)
(CHARACTER 1 0 0 CHARACTER ((CONSTANT (INTEGER 4 0 0 INTEGER ()) 0 '2')))
0 0 () () 0 () () () 0 0)
141 'res' '' 'res' 138 ((VARIABLE UNKNOWN-INTENT UNKNOWN-PROC UNKNOWN
UNKNOWN RESULT ALWAYS_EXPLICIT) (INTEGER 4 0 0 INTEGER ()) 0 0 () () 0 ()
() () 0 0)
140 'value1' '' 'value1' 138 ((VARIABLE IN UNKNOWN-PROC UNKNOWN UNKNOWN
DUMMY) (INTEGER 4 0 0 INTEGER ()) 0 0 () () 0 () () () 0 0)
146 'matrix2' '' 'matrix2' 144 ((VARIABLE INOUT UNKNOWN-PROC UNKNOWN
UNKNOWN ALLOCATABLE DIMENSION DUMMY) (REAL 8 0 0 REAL ()) 0 0 () (2
DEFERRED () () () ()) 0 () () () 0 0)
139 'vector' '' 'vector' 138 ((VARIABLE IN UNKNOWN-PROC UNKNOWN UNKNOWN
ALLOCATABLE DIMENSION DUMMY) (INTEGER 4 0 0 INTEGER ()) 0 0 () (1
DEFERRED () ()) 0 () () () 0 0)
150 'vector2' '' 'vector2' 148 ((VARIABLE INOUT UNKNOWN-PROC UNKNOWN
UNKNOWN ALLOCATABLE DIMENSION DUMMY) (REAL 8 0 0 REAL ()) 0 0 () (1
DEFERRED () ()) 0 () () () 0 0)
153 'vector1' '' 'vector1' 152 ((VARIABLE IN UNKNOWN-PROC UNKNOWN
UNKNOWN ALLOCATABLE DIMENSION DUMMY) (INTEGER 4 0 0 INTEGER ()) 0 0 () (
1 DEFERRED () ()) 0 () () () 0 0)
154 'vector2' '' 'vector2' 152 ((VARIABLE INOUT UNKNOWN-PROC UNKNOWN
UNKNOWN ALLOCATABLE DIMENSION DUMMY) (INTEGER 4 0 0 INTEGER ()) 0 0 () (
1 DEFERRED () ()) 0 () () () 0 0)
149 'vector1' '' 'vector1' 148 ((VARIABLE IN UNKNOWN-PROC UNKNOWN
UNKNOWN ALLOCATABLE DIMENSION DUMMY) (REAL 8 0 0 REAL ()) 0 0 () (1
DEFERRED () ()) 0 () () () 0 0)
102 'res1' '' 'res1' 97 ((VARIABLE UNKNOWN-INTENT UNKNOWN-PROC UNKNOWN
UNKNOWN ALLOCATABLE DIMENSION RESULT ALWAYS_EXPLICIT) (INTEGER 4 0 0
INTEGER ()) 0 0 () (1 DEFERRED () ()) 0 () () () 0 0)
99 'value1' '' 'value1' 97 ((VARIABLE IN UNKNOWN-PROC UNKNOWN UNKNOWN
DUMMY) (REAL 8 0 0 REAL ()) 0 0 () () 0 () () () 0 0)
175 'indexvector' '' 'indexvector' 173 ((VARIABLE INOUT UNKNOWN-PROC
UNKNOWN UNKNOWN ALLOCATABLE DIMENSION DUMMY) (INTEGER 4 0 0 INTEGER ())
0 0 () (1 DEFERRED () ()) 0 () () () 0 0)
180 'd' '' 'd' 178 ((VARIABLE IN UNKNOWN-PROC UNKNOWN UNKNOWN DUMMY) (
INTEGER 4 0 0 INTEGER ()) 0 0 () () 0 () () () 0 0)
184 'd' '' 'd' 182 ((VARIABLE IN UNKNOWN-PROC UNKNOWN UNKNOWN DUMMY) (
INTEGER 4 0 0 INTEGER ()) 0 0 () () 0 () () () 0 0)
185 'value' '' 'value' 182 ((VARIABLE IN UNKNOWN-PROC UNKNOWN UNKNOWN
DUMMY) (REAL 8 0 0 REAL ()) 0 0 () () 0 () () () 0 0)
183 'mm' '' 'mm' 182 ((VARIABLE INOUT UNKNOWN-PROC UNKNOWN UNKNOWN
DIMENSION POINTER DUMMY) (REAL 8 0 0 REAL ()) 0 0 () (1 DEFERRED () ())
0 () () () 0 0)
98 'vector1' '' 'vector1' 97 ((VARIABLE IN UNKNOWN-PROC UNKNOWN UNKNOWN
ALLOCATABLE DIMENSION DUMMY) (REAL 8 0 0 REAL ()) 0 0 () (1 DEFERRED ()
()) 0 () () () 0 0)
261 'contador' '' 'contador' 257 ((VARIABLE INOUT UNKNOWN-PROC UNKNOWN
UNKNOWN DUMMY) (INTEGER 4 0 0 INTEGER ()) 0 0 () () 0 () () () 0 0)
262 'm' '' 'm' 257 ((VARIABLE IN UNKNOWN-PROC UNKNOWN UNKNOWN
ALLOCATABLE DIMENSION DUMMY) (REAL 8 0 0 REAL ()) 0 0 () (1 DEFERRED ()
()) 0 () () () 0 0)
267 'm' '' 'm' 264 ((VARIABLE IN UNKNOWN-PROC UNKNOWN UNKNOWN
ALLOCATABLE DIMENSION DUMMY) (REAL 8 0 0 REAL ()) 0 0 () (1 DEFERRED ()
()) 0 () () () 0 0)
270 'x' '' 'x' 269 ((VARIABLE INOUT UNKNOWN-PROC UNKNOWN UNKNOWN
ALLOCATABLE DIMENSION DUMMY) (REAL 8 0 0 REAL ()) 0 0 () (1 DEFERRED ()
()) 0 () () () 0 0)
266 'contador' '' 'contador' 264 ((VARIABLE INOUT UNKNOWN-PROC UNKNOWN
UNKNOWN DUMMY) (INTEGER 4 0 0 INTEGER ()) 0 0 () () 0 () () () 0 0)
260 'sizej' '' 'sizej' 257 ((VARIABLE IN UNKNOWN-PROC UNKNOWN UNKNOWN
DUMMY) (INTEGER 4 0 0 INTEGER ()) 0 0 () () 0 () () () 0 0)
241 'mm' '' 'mm' 240 ((VARIABLE UNKNOWN-INTENT UNKNOWN-PROC UNKNOWN
UNKNOWN ALLOCATABLE DIMENSION DUMMY) (REAL 8 0 0 REAL ()) 0 0 () (1
DEFERRED () ()) 0 () () () 0 0)
273 'xu' '' 'xu' 269 ((VARIABLE IN UNKNOWN-PROC UNKNOWN UNKNOWN
ALLOCATABLE DIMENSION DUMMY) (REAL 8 0 0 REAL ()) 0 0 () (1 DEFERRED ()
()) 0 () () () 0 0)
272 'xl' '' 'xl' 269 ((VARIABLE IN UNKNOWN-PROC UNKNOWN UNKNOWN
ALLOCATABLE DIMENSION DUMMY) (REAL 8 0 0 REAL ()) 0 0 () (1 DEFERRED ()
()) 0 () () () 0 0)
275 'contador' '' 'contador' 269 ((VARIABLE INOUT UNKNOWN-PROC UNKNOWN
UNKNOWN DUMMY) (INTEGER 4 0 0 INTEGER ()) 0 0 () () 0 () () () 0 0)
274 'cont' '' 'cont' 269 ((VARIABLE IN UNKNOWN-PROC UNKNOWN UNKNOWN
DUMMY) (INTEGER 4 0 0 INTEGER ()) 0 0 () () 0 () () () 0 0)
276 'm' '' 'm' 269 ((VARIABLE IN UNKNOWN-PROC UNKNOWN UNKNOWN
ALLOCATABLE DIMENSION DUMMY) (REAL 8 0 0 REAL ()) 0 0 () (1 DEFERRED ()
()) 0 () () () 0 0)
271 'd' '' 'd' 269 ((VARIABLE IN UNKNOWN-PROC UNKNOWN UNKNOWN DUMMY) (
INTEGER 4 0 0 INTEGER ()) 0 0 () () 0 () () () 0 0)
299 'exp1' '' 'exp1' 298 ((VARIABLE INOUT UNKNOWN-PROC UNKNOWN UNKNOWN
DUMMY) (DERIVED 57 0 0 DERIVED ()) 0 0 () () 0 () () () 0 0)
302 'xl' '' 'xl' 298 ((VARIABLE IN UNKNOWN-PROC UNKNOWN UNKNOWN
ALLOCATABLE DIMENSION DUMMY) (REAL 8 0 0 REAL ()) 0 0 () (1 DEFERRED ()
()) 0 () () () 0 0)
304 'cont' '' 'cont' 298 ((VARIABLE IN UNKNOWN-PROC UNKNOWN UNKNOWN
DUMMY) (INTEGER 4 0 0 INTEGER ()) 0 0 () () 0 () () () 0 0)
303 'xu' '' 'xu' 298 ((VARIABLE IN UNKNOWN-PROC UNKNOWN UNKNOWN
ALLOCATABLE DIMENSION DUMMY) (REAL 8 0 0 REAL ()) 0 0 () (1 DEFERRED ()
()) 0 () () () 0 0)
301 'd' '' 'd' 298 ((VARIABLE IN UNKNOWN-PROC UNKNOWN UNKNOWN DUMMY) (
INTEGER 4 0 0 INTEGER ()) 0 0 () () 0 () () () 0 0)
300 'x' '' 'x' 298 ((VARIABLE INOUT UNKNOWN-PROC UNKNOWN UNKNOWN
ALLOCATABLE DIMENSION DUMMY) (REAL 8 0 0 REAL ()) 0 0 () (1 DEFERRED ()
()) 0 () () () 0 0)
310 'xl' '' 'xl' 306 ((VARIABLE IN UNKNOWN-PROC UNKNOWN UNKNOWN
ALLOCATABLE DIMENSION DUMMY) (REAL 8 0 0 REAL ()) 0 0 () (1 DEFERRED ()
()) 0 () () () 0 0)
311 'xu' '' 'xu' 306 ((VARIABLE IN UNKNOWN-PROC UNKNOWN UNKNOWN
ALLOCATABLE DIMENSION DUMMY) (REAL 8 0 0 REAL ()) 0 0 () (1 DEFERRED ()
()) 0 () () () 0 0)
315 'x' '' 'x' 313 ((VARIABLE INOUT UNKNOWN-PROC UNKNOWN UNKNOWN
ALLOCATABLE DIMENSION DUMMY) (REAL 8 0 0 REAL ()) 0 0 () (1 DEFERRED ()
()) 0 () () () 0 0)
314 'exp1' '' 'exp1' 313 ((VARIABLE INOUT UNKNOWN-PROC UNKNOWN UNKNOWN
DUMMY) (DERIVED 57 0 0 DERIVED ()) 0 0 () () 0 () () () 0 0)
309 'd' '' 'd' 306 ((VARIABLE IN UNKNOWN-PROC UNKNOWN UNKNOWN DUMMY) (
INTEGER 4 0 0 INTEGER ()) 0 0 () () 0 () () () 0 0)
319 'vector1' '' 'vector1' 318 ((VARIABLE INOUT UNKNOWN-PROC UNKNOWN
UNKNOWN ALLOCATABLE DIMENSION DUMMY) (INTEGER 4 0 0 INTEGER ()) 0 0 () (
1 DEFERRED () ()) 0 () () () 0 0)
336 'value1' '' 'value1' 334 ((VARIABLE IN UNKNOWN-PROC UNKNOWN UNKNOWN
DUMMY) (REAL 8 0 0 REAL ()) 0 0 () () 0 () () () 0 0)
335 'matrix' '' 'matrix' 334 ((VARIABLE INOUT UNKNOWN-PROC UNKNOWN
UNKNOWN ALLOCATABLE DIMENSION DUMMY) (REAL 8 0 0 REAL ()) 0 0 () (2
DEFERRED () () () ()) 0 () () () 0 0)
353 'res' '' 'res' 351 ((VARIABLE UNKNOWN-INTENT UNKNOWN-PROC UNKNOWN
UNKNOWN RESULT) (REAL 8 0 0 REAL ()) 0 0 () () 0 () () () 0 0)
352 'exp1' '' 'exp1' 351 ((VARIABLE INOUT UNKNOWN-PROC UNKNOWN UNKNOWN
DUMMY) (DERIVED 57 0 0 DERIVED ()) 0 0 () () 0 () () () 0 0)
324 'res1' '' 'res1' 323 ((VARIABLE INOUT UNKNOWN-PROC UNKNOWN UNKNOWN
ALLOCATABLE DIMENSION DUMMY) (INTEGER 4 0 0 INTEGER ()) 0 0 () (1
DEFERRED () ()) 0 () () () 0 0)
316 'd' '' 'd' 313 ((VARIABLE IN UNKNOWN-PROC UNKNOWN UNKNOWN DUMMY) (
INTEGER 4 0 0 INTEGER ()) 0 0 () () 0 () () () 0 0)
308 'x' '' 'x' 306 ((VARIABLE INOUT UNKNOWN-PROC UNKNOWN UNKNOWN
ALLOCATABLE DIMENSION DUMMY) (REAL 8 0 0 REAL ()) 0 0 () (1 DEFERRED ()
()) 0 () () () 0 0)
415 'variance' '' 'variance' 413 ((VARIABLE UNKNOWN-INTENT UNKNOWN-PROC
UNKNOWN UNKNOWN RESULT ALWAYS_EXPLICIT) (REAL 8 0 0 REAL ()) 0 0 () () 0
() () () 0 0)
414 'vector1' '' 'vector1' 413 ((VARIABLE IN UNKNOWN-PROC UNKNOWN
UNKNOWN ALLOCATABLE DIMENSION DUMMY) (REAL 8 0 0 REAL ()) 0 0 () (1
DEFERRED () ()) 0 () () () 0 0)
73 'vector' '' 'vector' 72 ((VARIABLE IN UNKNOWN-PROC UNKNOWN UNKNOWN
ALLOCATABLE DIMENSION DUMMY) (INTEGER 4 0 0 INTEGER ()) 0 0 () (1
DEFERRED () ()) 0 () () () 0 0)
84 'matrix1' '' 'matrix1' 83 ((VARIABLE IN UNKNOWN-PROC UNKNOWN UNKNOWN
ALLOCATABLE DIMENSION DUMMY) (REAL 8 0 0 REAL ()) 0 0 () (2 DEFERRED ()
() () ()) 0 () () () 0 0)
85 'matrix2' '' 'matrix2' 83 ((VARIABLE IN UNKNOWN-PROC UNKNOWN UNKNOWN
ALLOCATABLE DIMENSION DUMMY) (REAL 8 0 0 REAL ()) 0 0 () (2 DEFERRED ()
() () ()) 0 () () () 0 0)
86 'size' '' 'size' 83 ((VARIABLE INOUT UNKNOWN-PROC UNKNOWN UNKNOWN
DUMMY) (INTEGER 4 0 0 INTEGER ()) 0 0 () () 0 () () () 0 0)
88 'res1' '' 'res1' 83 ((VARIABLE UNKNOWN-INTENT UNKNOWN-PROC UNKNOWN
UNKNOWN ALLOCATABLE DIMENSION RESULT ALWAYS_EXPLICIT) (INTEGER 4 0 0
INTEGER ()) 0 0 () (2 DEFERRED () () () ()) 0 () () () 0 0)
87 'opt' '' 'opt' 83 ((VARIABLE IN UNKNOWN-PROC UNKNOWN UNKNOWN DUMMY) (
CHARACTER 1 0 0 CHARACTER ((CONSTANT (INTEGER 4 0 0 INTEGER ()) 0 '2')))
0 0 () () 0 () () () 0 0)
91 'vector1' '' 'vector1' 90 ((VARIABLE IN UNKNOWN-PROC UNKNOWN UNKNOWN
ALLOCATABLE DIMENSION DUMMY) (REAL 8 0 0 REAL ()) 0 0 () (1 DEFERRED ()
()) 0 () () () 0 0)
105 'vector1' '' 'vector1' 104 ((VARIABLE INOUT UNKNOWN-PROC UNKNOWN
UNKNOWN ALLOCATABLE DIMENSION DUMMY) (INTEGER 4 0 0 INTEGER ()) 0 0 () (
1 DEFERRED () ()) 0 () () () 0 0)
112 'mm' '' 'mm' 111 ((VARIABLE INOUT UNKNOWN-PROC UNKNOWN UNKNOWN
ALLOCATABLE DIMENSION DUMMY) (REAL 8 0 0 REAL ()) 0 0 () (1 DEFERRED ()
()) 0 () () () 0 0)
116 'x' '' 'x' 115 ((VARIABLE UNKNOWN-INTENT UNKNOWN-PROC UNKNOWN
UNKNOWN DIMENSION POINTER DUMMY) (REAL 8 0 0 REAL ()) 0 0 () (1 DEFERRED
() ()) 0 () () () 0 0)
133 'vector' '' 'vector' 132 ((VARIABLE IN UNKNOWN-PROC UNKNOWN UNKNOWN
ALLOCATABLE DIMENSION DUMMY) (INTEGER 4 0 0 INTEGER ()) 0 0 () (1
DEFERRED () ()) 0 () () () 0 0)
134 'value1' '' 'value1' 132 ((VARIABLE IN UNKNOWN-PROC UNKNOWN UNKNOWN
DUMMY) (INTEGER 4 0 0 INTEGER ()) 0 0 () () 0 () () () 0 0)
145 'matrix1' '' 'matrix1' 144 ((VARIABLE IN UNKNOWN-PROC UNKNOWN
UNKNOWN ALLOCATABLE DIMENSION DUMMY) (REAL 8 0 0 REAL ()) 0 0 () (2
DEFERRED () () () ()) 0 () () () 0 0)
170 'res1' '' 'res1' 169 ((VARIABLE IN UNKNOWN-PROC UNKNOWN UNKNOWN
ALLOCATABLE DIMENSION DUMMY) (INTEGER 4 0 0 INTEGER ()) 0 0 () (1
DEFERRED () ()) 0 () () () 0 0)
171 'bbb' '' 'bbb' 169 ((VARIABLE INOUT UNKNOWN-PROC UNKNOWN UNKNOWN
ALLOCATABLE DIMENSION DUMMY) (INTEGER 4 0 0 INTEGER ()) 0 0 () (1
DEFERRED () ()) 0 () () () 0 0)
174 'res1' '' 'res1' 173 ((VARIABLE IN UNKNOWN-PROC UNKNOWN UNKNOWN
ALLOCATABLE DIMENSION DUMMY) (INTEGER 4 0 0 INTEGER ()) 0 0 () (2
DEFERRED () () () ()) 0 () () () 0 0)
179 'mm' '' 'mm' 178 ((VARIABLE INOUT UNKNOWN-PROC UNKNOWN UNKNOWN
ALLOCATABLE DIMENSION DUMMY) (REAL 8 0 0 REAL ()) 0 0 () (1 DEFERRED ()
()) 0 () () () 0 0)
188 'x' '' 'x' 187 ((VARIABLE INOUT UNKNOWN-PROC UNKNOWN UNKNOWN
ALLOCATABLE DIMENSION DUMMY) (REAL 8 0 0 REAL ()) 0 0 () (1 DEFERRED ()
()) 0 () () () 0 0)
189 'currentsize' '' 'currentsize' 187 ((VARIABLE IN UNKNOWN-PROC
UNKNOWN UNKNOWN DUMMY) (INTEGER 4 0 0 INTEGER ()) 0 0 () () 0 () () () 0
0)
211 'matrix2' '' 'matrix2' 209 ((VARIABLE IN UNKNOWN-PROC UNKNOWN
UNKNOWN ALLOCATABLE DIMENSION DUMMY) (REAL 8 0 0 REAL ()) 0 0 () (2
DEFERRED () () () ()) 0 () () () 0 0)
210 'matrix1' '' 'matrix1' 209 ((VARIABLE IN UNKNOWN-PROC UNKNOWN
UNKNOWN ALLOCATABLE DIMENSION DUMMY) (REAL 8 0 0 REAL ()) 0 0 () (2
DEFERRED () () () ()) 0 () () () 0 0)
216 'pars' '' 'pars' 214 ((VARIABLE IN UNKNOWN-PROC UNKNOWN UNKNOWN
DUMMY) (INTEGER 4 0 0 INTEGER ()) 0 0 () () 0 () () () 0 0)
215 'vector' '' 'vector' 214 ((VARIABLE IN UNKNOWN-PROC UNKNOWN UNKNOWN
ALLOCATABLE DIMENSION DUMMY) (INTEGER 4 0 0 INTEGER ()) 0 0 () (1
DEFERRED () ()) 0 () () () 0 0)
217 'vectorout' '' 'vectorout' 214 ((VARIABLE INOUT UNKNOWN-PROC UNKNOWN
UNKNOWN ALLOCATABLE DIMENSION DUMMY) (INTEGER 4 0 0 INTEGER ()) 0 0 () (
2 DEFERRED () () () ()) 0 () () () 0 0)
212 'res' '' 'res' 209 ((VARIABLE UNKNOWN-INTENT UNKNOWN-PROC UNKNOWN
UNKNOWN ALLOCATABLE DIMENSION RESULT ALWAYS_EXPLICIT) (REAL 8 0 0 REAL ())
0 0 () (2 DEFERRED () () () ()) 0 () () () 0 0)
238 'matrix' '' 'matrix' 237 ((VARIABLE IN UNKNOWN-PROC UNKNOWN UNKNOWN
ALLOCATABLE DIMENSION DUMMY) (INTEGER 4 0 0 INTEGER ()) 0 0 () (2
DEFERRED () () () ()) 0 () () () 0 0)
235 'matrix' '' 'matrix' 234 ((VARIABLE IN UNKNOWN-PROC UNKNOWN UNKNOWN
ALLOCATABLE DIMENSION DUMMY) (REAL 8 0 0 REAL ()) 0 0 () (2 DEFERRED ()
() () ()) 0 () () () 0 0)
259 'sizei' '' 'sizei' 257 ((VARIABLE IN UNKNOWN-PROC UNKNOWN UNKNOWN
DUMMY) (INTEGER 4 0 0 INTEGER ()) 0 0 () () 0 () () () 0 0)
258 'x' '' 'x' 257 ((VARIABLE INOUT UNKNOWN-PROC UNKNOWN UNKNOWN
ALLOCATABLE DIMENSION DUMMY) (REAL 8 0 0 REAL ()) 0 0 () (2 DEFERRED ()
() () ()) 0 () () () 0 0)
265 'num' '' 'num' 264 ((VARIABLE INOUT UNKNOWN-PROC UNKNOWN UNKNOWN
DUMMY) (REAL 8 0 0 REAL ()) 0 0 () () 0 () () () 0 0)
281 'xl' '' 'xl' 278 ((VARIABLE IN UNKNOWN-PROC UNKNOWN UNKNOWN
ALLOCATABLE DIMENSION DUMMY) (REAL 8 0 0 REAL ()) 0 0 () (1 DEFERRED ()
()) 0 () () () 0 0)
284 'm' '' 'm' 278 ((VARIABLE IN UNKNOWN-PROC UNKNOWN UNKNOWN
ALLOCATABLE DIMENSION DUMMY) (REAL 8 0 0 REAL ()) 0 0 () (1 DEFERRED ()
()) 0 () () () 0 0)
283 'contador' '' 'contador' 278 ((VARIABLE INOUT UNKNOWN-PROC UNKNOWN
UNKNOWN DUMMY) (INTEGER 4 0 0 INTEGER ()) 0 0 () () 0 () () () 0 0)
282 'xu' '' 'xu' 278 ((VARIABLE IN UNKNOWN-PROC UNKNOWN UNKNOWN
ALLOCATABLE DIMENSION DUMMY) (REAL 8 0 0 REAL ()) 0 0 () (1 DEFERRED ()
()) 0 () () () 0 0)
280 'd' '' 'd' 278 ((VARIABLE IN UNKNOWN-PROC UNKNOWN UNKNOWN DUMMY) (
INTEGER 4 0 0 INTEGER ()) 0 0 () () 0 () () () 0 0)
279 'x' '' 'x' 278 ((VARIABLE INOUT UNKNOWN-PROC UNKNOWN UNKNOWN
ALLOCATABLE DIMENSION DUMMY) (REAL 8 0 0 REAL ()) 0 0 () (1 DEFERRED ()
()) 0 () () () 0 0)
288 'd' '' 'd' 286 ((VARIABLE IN UNKNOWN-PROC UNKNOWN UNKNOWN DUMMY) (
INTEGER 4 0 0 INTEGER ()) 0 0 () () 0 () () () 0 0)
287 'x' '' 'x' 286 ((VARIABLE INOUT UNKNOWN-PROC UNKNOWN UNKNOWN
ALLOCATABLE DIMENSION DUMMY) (REAL 8 0 0 REAL ()) 0 0 () (1 DEFERRED ()
()) 0 () () () 0 0)
290 'm' '' 'm' 286 ((VARIABLE IN UNKNOWN-PROC UNKNOWN UNKNOWN
ALLOCATABLE DIMENSION DUMMY) (REAL 8 0 0 REAL ()) 0 0 () (1 DEFERRED ()
()) 0 () () () 0 0)
289 'contador' '' 'contador' 286 ((VARIABLE INOUT UNKNOWN-PROC UNKNOWN
UNKNOWN DUMMY) (INTEGER 4 0 0 INTEGER ()) 0 0 () () 0 () () () 0 0)
293 'exp1' '' 'exp1' 292 ((VARIABLE INOUT UNKNOWN-PROC UNKNOWN UNKNOWN
DUMMY) (DERIVED 57 0 0 DERIVED ()) 0 0 () () 0 () () () 0 0)
295 'sizei' '' 'sizei' 292 ((VARIABLE IN UNKNOWN-PROC UNKNOWN UNKNOWN
DUMMY) (INTEGER 4 0 0 INTEGER ()) 0 0 () () 0 () () () 0 0)
294 'x' '' 'x' 292 ((VARIABLE INOUT UNKNOWN-PROC UNKNOWN UNKNOWN
ALLOCATABLE DIMENSION DUMMY) (REAL 8 0 0 REAL ()) 0 0 () (2 DEFERRED ()
() () ()) 0 () () () 0 0)
296 'sizej' '' 'sizej' 292 ((VARIABLE IN UNKNOWN-PROC UNKNOWN UNKNOWN
DUMMY) (INTEGER 4 0 0 INTEGER ()) 0 0 () () 0 () () () 0 0)
307 'exp1' '' 'exp1' 306 ((VARIABLE INOUT UNKNOWN-PROC UNKNOWN UNKNOWN
DUMMY) (DERIVED 57 0 0 DERIVED ()) 0 0 () () 0 () () () 0 0)
356 'vx' '' 'vx' 355 ((VARIABLE INOUT UNKNOWN-PROC UNKNOWN UNKNOWN
ALLOCATABLE DIMENSION DUMMY) (REAL 8 0 0 REAL ()) 0 0 () (2 DEFERRED ()
() () ()) 0 () () () 0 0)
358 'aaa' '' 'aaa' 355 ((VARIABLE IN UNKNOWN-PROC UNKNOWN UNKNOWN
ALLOCATABLE DIMENSION DUMMY) (INTEGER 4 0 0 INTEGER ()) 0 0 () (1
DEFERRED () ()) 0 () () () 0 0)
357 'hyperx' '' 'hyperx' 355 ((VARIABLE IN UNKNOWN-PROC UNKNOWN UNKNOWN
ALLOCATABLE DIMENSION DUMMY) (REAL 8 0 0 REAL ()) 0 0 () (2 DEFERRED ()
() () ()) 0 () () () 0 0)
362 'res2' '' 'res2' 360 ((VARIABLE INOUT UNKNOWN-PROC UNKNOWN UNKNOWN
ALLOCATABLE DIMENSION DUMMY) (INTEGER 4 0 0 INTEGER ()) 0 0 () (1
DEFERRED () ()) 0 () () () 0 0)
363 'sizer' '' 'sizer' 360 ((VARIABLE INOUT UNKNOWN-PROC UNKNOWN UNKNOWN
DUMMY) (INTEGER 4 0 0 INTEGER ()) 0 0 () () 0 () () () 0 0)
368 'matrix1' '' 'matrix1' 367 ((VARIABLE IN UNKNOWN-PROC UNKNOWN
UNKNOWN DIMENSION DUMMY) (REAL 8 0 0 REAL ()) 0 0 () (1 EXPLICIT (
CONSTANT (INTEGER 4 0 0 INTEGER ()) 0 '1') (CONSTANT (INTEGER 4 0 0
INTEGER ()) 0 '3')) 0 () () () 0 0)
369 'result1' '' 'result1' 367 ((VARIABLE INOUT UNKNOWN-PROC UNKNOWN
UNKNOWN DIMENSION DUMMY) (REAL 8 0 0 REAL ()) 0 0 () (1 EXPLICIT (
CONSTANT (INTEGER 4 0 0 INTEGER ()) 0 '1') (CONSTANT (INTEGER 4 0 0
INTEGER ()) 0 '2')) 0 () () () 0 0)
361 'res1' '' 'res1' 360 ((VARIABLE IN UNKNOWN-PROC UNKNOWN UNKNOWN
ALLOCATABLE DIMENSION DUMMY) (INTEGER 4 0 0 INTEGER ()) 0 0 () (2
DEFERRED () () () ()) 0 () () () 0 0)
382 'nlc' '' 'nlc' 381 ((VARIABLE INOUT UNKNOWN-PROC UNKNOWN UNKNOWN
ALLOCATABLE DIMENSION DUMMY) (REAL 8 0 0 REAL ()) 0 0 () (1 DEFERRED ()
()) 0 () () () 0 0)
383 'c_l' '' 'c_l' 381 ((VARIABLE IN UNKNOWN-PROC UNKNOWN UNKNOWN
ALLOCATABLE DIMENSION DUMMY) (REAL 8 0 0 REAL ()) 0 0 () (1 DEFERRED ()
()) 0 () () () 0 0)
384 'c_u' '' 'c_u' 381 ((VARIABLE IN UNKNOWN-PROC UNKNOWN UNKNOWN
ALLOCATABLE DIMENSION DUMMY) (REAL 8 0 0 REAL ()) 0 0 () (1 DEFERRED ()
()) 0 () () () 0 0)
385 'tolc' '' 'tolc' 381 ((VARIABLE IN UNKNOWN-PROC UNKNOWN UNKNOWN
DUMMY) (REAL 8 0 0 REAL ()) 0 0 () () 0 () () () 0 0)
386 'res' '' 'res' 381 ((VARIABLE UNKNOWN-INTENT UNKNOWN-PROC UNKNOWN
UNKNOWN RESULT ALWAYS_EXPLICIT) (REAL 8 0 0 REAL ()) 0 0 () () 0 () () ()
0 0)
389 'x' '' 'x' 388 ((VARIABLE INOUT UNKNOWN-PROC UNKNOWN UNKNOWN
ALLOCATABLE DIMENSION DUMMY) (REAL 8 0 0 REAL ()) 0 0 () (2 DEFERRED ()
() () ()) 0 () () () 0 0)
390 'index1' '' 'index1' 388 ((VARIABLE IN UNKNOWN-PROC UNKNOWN UNKNOWN
DUMMY) (INTEGER 4 0 0 INTEGER ()) 0 0 () () 0 () () () 0 0)
391 'x_l' '' 'x_l' 388 ((VARIABLE IN UNKNOWN-PROC UNKNOWN UNKNOWN
ALLOCATABLE DIMENSION DUMMY) (REAL 8 0 0 REAL ()) 0 0 () (1 DEFERRED ()
()) 0 () () () 0 0)
392 'x_u' '' 'x_u' 388 ((VARIABLE IN UNKNOWN-PROC UNKNOWN UNKNOWN
ALLOCATABLE DIMENSION DUMMY) (REAL 8 0 0 REAL ()) 0 0 () (1 DEFERRED ()
()) 0 () () () 0 0)
109 'outfunct' '' 'outfunct' 108 ((VARIABLE INOUT UNKNOWN-PROC UNKNOWN
UNKNOWN DUMMY) (DERIVED 224 0 0 DERIVED ()) 0 0 () () 0 () () () 0 0)
)

('__iso_c_binding' 0 2 'abs_matrix' 0 3 'all_positive' 0 7 'auxprecisin'
0 10 'c_alert' 0 11 'c_associated' 0 12 'c_backspace' 0 16 'c_bool' 0 17
'c_carriage_return' 0 18 'c_char' 0 19 'c_double' 0 20 'c_double_complex'
0 21 'c_f_pointer' 0 22 'c_f_procpointer' 0 27 'c_float' 0 31
'c_float_complex' 0 32 'c_form_feed' 0 33 'c_funloc' 0 34 'c_funptr' 0
35 'c_horizontal_tab' 0 37 'c_int' 0 38 'c_int128_t' 0 39 'c_int16_t' 0
40 'c_int32_t' 0 41 'c_int64_t' 0 42 'c_int8_t' 0 43 'c_int_fast128_t' 0
44 'c_int_fast16_t' 0 45 'c_int_fast32_t' 0 46 'c_int_fast64_t' 0 47
'c_int_fast8_t' 0 48 'c_int_least128_t' 0 49 'c_int_least16_t' 0 50
'c_int_least32_t' 0 51 'c_int_least64_t' 0 52 'c_int_least8_t' 0 53
'c_intmax_t' 0 54 'c_intptr_t' 0 55 'c_loc' 0 56 'c_long' 0 58
'c_long_double' 0 59 'c_long_double_complex' 0 60 'c_long_long' 0 61
'c_new_line' 0 62 'c_null_char' 0 63 'c_null_funptr' 0 64 'c_null_ptr' 0
65 'c_ptr' 0 57 'c_short' 0 67 'c_signed_char' 0 68 'c_size_t' 0 69
'c_vertical_tab' 0 70 'choose' 0 71 'common_functions' 0 75
'compare_matrix' 0 76 'compare_multiple_matrix' 0 82
'compare_multiple_vector' 0 89 'compare_vector' 0 96
'delete_values_vector_int' 0 103 'destroy_outfuction' 0 107
'destroy_vector' 0 110 'eps_m' 0 113 'ex1' 0 114 'extraparametters' 0
117 'find_in_vector' 0 125 'find_in_vector_int' 0 131 'findinteger' 0
137 'funcevalinterface' 0 142 'fusion_matrix' 0 143 'fusion_vector' 0
147 'fusion_vector_int' 0 151 'goptions' 0 155 'index_of_ones' 0 168
'index_of_ones_matrix' 0 172 'infinite' 0 176 'inicializa_vector' 0 177
'inicializa_vector_value' 0 181 'insert_dinamic_vector_double_precission'
0 186 'loptions' 0 190 'max_matrix' 0 208 'nchoosek_fpar' 0 213 'opts' 0
218 'outfuction' 0 224 'precision_d' 0 231 'precision_f' 0 232
'print_matrix' 0 233 'print_matrix_integer' 0 236 'print_vector' 0 239
'problem' 0 242 'random_det_matrix_seed_10' 0 256 'random_det_number' 0
263 'random_det_vector_5' 0 268 'random_det_vector_seed' 0 277
'random_det_vector_seed_10' 0 285 'random_matrix_seed_10' 0 291
'random_vector_5' 0 297 'random_vector_seed' 0 305 'random_vector_seed_10'
0 312 'randperm_int' 0 317 'range_d' 0 320 'range_f' 0 321 'reajust_index'
0 322 'real' 0 325 'refsettype' 0 326 'replace_matrix' 0 333 'resultsf'
0 337 'return_random_number' 0 350 'return_values_matrix_index' 0 354
'row_one' 0 359 'scattersearchtypes' 0 364 'selected_real_kind' 0 365
'square_roots_polinom' 0 366 'ssm_evalfc' 0 370 'ssm_penalty_function' 0
380 'ssm_round_int' 0 387 'tol_prec' 0 393 'topology_data_fortran' 0 394
'uoptions' 0 221 'variance_vector' 0 412)
