GFORTRAN module version '0' created from /home/csic/gim/drp/DE_experiments/paralleltestbed_CURRENT/src/method_module_fortran/misqp_interface.f90 on Mon Feb 23 14:11:34 2015
MD5:40f6b4525b099abed39601a798437b6d -- If you edit this, you'll get what you deserve.

(() () ()
() () () () () () () () () () () () () () () () () () () () () () () ())

()

()

()

()

(2 '__iso_c_binding' '__iso_c_binding' '__iso_c_binding' 1 ((MODULE
UNKNOWN-INTENT UNKNOWN-PROC UNKNOWN UNKNOWN INTRINSIC) (UNKNOWN 0 0 0
UNKNOWN ()) 0 0 () () 0 () () () 2 0)
3 'abs_matrix' 'common_functions' 'abs_matrix' 1 ((PROCEDURE
UNKNOWN-INTENT MODULE-PROC DECL UNKNOWN ALLOCATABLE DIMENSION FUNCTION
ALWAYS_EXPLICIT) (REAL 8 0 0 REAL ()) 4 0 (5) (2 DEFERRED () () () ()) 6
() () () 0 0)
7 'all_positive' 'common_functions' 'all_positive' 1 ((PROCEDURE
UNKNOWN-INTENT MODULE-PROC DECL UNKNOWN SUBROUTINE ALWAYS_EXPLICIT) (
UNKNOWN 0 0 0 UNKNOWN ()) 8 0 (9) () 0 () () () 0 0)
10 'auxprecisin' 'scattersearchtypes' 'auxprecisin' 1 ((PARAMETER
UNKNOWN-INTENT UNKNOWN-PROC UNKNOWN IMPLICIT-SAVE) (REAL 8 0 0 REAL ())
0 0 () (CONSTANT (REAL 8 0 0 REAL ()) 0 '0.27100000000000@4') () 0 () ()
() 0 0)
11 'c_alert' '__iso_c_binding' '' 1 ((PARAMETER UNKNOWN-INTENT
UNKNOWN-PROC UNKNOWN UNKNOWN IS_C_INTEROP IS_ISO_C) (CHARACTER 1 1 1
CHARACTER ((CONSTANT (INTEGER 4 0 0 INTEGER ()) 0 '1'))) 0 0 () (
CONSTANT (CHARACTER 1 1 1 UNKNOWN (())) 0 1 '\U00000007') () 0 () () ()
2 32)
12 'c_associated' '__iso_c_binding' '__iso_c_binding_c_associated' 1 ((
PROCEDURE UNKNOWN-INTENT MODULE-PROC DECL UNKNOWN FUNCTION
ALWAYS_EXPLICIT IS_ISO_C) (LOGICAL 4 0 0 LOGICAL ()) 13 0 (14 15) () 12
() () () 2 44)
16 'c_backspace' '__iso_c_binding' '' 1 ((PARAMETER UNKNOWN-INTENT
UNKNOWN-PROC UNKNOWN UNKNOWN IS_C_INTEROP IS_ISO_C) (CHARACTER 1 1 1
CHARACTER ((CONSTANT (INTEGER 4 0 0 INTEGER ()) 0 '1'))) 0 0 () (
CONSTANT (CHARACTER 1 1 1 UNKNOWN (())) 0 1 '\U00000008') () 0 () () ()
2 33)
17 'c_bool' '__iso_c_binding' '' 1 ((PARAMETER UNKNOWN-INTENT
UNKNOWN-PROC UNKNOWN UNKNOWN IS_C_INTEROP IS_ISO_C) (INTEGER 4 1 1
LOGICAL ()) 0 0 () (CONSTANT (INTEGER 4 1 1 UNKNOWN ()) 0 '1') () 0 () ()
() 2 29)
18 'c_carriage_return' '__iso_c_binding' '' 1 ((PARAMETER UNKNOWN-INTENT
UNKNOWN-PROC UNKNOWN UNKNOWN IS_C_INTEROP IS_ISO_C) (CHARACTER 1 1 1
CHARACTER ((CONSTANT (INTEGER 4 0 0 INTEGER ()) 0 '1'))) 0 0 () (
CONSTANT (CHARACTER 1 1 1 UNKNOWN (())) 0 1 '\U0000000d') () 0 () () ()
2 36)
19 'c_char' '__iso_c_binding' '' 1 ((PARAMETER UNKNOWN-INTENT
UNKNOWN-PROC UNKNOWN UNKNOWN IS_C_INTEROP IS_ISO_C) (INTEGER 4 1 1
CHARACTER ()) 0 0 () (CONSTANT (INTEGER 4 1 1 UNKNOWN ()) 0 '1') () 0 ()
() () 2 30)
20 'c_double' '__iso_c_binding' '' 1 ((PARAMETER UNKNOWN-INTENT
UNKNOWN-PROC UNKNOWN UNKNOWN IS_C_INTEROP IS_ISO_C) (INTEGER 4 1 1 REAL
()) 0 0 () (CONSTANT (INTEGER 4 1 1 UNKNOWN ()) 0 '8') () 0 () () () 2
24)
21 'c_double_complex' '__iso_c_binding' '' 1 ((PARAMETER UNKNOWN-INTENT
UNKNOWN-PROC UNKNOWN UNKNOWN IS_C_INTEROP IS_ISO_C) (INTEGER 4 1 1
COMPLEX ()) 0 0 () (CONSTANT (INTEGER 4 1 1 UNKNOWN ()) 0 '8') () 0 () ()
() 2 27)
22 'c_f_pointer' '__iso_c_binding' '__iso_c_binding_c_f_pointer' 1 ((
PROCEDURE UNKNOWN-INTENT MODULE-PROC DECL UNKNOWN SUBROUTINE
ALWAYS_EXPLICIT IS_ISO_C) (UNKNOWN 0 0 0 UNKNOWN ()) 23 0 (24 25 26) ()
0 () () () 2 43)
27 'c_f_procpointer' '__iso_c_binding' '__iso_c_binding_c_f_procpointer'
1 ((PROCEDURE UNKNOWN-INTENT MODULE-PROC DECL UNKNOWN SUBROUTINE
IS_ISO_C) (UNKNOWN 0 0 0 UNKNOWN ()) 28 0 (29 30) () 0 () () () 2 47)
31 'c_float' '__iso_c_binding' '' 1 ((PARAMETER UNKNOWN-INTENT
UNKNOWN-PROC UNKNOWN UNKNOWN IS_C_INTEROP IS_ISO_C) (INTEGER 4 1 1 REAL
()) 0 0 () (CONSTANT (INTEGER 4 1 1 UNKNOWN ()) 0 '4') () 0 () () () 2
23)
32 'c_float_complex' '__iso_c_binding' '' 1 ((PARAMETER UNKNOWN-INTENT
UNKNOWN-PROC UNKNOWN UNKNOWN IS_C_INTEROP IS_ISO_C) (INTEGER 4 1 1
COMPLEX ()) 0 0 () (CONSTANT (INTEGER 4 1 1 UNKNOWN ()) 0 '4') () 0 () ()
() 2 26)
33 'c_form_feed' '__iso_c_binding' '' 1 ((PARAMETER UNKNOWN-INTENT
UNKNOWN-PROC UNKNOWN UNKNOWN IS_C_INTEROP IS_ISO_C) (CHARACTER 1 1 1
CHARACTER ((CONSTANT (INTEGER 4 0 0 INTEGER ()) 0 '1'))) 0 0 () (
CONSTANT (CHARACTER 1 1 1 UNKNOWN (())) 0 1 '\U0000000c') () 0 () () ()
2 34)
34 'c_funloc' '__iso_c_binding' '__iso_c_binding_c_funloc' 1 ((
PROCEDURE UNKNOWN-INTENT UNKNOWN-PROC UNKNOWN UNKNOWN EXTERNAL PURE
IS_ISO_C) (DERIVED 35 0 0 DERIVED ()) 0 0 () () 34 () () () 2 46)
35 'c_funptr' '__iso_c_binding' '' 1 ((DERIVED UNKNOWN-INTENT
UNKNOWN-PROC UNKNOWN UNKNOWN IS_BIND_C IS_C_INTEROP IS_ISO_C) (DERIVED
35 1 1 UNKNOWN ()) 0 0 () () 0 ((36 '__c_funptr_c_address' (INTEGER 8 1
0 INTEGER ()) () (UNKNOWN-FL UNKNOWN-INTENT UNKNOWN-PROC UNKNOWN UNKNOWN)
UNKNOWN-ACCESS ())) UNKNOWN-ACCESS () () 2 41)
37 'c_horizontal_tab' '__iso_c_binding' '' 1 ((PARAMETER UNKNOWN-INTENT
UNKNOWN-PROC UNKNOWN UNKNOWN IS_C_INTEROP IS_ISO_C) (CHARACTER 1 1 1
CHARACTER ((CONSTANT (INTEGER 4 0 0 INTEGER ()) 0 '1'))) 0 0 () (
CONSTANT (CHARACTER 1 1 1 UNKNOWN (())) 0 1 '\U00000009') () 0 () () ()
2 37)
38 'c_int' '__iso_c_binding' '' 1 ((PARAMETER UNKNOWN-INTENT
UNKNOWN-PROC UNKNOWN UNKNOWN IS_C_INTEROP IS_ISO_C) (INTEGER 4 1 1
INTEGER ()) 0 0 () (CONSTANT (INTEGER 4 1 1 UNKNOWN ()) 0 '4') () 0 () ()
() 2 0)
39 'c_int128_t' '__iso_c_binding' '' 1 ((PARAMETER UNKNOWN-INTENT
UNKNOWN-PROC UNKNOWN UNKNOWN IS_C_INTEROP IS_ISO_C) (INTEGER 4 1 1
INTEGER ()) 0 0 () (CONSTANT (INTEGER 4 1 1 UNKNOWN ()) 0 '16') () 0 ()
() () 2 12)
40 'c_int16_t' '__iso_c_binding' '' 1 ((PARAMETER UNKNOWN-INTENT
UNKNOWN-PROC UNKNOWN UNKNOWN IS_C_INTEROP IS_ISO_C) (INTEGER 4 1 1
INTEGER ()) 0 0 () (CONSTANT (INTEGER 4 1 1 UNKNOWN ()) 0 '2') () 0 () ()
() 2 9)
41 'c_int32_t' '__iso_c_binding' '' 1 ((PARAMETER UNKNOWN-INTENT
UNKNOWN-PROC UNKNOWN UNKNOWN IS_C_INTEROP IS_ISO_C) (INTEGER 4 1 1
INTEGER ()) 0 0 () (CONSTANT (INTEGER 4 1 1 UNKNOWN ()) 0 '4') () 0 () ()
() 2 10)
42 'c_int64_t' '__iso_c_binding' '' 1 ((PARAMETER UNKNOWN-INTENT
UNKNOWN-PROC UNKNOWN UNKNOWN IS_C_INTEROP IS_ISO_C) (INTEGER 4 1 1
INTEGER ()) 0 0 () (CONSTANT (INTEGER 4 1 1 UNKNOWN ()) 0 '8') () 0 () ()
() 2 11)
43 'c_int8_t' '__iso_c_binding' '' 1 ((PARAMETER UNKNOWN-INTENT
UNKNOWN-PROC UNKNOWN UNKNOWN IS_C_INTEROP IS_ISO_C) (INTEGER 4 1 1
INTEGER ()) 0 0 () (CONSTANT (INTEGER 4 1 1 UNKNOWN ()) 0 '1') () 0 () ()
() 2 8)
44 'c_int_fast128_t' '__iso_c_binding' '' 1 ((PARAMETER UNKNOWN-INTENT
UNKNOWN-PROC UNKNOWN UNKNOWN IS_C_INTEROP IS_ISO_C) (INTEGER 4 1 1
INTEGER ()) 0 0 () (CONSTANT (INTEGER 4 1 1 UNKNOWN ()) 0 '-2') () 0 ()
() () 2 22)
45 'c_int_fast16_t' '__iso_c_binding' '' 1 ((PARAMETER UNKNOWN-INTENT
UNKNOWN-PROC UNKNOWN UNKNOWN IS_C_INTEROP IS_ISO_C) (INTEGER 4 1 1
INTEGER ()) 0 0 () (CONSTANT (INTEGER 4 1 1 UNKNOWN ()) 0 '-2') () 0 ()
() () 2 19)
46 'c_int_fast32_t' '__iso_c_binding' '' 1 ((PARAMETER UNKNOWN-INTENT
UNKNOWN-PROC UNKNOWN UNKNOWN IS_C_INTEROP IS_ISO_C) (INTEGER 4 1 1
INTEGER ()) 0 0 () (CONSTANT (INTEGER 4 1 1 UNKNOWN ()) 0 '-2') () 0 ()
() () 2 20)
47 'c_int_fast64_t' '__iso_c_binding' '' 1 ((PARAMETER UNKNOWN-INTENT
UNKNOWN-PROC UNKNOWN UNKNOWN IS_C_INTEROP IS_ISO_C) (INTEGER 4 1 1
INTEGER ()) 0 0 () (CONSTANT (INTEGER 4 1 1 UNKNOWN ()) 0 '-2') () 0 ()
() () 2 21)
48 'c_int_fast8_t' '__iso_c_binding' '' 1 ((PARAMETER UNKNOWN-INTENT
UNKNOWN-PROC UNKNOWN UNKNOWN IS_C_INTEROP IS_ISO_C) (INTEGER 4 1 1
INTEGER ()) 0 0 () (CONSTANT (INTEGER 4 1 1 UNKNOWN ()) 0 '-2') () 0 ()
() () 2 18)
49 'c_int_least128_t' '__iso_c_binding' '' 1 ((PARAMETER UNKNOWN-INTENT
UNKNOWN-PROC UNKNOWN UNKNOWN IS_C_INTEROP IS_ISO_C) (INTEGER 4 1 1
INTEGER ()) 0 0 () (CONSTANT (INTEGER 4 1 1 UNKNOWN ()) 0 '16') () 0 ()
() () 2 17)
50 'c_int_least16_t' '__iso_c_binding' '' 1 ((PARAMETER UNKNOWN-INTENT
UNKNOWN-PROC UNKNOWN UNKNOWN IS_C_INTEROP IS_ISO_C) (INTEGER 4 1 1
INTEGER ()) 0 0 () (CONSTANT (INTEGER 4 1 1 UNKNOWN ()) 0 '2') () 0 () ()
() 2 14)
51 'c_int_least32_t' '__iso_c_binding' '' 1 ((PARAMETER UNKNOWN-INTENT
UNKNOWN-PROC UNKNOWN UNKNOWN IS_C_INTEROP IS_ISO_C) (INTEGER 4 1 1
INTEGER ()) 0 0 () (CONSTANT (INTEGER 4 1 1 UNKNOWN ()) 0 '4') () 0 () ()
() 2 15)
52 'c_int_least64_t' '__iso_c_binding' '' 1 ((PARAMETER UNKNOWN-INTENT
UNKNOWN-PROC UNKNOWN UNKNOWN IS_C_INTEROP IS_ISO_C) (INTEGER 4 1 1
INTEGER ()) 0 0 () (CONSTANT (INTEGER 4 1 1 UNKNOWN ()) 0 '8') () 0 () ()
() 2 16)
53 'c_int_least8_t' '__iso_c_binding' '' 1 ((PARAMETER UNKNOWN-INTENT
UNKNOWN-PROC UNKNOWN UNKNOWN IS_C_INTEROP IS_ISO_C) (INTEGER 4 1 1
INTEGER ()) 0 0 () (CONSTANT (INTEGER 4 1 1 UNKNOWN ()) 0 '1') () 0 () ()
() 2 13)
54 'c_intmax_t' '__iso_c_binding' '' 1 ((PARAMETER UNKNOWN-INTENT
UNKNOWN-PROC UNKNOWN UNKNOWN IS_C_INTEROP IS_ISO_C) (INTEGER 4 1 1
INTEGER ()) 0 0 () (CONSTANT (INTEGER 4 1 1 UNKNOWN ()) 0 '8') () 0 () ()
() 2 4)
55 'c_intptr_t' '__iso_c_binding' '' 1 ((PARAMETER UNKNOWN-INTENT
UNKNOWN-PROC UNKNOWN UNKNOWN IS_C_INTEROP IS_ISO_C) (INTEGER 4 1 1
INTEGER ()) 0 0 () (CONSTANT (INTEGER 4 1 1 UNKNOWN ()) 0 '8') () 0 () ()
() 2 5)
56 'c_loc' '__iso_c_binding' '__iso_c_binding_c_loc' 1 ((PROCEDURE
UNKNOWN-INTENT UNKNOWN-PROC UNKNOWN UNKNOWN EXTERNAL PURE IS_ISO_C) (
DERIVED 57 0 0 DERIVED ()) 0 0 () () 56 () () () 2 45)
58 'c_long' '__iso_c_binding' '' 1 ((PARAMETER UNKNOWN-INTENT
UNKNOWN-PROC UNKNOWN UNKNOWN IS_C_INTEROP IS_ISO_C) (INTEGER 4 1 1
INTEGER ()) 0 0 () (CONSTANT (INTEGER 4 1 1 UNKNOWN ()) 0 '8') () 0 () ()
() 2 2)
59 'c_long_double' '__iso_c_binding' '' 1 ((PARAMETER UNKNOWN-INTENT
UNKNOWN-PROC UNKNOWN UNKNOWN IS_C_INTEROP IS_ISO_C) (INTEGER 4 1 1 REAL
()) 0 0 () (CONSTANT (INTEGER 4 1 1 UNKNOWN ()) 0 '10') () 0 () () () 2
25)
60 'c_long_double_complex' '__iso_c_binding' '' 1 ((PARAMETER
UNKNOWN-INTENT UNKNOWN-PROC UNKNOWN UNKNOWN IS_C_INTEROP IS_ISO_C) (
INTEGER 4 1 1 COMPLEX ()) 0 0 () (CONSTANT (INTEGER 4 1 1 UNKNOWN ()) 0
'10') () 0 () () () 2 28)
61 'c_long_long' '__iso_c_binding' '' 1 ((PARAMETER UNKNOWN-INTENT
UNKNOWN-PROC UNKNOWN UNKNOWN IS_C_INTEROP IS_ISO_C) (INTEGER 4 1 1
INTEGER ()) 0 0 () (CONSTANT (INTEGER 4 1 1 UNKNOWN ()) 0 '8') () 0 () ()
() 2 3)
62 'c_new_line' '__iso_c_binding' '' 1 ((PARAMETER UNKNOWN-INTENT
UNKNOWN-PROC UNKNOWN UNKNOWN IS_C_INTEROP IS_ISO_C) (CHARACTER 1 1 1
CHARACTER ((CONSTANT (INTEGER 4 0 0 INTEGER ()) 0 '1'))) 0 0 () (
CONSTANT (CHARACTER 1 1 1 UNKNOWN (())) 0 1 '\U0000000a') () 0 () () ()
2 35)
63 'c_null_char' '__iso_c_binding' '' 1 ((PARAMETER UNKNOWN-INTENT
UNKNOWN-PROC UNKNOWN UNKNOWN IS_C_INTEROP IS_ISO_C) (CHARACTER 1 1 1
CHARACTER ((CONSTANT (INTEGER 4 0 0 INTEGER ()) 0 '1'))) 0 0 () (
CONSTANT (CHARACTER 1 1 1 UNKNOWN (())) 0 1 '\U00000000') () 0 () () ()
2 31)
64 'c_null_funptr' '__iso_c_binding' '__iso_c_binding_c_null_funptr' 1 (
(PARAMETER UNKNOWN-INTENT UNKNOWN-PROC UNKNOWN EXPLICIT-SAVE IS_BIND_C
IS_C_INTEROP IS_ISO_C) (DERIVED 35 1 1 UNKNOWN ()) 0 0 () (STRUCTURE (
DERIVED 35 0 0 DERIVED ()) 0 ((() ())) ()) () 0 () () () 2 42)
65 'c_null_ptr' '__iso_c_binding' '__iso_c_binding_c_null_ptr' 1 ((
PARAMETER UNKNOWN-INTENT UNKNOWN-PROC UNKNOWN EXPLICIT-SAVE IS_BIND_C
IS_C_INTEROP IS_ISO_C) (DERIVED 57 1 1 UNKNOWN ()) 0 0 () (STRUCTURE (
DERIVED 57 0 0 DERIVED ()) 0 ((() ())) ()) () 0 () () () 2 40)
57 'c_ptr' '__iso_c_binding' '' 1 ((DERIVED UNKNOWN-INTENT UNKNOWN-PROC
UNKNOWN UNKNOWN IS_BIND_C IS_C_INTEROP IS_ISO_C) (DERIVED 57 1 1 UNKNOWN
()) 0 0 () () 0 ((66 '__c_ptr_c_address' (INTEGER 8 1 0 INTEGER ()) () (
UNKNOWN-FL UNKNOWN-INTENT UNKNOWN-PROC UNKNOWN UNKNOWN) UNKNOWN-ACCESS ()))
UNKNOWN-ACCESS () () 2 39)
67 'c_short' '__iso_c_binding' '' 1 ((PARAMETER UNKNOWN-INTENT
UNKNOWN-PROC UNKNOWN UNKNOWN IS_C_INTEROP IS_ISO_C) (INTEGER 4 1 1
INTEGER ()) 0 0 () (CONSTANT (INTEGER 4 1 1 UNKNOWN ()) 0 '2') () 0 () ()
() 2 1)
68 'c_signed_char' '__iso_c_binding' '' 1 ((PARAMETER UNKNOWN-INTENT
UNKNOWN-PROC UNKNOWN UNKNOWN IS_C_INTEROP IS_ISO_C) (INTEGER 4 1 1
INTEGER ()) 0 0 () (CONSTANT (INTEGER 4 1 1 UNKNOWN ()) 0 '1') () 0 () ()
() 2 7)
69 'c_size_t' '__iso_c_binding' '' 1 ((PARAMETER UNKNOWN-INTENT
UNKNOWN-PROC UNKNOWN UNKNOWN IS_C_INTEROP IS_ISO_C) (INTEGER 4 1 1
INTEGER ()) 0 0 () (CONSTANT (INTEGER 4 1 1 UNKNOWN ()) 0 '8') () 0 () ()
() 2 6)
70 'c_vertical_tab' '__iso_c_binding' '' 1 ((PARAMETER UNKNOWN-INTENT
UNKNOWN-PROC UNKNOWN UNKNOWN IS_C_INTEROP IS_ISO_C) (CHARACTER 1 1 1
CHARACTER ((CONSTANT (INTEGER 4 0 0 INTEGER ()) 0 '1'))) 0 0 () (
CONSTANT (CHARACTER 1 1 1 UNKNOWN (())) 0 1 '\U0000000b') () 0 () () ()
2 38)
71 'choose' 'common_functions' 'choose' 1 ((PROCEDURE UNKNOWN-INTENT
MODULE-PROC DECL UNKNOWN FUNCTION ALWAYS_EXPLICIT) (INTEGER 4 0 0
INTEGER ()) 72 0 (73) () 74 () () () 0 0)
75 'common_functions' 'common_functions' 'common_functions' 1 ((MODULE
UNKNOWN-INTENT UNKNOWN-PROC UNKNOWN UNKNOWN) (UNKNOWN 0 0 0 UNKNOWN ())
0 0 () () 0 () () () 0 0)
76 'compare_matrix' 'common_functions' 'compare_matrix' 1 ((PROCEDURE
UNKNOWN-INTENT MODULE-PROC DECL UNKNOWN ALLOCATABLE DIMENSION FUNCTION
ALWAYS_EXPLICIT) (INTEGER 4 0 0 INTEGER ()) 77 0 (78 79 80) (2 DEFERRED
() () () ()) 81 () () () 0 0)
82 'compare_multiple_matrix' 'common_functions' 'compare_multiple_matrix'
1 ((PROCEDURE UNKNOWN-INTENT MODULE-PROC DECL UNKNOWN ALLOCATABLE
DIMENSION FUNCTION ALWAYS_EXPLICIT) (INTEGER 4 0 0 INTEGER ()) 83 0 (84
85 86 87) (2 DEFERRED () () () ()) 88 () () () 0 0)
89 'compare_multiple_vector' 'common_functions' 'compare_multiple_vector'
1 ((PROCEDURE UNKNOWN-INTENT MODULE-PROC DECL UNKNOWN ALLOCATABLE
DIMENSION FUNCTION ALWAYS_EXPLICIT) (INTEGER 4 0 0 INTEGER ()) 90 0 (91
92 93 94) (1 DEFERRED () ()) 95 () () () 0 0)
96 'compare_vector' 'common_functions' 'compare_vector' 1 ((PROCEDURE
UNKNOWN-INTENT MODULE-PROC DECL UNKNOWN ALLOCATABLE DIMENSION FUNCTION
ALWAYS_EXPLICIT) (INTEGER 4 0 0 INTEGER ()) 97 0 (98 99 100 101) (1
DEFERRED () ()) 102 () () () 0 0)
103 'delete_values_vector_int' 'common_functions'
'delete_values_vector_int' 1 ((PROCEDURE UNKNOWN-INTENT MODULE-PROC DECL
UNKNOWN SUBROUTINE ALWAYS_EXPLICIT) (UNKNOWN 0 0 0 UNKNOWN ()) 104 0 (
105 106) () 0 () () () 0 0)
107 'destroy_vector' 'common_functions' 'destroy_vector' 1 ((PROCEDURE
UNKNOWN-INTENT MODULE-PROC DECL UNKNOWN SUBROUTINE ALWAYS_EXPLICIT) (
UNKNOWN 0 0 0 UNKNOWN ()) 108 0 (109) () 0 () () () 0 0)
110 'eps_m' 'scattersearchtypes' 'eps_m' 1 ((PARAMETER UNKNOWN-INTENT
UNKNOWN-PROC UNKNOWN IMPLICIT-SAVE) (REAL 8 0 0 REAL ()) 0 0 () (
CONSTANT (REAL 8 0 0 REAL ()) 0 '0.12725dd1d243ac@-14') () 0 () () () 0
0)
111 'evaluate_gradient' 'misqp_interface' 'evaluate_gradient' 1 ((
PROCEDURE UNKNOWN-INTENT MODULE-PROC DECL UNKNOWN SUBROUTINE) (UNKNOWN 0
0 0 UNKNOWN ()) 112 0 (113 114 115 116 117 118 119 120 121 122 123 124
125 126) () 0 () () () 0 0)
127 'ex1' 'common_functions' 'ex1' 1 ((PROCEDURE UNKNOWN-INTENT
MODULE-PROC DECL UNKNOWN FUNCTION ALWAYS_EXPLICIT) (REAL 8 0 0 REAL ())
128 0 (129) () 127 () () () 0 0)
130 'extraparametters' 'scattersearchtypes' 'extraparametters' 1 ((
DERIVED UNKNOWN-INTENT UNKNOWN-PROC UNKNOWN UNKNOWN ALLOC_COMP) (
UNKNOWN 0 0 0 UNKNOWN ()) 0 0 () () 0 ((131 'empty' (INTEGER 4 0 0
INTEGER ()) () (UNKNOWN-FL UNKNOWN-INTENT UNKNOWN-PROC UNKNOWN UNKNOWN)
UNKNOWN-ACCESS ()) (132 'texp' (INTEGER 8 0 0 INTEGER ()) (1 DEFERRED ()
()) (UNKNOWN-FL UNKNOWN-INTENT UNKNOWN-PROC UNKNOWN UNKNOWN ALLOCATABLE
DIMENSION) UNKNOWN-ACCESS ()) (133 'yexp' (REAL 8 0 0 REAL ()) (2
DEFERRED () () () ()) (UNKNOWN-FL UNKNOWN-INTENT UNKNOWN-PROC UNKNOWN
UNKNOWN ALLOCATABLE DIMENSION) UNKNOWN-ACCESS ()) (134 'k1' (REAL 4 1 0
REAL ()) () (UNKNOWN-FL UNKNOWN-INTENT UNKNOWN-PROC UNKNOWN UNKNOWN)
UNKNOWN-ACCESS ()) (135 'k2' (REAL 4 1 0 REAL ()) () (UNKNOWN-FL
UNKNOWN-INTENT UNKNOWN-PROC UNKNOWN UNKNOWN) UNKNOWN-ACCESS ()) (136 'k3'
(REAL 4 1 0 REAL ()) () (UNKNOWN-FL UNKNOWN-INTENT UNKNOWN-PROC UNKNOWN
UNKNOWN) UNKNOWN-ACCESS ()) (137 'k4' (REAL 4 1 0 REAL ()) () (
UNKNOWN-FL UNKNOWN-INTENT UNKNOWN-PROC UNKNOWN UNKNOWN) UNKNOWN-ACCESS ()))
PUBLIC (() ()) () 0 0)
138 'find_in_vector' 'common_functions' 'find_in_vector' 1 ((PROCEDURE
UNKNOWN-INTENT MODULE-PROC DECL UNKNOWN SUBROUTINE ALWAYS_EXPLICIT) (
UNKNOWN 0 0 0 UNKNOWN ()) 139 0 (140 141 142 143) () 0 () () () 0 0)
144 'find_in_vector_int' 'common_functions' 'find_in_vector_int' 1 ((
PROCEDURE UNKNOWN-INTENT MODULE-PROC DECL UNKNOWN SUBROUTINE
ALWAYS_EXPLICIT) (UNKNOWN 0 0 0 UNKNOWN ()) 145 0 (146 147 148 149) () 0
() () () 0 0)
150 'findinteger' 'common_functions' 'findinteger' 1 ((PROCEDURE
UNKNOWN-INTENT MODULE-PROC DECL UNKNOWN FUNCTION ALWAYS_EXPLICIT) (
INTEGER 4 0 0 INTEGER ()) 151 0 (152 153) () 154 () () () 0 0)
155 'fusion_matrix' 'common_functions' 'fusion_matrix' 1 ((PROCEDURE
UNKNOWN-INTENT MODULE-PROC DECL UNKNOWN SUBROUTINE ALWAYS_EXPLICIT) (
UNKNOWN 0 0 0 UNKNOWN ()) 156 0 (157 158) () 0 () () () 0 0)
159 'fusion_vector' 'common_functions' 'fusion_vector' 1 ((PROCEDURE
UNKNOWN-INTENT MODULE-PROC DECL UNKNOWN SUBROUTINE ALWAYS_EXPLICIT) (
UNKNOWN 0 0 0 UNKNOWN ()) 160 0 (161 162) () 0 () () () 0 0)
163 'fusion_vector_int' 'common_functions' 'fusion_vector_int' 1 ((
PROCEDURE UNKNOWN-INTENT MODULE-PROC DECL UNKNOWN SUBROUTINE
ALWAYS_EXPLICIT) (UNKNOWN 0 0 0 UNKNOWN ()) 164 0 (165 166) () 0 () () ()
0 0)
167 'goptions' 'scattersearchtypes' 'goptions' 1 ((DERIVED
UNKNOWN-INTENT UNKNOWN-PROC UNKNOWN UNKNOWN) (UNKNOWN 0 0 0 UNKNOWN ())
0 0 () () 0 ((168 'empty' (INTEGER 4 0 0 INTEGER ()) () (UNKNOWN-FL
UNKNOWN-INTENT UNKNOWN-PROC UNKNOWN UNKNOWN) UNKNOWN-ACCESS ()) (169
'dim_refset' (INTEGER 4 0 0 INTEGER ()) () (UNKNOWN-FL UNKNOWN-INTENT
UNKNOWN-PROC UNKNOWN UNKNOWN) UNKNOWN-ACCESS ()) (170 'ndiverse' (
INTEGER 4 0 0 INTEGER ()) () (UNKNOWN-FL UNKNOWN-INTENT UNKNOWN-PROC
UNKNOWN UNKNOWN) UNKNOWN-ACCESS ()) (171 'initiate' (INTEGER 4 0 0
INTEGER ()) () (UNKNOWN-FL UNKNOWN-INTENT UNKNOWN-PROC UNKNOWN UNKNOWN)
UNKNOWN-ACCESS ()) (172 'combination' (INTEGER 4 0 0 INTEGER ()) () (
UNKNOWN-FL UNKNOWN-INTENT UNKNOWN-PROC UNKNOWN UNKNOWN) UNKNOWN-ACCESS ())
(173 'regenerate' (INTEGER 4 0 0 INTEGER ()) () (UNKNOWN-FL
UNKNOWN-INTENT UNKNOWN-PROC UNKNOWN UNKNOWN) UNKNOWN-ACCESS ()) (174
'intens' (INTEGER 4 0 0 INTEGER ()) () (UNKNOWN-FL UNKNOWN-INTENT
UNKNOWN-PROC UNKNOWN UNKNOWN) UNKNOWN-ACCESS ()) (175 'diverse_criteria'
(INTEGER 4 0 0 INTEGER ()) () (UNKNOWN-FL UNKNOWN-INTENT UNKNOWN-PROC
UNKNOWN UNKNOWN) UNKNOWN-ACCESS ()) (176 'n_stuck' (INTEGER 4 0 0
INTEGER ()) () (UNKNOWN-FL UNKNOWN-INTENT UNKNOWN-PROC UNKNOWN UNKNOWN)
UNKNOWN-ACCESS ()) (177 'tolf' (REAL 8 0 0 REAL ()) () (UNKNOWN-FL
UNKNOWN-INTENT UNKNOWN-PROC UNKNOWN UNKNOWN) UNKNOWN-ACCESS ()) (178
'tolx' (REAL 8 0 0 REAL ()) () (UNKNOWN-FL UNKNOWN-INTENT UNKNOWN-PROC
UNKNOWN UNKNOWN) UNKNOWN-ACCESS ()) (179 'delete' (CHARACTER 1 1 0
CHARACTER ((CONSTANT (INTEGER 4 0 0 INTEGER ()) 0 '20'))) () (
UNKNOWN-FL UNKNOWN-INTENT UNKNOWN-PROC UNKNOWN UNKNOWN) UNKNOWN-ACCESS ()))
PUBLIC (() ()) () 0 0)
180 'index_of_ones' 'common_functions' 'index_of_ones' 1 ((PROCEDURE
UNKNOWN-INTENT MODULE-PROC DECL UNKNOWN SUBROUTINE ALWAYS_EXPLICIT) (
UNKNOWN 0 0 0 UNKNOWN ()) 181 0 (182 183) () 0 () () () 0 0)
184 'index_of_ones_matrix' 'common_functions' 'index_of_ones_matrix' 1 (
(PROCEDURE UNKNOWN-INTENT MODULE-PROC DECL UNKNOWN SUBROUTINE
ALWAYS_EXPLICIT) (UNKNOWN 0 0 0 UNKNOWN ()) 185 0 (186 187) () 0 () () ()
0 0)
188 'infinite' 'scattersearchtypes' 'infinite' 1 ((PARAMETER
UNKNOWN-INTENT UNKNOWN-PROC UNKNOWN IMPLICIT-SAVE) (REAL 8 0 0 REAL ())
0 0 () (CONSTANT (REAL 8 0 0 REAL ()) 0 '0.fffffffffffff8@256') () 0 ()
() () 0 0)
189 'inicializa_vector' 'common_functions' 'inicializa_vector' 1 ((
PROCEDURE UNKNOWN-INTENT MODULE-PROC DECL UNKNOWN SUBROUTINE
ALWAYS_EXPLICIT) (UNKNOWN 0 0 0 UNKNOWN ()) 190 0 (191 192) () 0 () () ()
0 0)
193 'inicializa_vector_value' 'common_functions' 'inicializa_vector_value'
1 ((PROCEDURE UNKNOWN-INTENT MODULE-PROC DECL UNKNOWN SUBROUTINE
ALWAYS_EXPLICIT) (UNKNOWN 0 0 0 UNKNOWN ()) 194 0 (195 196 197) () 0 ()
() () 0 0)
198 'insert_dinamic_vector_double_precission' 'common_functions'
'insert_dinamic_vector_double_precission' 1 ((PROCEDURE UNKNOWN-INTENT
MODULE-PROC DECL UNKNOWN SUBROUTINE ALWAYS_EXPLICIT) (UNKNOWN 0 0 0
UNKNOWN ()) 199 0 (200 201) () 0 () () () 0 0)
202 'loptions' 'scattersearchtypes' 'loptions' 1 ((DERIVED
UNKNOWN-INTENT UNKNOWN-PROC UNKNOWN UNKNOWN ALLOC_COMP) (UNKNOWN 0 0 0
UNKNOWN ()) 0 0 () () 0 ((203 'empty' (INTEGER 4 0 0 INTEGER ()) () (
UNKNOWN-FL UNKNOWN-INTENT UNKNOWN-PROC UNKNOWN UNKNOWN) UNKNOWN-ACCESS ())
(204 'tol' (INTEGER 4 0 0 INTEGER ()) () (UNKNOWN-FL UNKNOWN-INTENT
UNKNOWN-PROC UNKNOWN UNKNOWN) UNKNOWN-ACCESS ()) (205 'iterprint' (
INTEGER 4 0 0 INTEGER ()) () (UNKNOWN-FL UNKNOWN-INTENT UNKNOWN-PROC
UNKNOWN UNKNOWN) UNKNOWN-ACCESS ()) (206 'n1' (INTEGER 4 0 0 INTEGER ())
() (UNKNOWN-FL UNKNOWN-INTENT UNKNOWN-PROC UNKNOWN UNKNOWN)
UNKNOWN-ACCESS ()) (207 'n2' (INTEGER 4 0 0 INTEGER ()) () (UNKNOWN-FL
UNKNOWN-INTENT UNKNOWN-PROC UNKNOWN UNKNOWN) UNKNOWN-ACCESS ()) (208
'bestx' (INTEGER 4 0 0 INTEGER ()) () (UNKNOWN-FL UNKNOWN-INTENT
UNKNOWN-PROC UNKNOWN UNKNOWN) UNKNOWN-ACCESS ()) (209 'merit_filter' (
INTEGER 4 0 0 INTEGER ()) () (UNKNOWN-FL UNKNOWN-INTENT UNKNOWN-PROC
UNKNOWN UNKNOWN) UNKNOWN-ACCESS ()) (210 'distance_filter' (INTEGER 4 0
0 INTEGER ()) () (UNKNOWN-FL UNKNOWN-INTENT UNKNOWN-PROC UNKNOWN UNKNOWN)
UNKNOWN-ACCESS ()) (211 'wait_maxdist_limit' (INTEGER 4 0 0 INTEGER ())
() (UNKNOWN-FL UNKNOWN-INTENT UNKNOWN-PROC UNKNOWN UNKNOWN)
UNKNOWN-ACCESS ()) (212 'wait_th_limit' (INTEGER 4 0 0 INTEGER ()) () (
UNKNOWN-FL UNKNOWN-INTENT UNKNOWN-PROC UNKNOWN UNKNOWN) UNKNOWN-ACCESS ())
(213 'threshold_local' (REAL 8 0 0 REAL ()) () (UNKNOWN-FL
UNKNOWN-INTENT UNKNOWN-PROC UNKNOWN UNKNOWN) UNKNOWN-ACCESS ()) (214
'thfactor' (REAL 8 0 0 REAL ()) () (UNKNOWN-FL UNKNOWN-INTENT
UNKNOWN-PROC UNKNOWN UNKNOWN) UNKNOWN-ACCESS ()) (215 'maxdistfactor' (
REAL 8 0 0 REAL ()) () (UNKNOWN-FL UNKNOWN-INTENT UNKNOWN-PROC UNKNOWN
UNKNOWN) UNKNOWN-ACCESS ()) (216 'balance' (REAL 8 0 0 REAL ()) () (
UNKNOWN-FL UNKNOWN-INTENT UNKNOWN-PROC UNKNOWN UNKNOWN) UNKNOWN-ACCESS ())
(217 'extrap' (DERIVED 130 0 0 DERIVED ()) () (UNKNOWN-FL UNKNOWN-INTENT
UNKNOWN-PROC UNKNOWN UNKNOWN) UNKNOWN-ACCESS (STRUCTURE (DERIVED 130 0 0
DERIVED ()) 0 ((() ()) ((NULL (INTEGER 8 0 0 INTEGER ()) 0) ()) ((NULL (
REAL 8 0 0 REAL ()) 0) ()) (() ()) (() ()) (() ()) (() ())) ())) (218
'solver' (CHARACTER 1 1 0 CHARACTER ((CONSTANT (INTEGER 4 0 0 INTEGER ())
0 '20'))) () (UNKNOWN-FL UNKNOWN-INTENT UNKNOWN-PROC UNKNOWN UNKNOWN)
UNKNOWN-ACCESS ()) (219 'finish' (CHARACTER 1 1 0 CHARACTER ((CONSTANT (
INTEGER 4 0 0 INTEGER ()) 0 '20'))) (1 DEFERRED () ()) (UNKNOWN-FL
UNKNOWN-INTENT UNKNOWN-PROC UNKNOWN UNKNOWN ALLOCATABLE DIMENSION)
UNKNOWN-ACCESS ())) PUBLIC (() ()) () 0 0)
220 'max_matrix' 'common_functions' 'max_matrix' 1 ((PROCEDURE
UNKNOWN-INTENT MODULE-PROC DECL UNKNOWN ALLOCATABLE DIMENSION FUNCTION
ALWAYS_EXPLICIT) (REAL 8 0 0 REAL ()) 221 0 (222 223) (2 DEFERRED () ()
() ()) 224 () () () 0 0)
225 'misqp_interface' 'misqp_interface' 'misqp_interface' 1 ((MODULE
UNKNOWN-INTENT UNKNOWN-PROC UNKNOWN UNKNOWN) (UNKNOWN 0 0 0 UNKNOWN ())
0 0 () () 0 () () () 0 0)
226 'nchoosek_fpar' 'common_functions' 'nchoosek_fpar' 1 ((PROCEDURE
UNKNOWN-INTENT MODULE-PROC DECL UNKNOWN SUBROUTINE ALWAYS_EXPLICIT) (
UNKNOWN 0 0 0 UNKNOWN ()) 227 0 (228 229 230) () 0 () () () 0 0)
231 'opts' 'scattersearchtypes' 'opts' 1 ((DERIVED UNKNOWN-INTENT
UNKNOWN-PROC UNKNOWN UNKNOWN ALLOC_COMP) (UNKNOWN 0 0 0 UNKNOWN ()) 0 0
() () 0 ((232 'empty' (INTEGER 4 0 0 INTEGER ()) () (UNKNOWN-FL
UNKNOWN-INTENT UNKNOWN-PROC UNKNOWN UNKNOWN) UNKNOWN-ACCESS ()) (233
'useroptions' (DERIVED 234 0 0 DERIVED ()) () (UNKNOWN-FL UNKNOWN-INTENT
UNKNOWN-PROC UNKNOWN UNKNOWN) UNKNOWN-ACCESS (STRUCTURE (DERIVED 234 0 0
DERIVED ()) 0 ((() ()) (() ()) (() ()) (() ()) (() ()) (() ()) (() ()) (
() ()) (() ()) (() ()) (() ()) ((NULL (INTEGER 4 0 0 INTEGER ()) 0) ())
(() ())) ())) (235 'globaloptions' (DERIVED 167 0 0 DERIVED ()) () (
UNKNOWN-FL UNKNOWN-INTENT UNKNOWN-PROC UNKNOWN UNKNOWN) UNKNOWN-ACCESS ())
(236 'localoptions' (DERIVED 202 0 0 DERIVED ()) () (UNKNOWN-FL
UNKNOWN-INTENT UNKNOWN-PROC UNKNOWN UNKNOWN) UNKNOWN-ACCESS (STRUCTURE (
DERIVED 202 0 0 DERIVED ()) 0 ((() ()) (() ()) (() ()) (() ()) (() ()) (
() ()) (() ()) (() ()) (() ()) (() ()) (() ()) (() ()) (() ()) (() ()) (
(STRUCTURE (DERIVED 130 0 0 DERIVED ()) 0 ((() ()) ((NULL (INTEGER 8 0 0
INTEGER ()) 0) ()) ((NULL (REAL 8 0 0 REAL ()) 0) ()) (() ()) (() ()) (
() ()) (() ())) ()) ()) (() ()) ((NULL (CHARACTER 1 1 0 CHARACTER ((
CONSTANT (INTEGER 4 0 0 INTEGER ()) 0 '20'))) 0) ())) ()))) PUBLIC (() ())
() 0 0)
237 'outfuction' 'scattersearchtypes' 'outfuction' 1 ((DERIVED
UNKNOWN-INTENT UNKNOWN-PROC UNKNOWN UNKNOWN ALLOC_COMP) (UNKNOWN 0 0 0
UNKNOWN ()) 0 0 () () 0 ((238 'value' (REAL 8 0 0 REAL ()) () (
UNKNOWN-FL UNKNOWN-INTENT UNKNOWN-PROC UNKNOWN UNKNOWN) UNKNOWN-ACCESS ())
(239 'value_penalty' (REAL 8 0 0 REAL ()) () (UNKNOWN-FL UNKNOWN-INTENT
UNKNOWN-PROC UNKNOWN UNKNOWN) UNKNOWN-ACCESS ()) (240 'pena' (REAL 8 0 0
REAL ()) () (UNKNOWN-FL UNKNOWN-INTENT UNKNOWN-PROC UNKNOWN UNKNOWN)
UNKNOWN-ACCESS ()) (241 'nlc' (REAL 8 0 0 REAL ()) (1 DEFERRED () ()) (
UNKNOWN-FL UNKNOWN-INTENT UNKNOWN-PROC UNKNOWN UNKNOWN ALLOCATABLE
DIMENSION) UNKNOWN-ACCESS ()) (242 'include' (INTEGER 4 0 0 INTEGER ())
() (UNKNOWN-FL UNKNOWN-INTENT UNKNOWN-PROC UNKNOWN UNKNOWN)
UNKNOWN-ACCESS ()) (243 'x' (REAL 8 0 0 REAL ()) (1 DEFERRED () ()) (
UNKNOWN-FL UNKNOWN-INTENT UNKNOWN-PROC UNKNOWN UNKNOWN ALLOCATABLE
DIMENSION) UNKNOWN-ACCESS ())) PUBLIC (() ()) () 0 0)
244 'precision_d' 'scattersearchtypes' 'precision_d' 1 ((PARAMETER
UNKNOWN-INTENT UNKNOWN-PROC UNKNOWN IMPLICIT-SAVE) (INTEGER 4 0 0
INTEGER ()) 0 0 () (CONSTANT (INTEGER 4 0 0 INTEGER ()) 0 '15') () 0 ()
() () 0 0)
245 'precision_f' 'scattersearchtypes' 'precision_f' 1 ((PARAMETER
UNKNOWN-INTENT UNKNOWN-PROC UNKNOWN IMPLICIT-SAVE) (INTEGER 4 0 0
INTEGER ()) 0 0 () (CONSTANT (INTEGER 4 0 0 INTEGER ()) 0 '7') () 0 () ()
() 0 0)
246 'print_matrix' 'common_functions' 'print_matrix' 1 ((PROCEDURE
UNKNOWN-INTENT MODULE-PROC DECL UNKNOWN SUBROUTINE ALWAYS_EXPLICIT) (
UNKNOWN 0 0 0 UNKNOWN ()) 247 0 (248) () 0 () () () 0 0)
249 'print_matrix_integer' 'common_functions' 'print_matrix_integer' 1 (
(PROCEDURE UNKNOWN-INTENT MODULE-PROC DECL UNKNOWN SUBROUTINE
ALWAYS_EXPLICIT) (UNKNOWN 0 0 0 UNKNOWN ()) 250 0 (251) () 0 () () () 0
0)
252 'print_vector' 'common_functions' 'print_vector' 1 ((PROCEDURE
UNKNOWN-INTENT MODULE-PROC DECL UNKNOWN SUBROUTINE ALWAYS_EXPLICIT) (
UNKNOWN 0 0 0 UNKNOWN ()) 253 0 (254) () 0 () () () 0 0)
255 'problem' 'scattersearchtypes' 'problem' 1 ((DERIVED UNKNOWN-INTENT
UNKNOWN-PROC UNKNOWN UNKNOWN ALLOC_COMP) (UNKNOWN 0 0 0 UNKNOWN ()) 0 0
() () 0 ((256 'empty' (INTEGER 4 0 0 INTEGER ()) () (UNKNOWN-FL
UNKNOWN-INTENT UNKNOWN-PROC UNKNOWN UNKNOWN) UNKNOWN-ACCESS ()) (257 'f'
(CHARACTER 1 0 0 CHARACTER ((CONSTANT (INTEGER 4 0 0 INTEGER ()) 0 '20')))
() (UNKNOWN-FL UNKNOWN-INTENT UNKNOWN-PROC UNKNOWN UNKNOWN)
UNKNOWN-ACCESS ()) (258 'neq' (INTEGER 4 0 0 INTEGER ()) () (UNKNOWN-FL
UNKNOWN-INTENT UNKNOWN-PROC UNKNOWN UNKNOWN) UNKNOWN-ACCESS ()) (259
'int_var' (INTEGER 4 0 0 INTEGER ()) () (UNKNOWN-FL UNKNOWN-INTENT
UNKNOWN-PROC UNKNOWN UNKNOWN) UNKNOWN-ACCESS ()) (260 'bin_var' (
INTEGER 4 0 0 INTEGER ()) () (UNKNOWN-FL UNKNOWN-INTENT UNKNOWN-PROC
UNKNOWN UNKNOWN) UNKNOWN-ACCESS ()) (261 'vtr' (REAL 8 0 0 REAL ()) (1
DEFERRED () ()) (UNKNOWN-FL UNKNOWN-INTENT UNKNOWN-PROC UNKNOWN UNKNOWN
ALLOCATABLE DIMENSION) UNKNOWN-ACCESS ()) (262 'xl' (REAL 8 0 0 REAL ())
(1 DEFERRED () ()) (UNKNOWN-FL UNKNOWN-INTENT UNKNOWN-PROC UNKNOWN
UNKNOWN ALLOCATABLE DIMENSION) UNKNOWN-ACCESS ()) (263 'xu' (REAL 8 0 0
REAL ()) (1 DEFERRED () ()) (UNKNOWN-FL UNKNOWN-INTENT UNKNOWN-PROC
UNKNOWN UNKNOWN ALLOCATABLE DIMENSION) UNKNOWN-ACCESS ()) (264 'cl' (
REAL 8 0 0 REAL ()) (1 DEFERRED () ()) (UNKNOWN-FL UNKNOWN-INTENT
UNKNOWN-PROC UNKNOWN UNKNOWN ALLOCATABLE DIMENSION) UNKNOWN-ACCESS ()) (
265 'cu' (REAL 8 0 0 REAL ()) (1 DEFERRED () ()) (UNKNOWN-FL
UNKNOWN-INTENT UNKNOWN-PROC UNKNOWN UNKNOWN ALLOCATABLE DIMENSION)
UNKNOWN-ACCESS ()) (266 'ineq' (INTEGER 4 0 0 INTEGER ()) () (
UNKNOWN-FL UNKNOWN-INTENT UNKNOWN-PROC UNKNOWN UNKNOWN) UNKNOWN-ACCESS ())
(267 'x0' (REAL 8 0 0 REAL ()) (2 DEFERRED () () () ()) (UNKNOWN-FL
UNKNOWN-INTENT UNKNOWN-PROC UNKNOWN UNKNOWN ALLOCATABLE DIMENSION)
UNKNOWN-ACCESS ()) (268 'f0' (REAL 8 0 0 REAL ()) (1 DEFERRED () ()) (
UNKNOWN-FL UNKNOWN-INTENT UNKNOWN-PROC UNKNOWN UNKNOWN ALLOCATABLE
DIMENSION) UNKNOWN-ACCESS ())) PUBLIC (() ()) () 0 0)
269 'qsort_module' 'qsort_module' 'qsort_module' 1 ((MODULE
UNKNOWN-INTENT UNKNOWN-PROC UNKNOWN UNKNOWN) (UNKNOWN 0 0 0 UNKNOWN ())
0 0 () () 0 () () () 0 0)
270 'qsortc' 'qsort_module' 'qsortc' 1 ((PROCEDURE UNKNOWN-INTENT
MODULE-PROC DECL UNKNOWN SUBROUTINE RECURSIVE ALWAYS_EXPLICIT) (UNKNOWN
0 0 0 UNKNOWN ()) 271 0 (272) () 0 () () () 0 0)
273 'qsortc_ind' 'qsort_module' 'qsortc_ind' 1 ((PROCEDURE
UNKNOWN-INTENT MODULE-PROC DECL UNKNOWN SUBROUTINE RECURSIVE
ALWAYS_EXPLICIT) (UNKNOWN 0 0 0 UNKNOWN ()) 274 0 (275 276) () 0 () () ()
0 0)
277 'random_det_matrix_seed_10' 'common_functions'
'random_det_matrix_seed_10' 1 ((PROCEDURE UNKNOWN-INTENT MODULE-PROC
DECL UNKNOWN SUBROUTINE ALWAYS_EXPLICIT) (UNKNOWN 0 0 0 UNKNOWN ()) 278
0 (279 280 281 282 283) () 0 () () () 0 0)
284 'random_det_number' 'common_functions' 'random_det_number' 1 ((
PROCEDURE UNKNOWN-INTENT MODULE-PROC DECL UNKNOWN SUBROUTINE
ALWAYS_EXPLICIT) (UNKNOWN 0 0 0 UNKNOWN ()) 285 0 (286 287 288) () 0 ()
() () 0 0)
289 'random_det_vector_5' 'common_functions' 'random_det_vector_5' 1 ((
PROCEDURE UNKNOWN-INTENT MODULE-PROC DECL UNKNOWN SUBROUTINE
ALWAYS_EXPLICIT) (UNKNOWN 0 0 0 UNKNOWN ()) 290 0 (291 292 293 294 295
296 297) () 0 () () () 0 0)
298 'random_det_vector_seed' 'common_functions' 'random_det_vector_seed'
1 ((PROCEDURE UNKNOWN-INTENT MODULE-PROC DECL UNKNOWN SUBROUTINE
ALWAYS_EXPLICIT) (UNKNOWN 0 0 0 UNKNOWN ()) 299 0 (300 301 302 303 304
305) () 0 () () () 0 0)
306 'random_det_vector_seed_10' 'common_functions'
'random_det_vector_seed_10' 1 ((PROCEDURE UNKNOWN-INTENT MODULE-PROC
DECL UNKNOWN SUBROUTINE ALWAYS_EXPLICIT) (UNKNOWN 0 0 0 UNKNOWN ()) 307
0 (308 309 310 311) () 0 () () () 0 0)
312 'random_matrix_seed_10' 'common_functions' 'random_matrix_seed_10' 1
((PROCEDURE UNKNOWN-INTENT MODULE-PROC DECL UNKNOWN SUBROUTINE
ALWAYS_EXPLICIT) (UNKNOWN 0 0 0 UNKNOWN ()) 313 0 (314 315 316 317) () 0
() () () 0 0)
318 'random_vector_5' 'common_functions' 'random_vector_5' 1 ((
PROCEDURE UNKNOWN-INTENT MODULE-PROC DECL UNKNOWN SUBROUTINE
ALWAYS_EXPLICIT) (UNKNOWN 0 0 0 UNKNOWN ()) 319 0 (320 321 322 323 324
325) () 0 () () () 0 0)
326 'random_vector_seed' 'common_functions' 'random_vector_seed' 1 ((
PROCEDURE UNKNOWN-INTENT MODULE-PROC DECL UNKNOWN SUBROUTINE
ALWAYS_EXPLICIT) (UNKNOWN 0 0 0 UNKNOWN ()) 327 0 (328 329 330 331 332)
() 0 () () () 0 0)
333 'random_vector_seed_10' 'common_functions' 'random_vector_seed_10' 1
((PROCEDURE UNKNOWN-INTENT MODULE-PROC DECL UNKNOWN SUBROUTINE
ALWAYS_EXPLICIT) (UNKNOWN 0 0 0 UNKNOWN ()) 334 0 (335 336 337) () 0 ()
() () 0 0)
338 'randperm_int' 'common_functions' 'randperm_int' 1 ((PROCEDURE
UNKNOWN-INTENT MODULE-PROC DECL UNKNOWN SUBROUTINE ALWAYS_EXPLICIT) (
UNKNOWN 0 0 0 UNKNOWN ()) 339 0 (340) () 0 () () () 0 0)
341 'range_d' 'scattersearchtypes' 'range_d' 1 ((PARAMETER
UNKNOWN-INTENT UNKNOWN-PROC UNKNOWN IMPLICIT-SAVE) (INTEGER 4 0 0
INTEGER ()) 0 0 () (CONSTANT (INTEGER 4 0 0 INTEGER ()) 0 '307') () 0 ()
() () 0 0)
342 'range_f' 'scattersearchtypes' 'range_f' 1 ((PARAMETER
UNKNOWN-INTENT UNKNOWN-PROC UNKNOWN IMPLICIT-SAVE) (INTEGER 4 0 0
INTEGER ()) 0 0 () (CONSTANT (INTEGER 4 0 0 INTEGER ()) 0 '150') () 0 ()
() () 0 0)
343 'reajust_index' 'common_functions' 'reajust_index' 1 ((PROCEDURE
UNKNOWN-INTENT MODULE-PROC DECL UNKNOWN SUBROUTINE ALWAYS_EXPLICIT) (
UNKNOWN 0 0 0 UNKNOWN ()) 344 0 (345) () 0 () () () 0 0)
346 'real' '(intrinsic)' 'real' 1 ((PROCEDURE UNKNOWN-INTENT
UNKNOWN-PROC UNKNOWN UNKNOWN FUNCTION) (REAL 4 0 0 REAL ()) 0 0 () ()
346 () () () 0 0)
347 'refsettype' 'scattersearchtypes' 'refsettype' 1 ((DERIVED
UNKNOWN-INTENT UNKNOWN-PROC UNKNOWN UNKNOWN ALLOC_COMP) (UNKNOWN 0 0 0
UNKNOWN ()) 0 0 () () 0 ((348 'x' (REAL 8 0 0 REAL ()) (2 DEFERRED () ()
() ()) (UNKNOWN-FL UNKNOWN-INTENT UNKNOWN-PROC UNKNOWN UNKNOWN
ALLOCATABLE DIMENSION) UNKNOWN-ACCESS ()) (349 'f' (REAL 8 0 0 REAL ())
(1 DEFERRED () ()) (UNKNOWN-FL UNKNOWN-INTENT UNKNOWN-PROC UNKNOWN
UNKNOWN ALLOCATABLE DIMENSION) UNKNOWN-ACCESS ()) (350 'fpen' (REAL 8 0
0 REAL ()) (1 DEFERRED () ()) (UNKNOWN-FL UNKNOWN-INTENT UNKNOWN-PROC
UNKNOWN UNKNOWN ALLOCATABLE DIMENSION) UNKNOWN-ACCESS ()) (351 'nlc' (
REAL 8 0 0 REAL ()) (2 DEFERRED () () () ()) (UNKNOWN-FL UNKNOWN-INTENT
UNKNOWN-PROC UNKNOWN UNKNOWN ALLOCATABLE DIMENSION) UNKNOWN-ACCESS ()) (
352 'penalty' (REAL 8 0 0 REAL ()) (1 DEFERRED () ()) (UNKNOWN-FL
UNKNOWN-INTENT UNKNOWN-PROC UNKNOWN UNKNOWN ALLOCATABLE DIMENSION)
UNKNOWN-ACCESS ()) (353 'parent_index' (INTEGER 4 0 0 INTEGER ()) (1
DEFERRED () ()) (UNKNOWN-FL UNKNOWN-INTENT UNKNOWN-PROC UNKNOWN UNKNOWN
ALLOCATABLE DIMENSION) UNKNOWN-ACCESS ())) PUBLIC (() ()) () 0 0)
354 'replace_matrix' 'common_functions' 'replace_matrix' 1 ((PROCEDURE
UNKNOWN-INTENT MODULE-PROC DECL UNKNOWN SUBROUTINE ALWAYS_EXPLICIT) (
UNKNOWN 0 0 0 UNKNOWN ()) 355 0 (356 357) () 0 () () () 0 0)
358 'resultsf' 'scattersearchtypes' 'resultsf' 1 ((DERIVED
UNKNOWN-INTENT UNKNOWN-PROC UNKNOWN UNKNOWN ALLOC_COMP) (UNKNOWN 0 0 0
UNKNOWN ()) 0 0 () () 0 ((359 'refsett' (DERIVED 347 0 0 DERIVED ()) ()
(UNKNOWN-FL UNKNOWN-INTENT UNKNOWN-PROC UNKNOWN UNKNOWN) UNKNOWN-ACCESS
(STRUCTURE (DERIVED 347 0 0 DERIVED ()) 0 (((NULL (REAL 8 0 0 REAL ()) 0)
()) ((NULL (REAL 8 0 0 REAL ()) 0) ()) ((NULL (REAL 8 0 0 REAL ()) 0) ())
((NULL (REAL 8 0 0 REAL ()) 0) ()) ((NULL (REAL 8 0 0 REAL ()) 0) ()) (
(NULL (INTEGER 4 0 0 INTEGER ()) 0) ())) ())) (360 'fbest' (REAL 8 0 0
REAL ()) (1 DEFERRED () ()) (UNKNOWN-FL UNKNOWN-INTENT UNKNOWN-PROC
UNKNOWN UNKNOWN ALLOCATABLE DIMENSION) UNKNOWN-ACCESS ()) (361 'xbest' (
REAL 8 0 0 REAL ()) (1 DEFERRED () ()) (UNKNOWN-FL UNKNOWN-INTENT
UNKNOWN-PROC UNKNOWN UNKNOWN ALLOCATABLE DIMENSION) UNKNOWN-ACCESS ()) (
362 'cputime' (REAL 8 1 0 REAL ()) () (UNKNOWN-FL UNKNOWN-INTENT
UNKNOWN-PROC UNKNOWN UNKNOWN) UNKNOWN-ACCESS ()) (363 'f' (REAL 8 0 0
REAL ()) (1 DEFERRED () ()) (UNKNOWN-FL UNKNOWN-INTENT UNKNOWN-PROC
UNKNOWN UNKNOWN ALLOCATABLE DIMENSION) UNKNOWN-ACCESS ()) (364 'x' (
REAL 8 0 0 REAL ()) (2 DEFERRED () () () ()) (UNKNOWN-FL UNKNOWN-INTENT
UNKNOWN-PROC UNKNOWN UNKNOWN ALLOCATABLE DIMENSION) UNKNOWN-ACCESS ()) (
365 'time' (REAL 8 1 0 REAL ()) (1 DEFERRED () ()) (UNKNOWN-FL
UNKNOWN-INTENT UNKNOWN-PROC UNKNOWN UNKNOWN ALLOCATABLE DIMENSION)
UNKNOWN-ACCESS ()) (366 'neval' (INTEGER 8 1 0 INTEGER ()) (1 DEFERRED ()
()) (UNKNOWN-FL UNKNOWN-INTENT UNKNOWN-PROC UNKNOWN UNKNOWN ALLOCATABLE
DIMENSION) UNKNOWN-ACCESS ()) (367 'numeval' (INTEGER 8 1 0 INTEGER ())
() (UNKNOWN-FL UNKNOWN-INTENT UNKNOWN-PROC UNKNOWN UNKNOWN)
UNKNOWN-ACCESS ()) (368 'local_solutions' (INTEGER 8 1 0 INTEGER ()) ()
(UNKNOWN-FL UNKNOWN-INTENT UNKNOWN-PROC UNKNOWN UNKNOWN) UNKNOWN-ACCESS
()) (369 'local_solutions_values' (INTEGER 8 1 0 INTEGER ()) (1 DEFERRED
() ()) (UNKNOWN-FL UNKNOWN-INTENT UNKNOWN-PROC UNKNOWN UNKNOWN
ALLOCATABLE DIMENSION) UNKNOWN-ACCESS ()) (370 'end_crit' (INTEGER 8 1 0
INTEGER ()) () (UNKNOWN-FL UNKNOWN-INTENT UNKNOWN-PROC UNKNOWN UNKNOWN)
UNKNOWN-ACCESS ())) PUBLIC (() ()) () 0 0)
371 'return_random_number' 'common_functions' 'return_random_number' 1 (
(PROCEDURE UNKNOWN-INTENT MODULE-PROC DECL UNKNOWN FUNCTION) (REAL 8 0 0
REAL ()) 372 0 (373) () 374 () () () 0 0)
375 'return_values_matrix_index' 'common_functions'
'return_values_matrix_index' 1 ((PROCEDURE UNKNOWN-INTENT MODULE-PROC
DECL UNKNOWN SUBROUTINE ALWAYS_EXPLICIT) (UNKNOWN 0 0 0 UNKNOWN ()) 376
0 (377 378 379) () 0 () () () 0 0)
380 'row_one' 'common_functions' 'row_one' 1 ((PROCEDURE UNKNOWN-INTENT
MODULE-PROC DECL UNKNOWN SUBROUTINE ALWAYS_EXPLICIT) (UNKNOWN 0 0 0
UNKNOWN ()) 381 0 (382 383 384) () 0 () () () 0 0)
385 'run_misqp' 'misqp_interface' 'run_misqp' 1 ((PROCEDURE
UNKNOWN-INTENT MODULE-PROC DECL UNKNOWN SUBROUTINE ALWAYS_EXPLICIT) (
UNKNOWN 0 0 0 UNKNOWN ()) 386 0 (387 388 389 390 391 392 393 394 395 396)
() 0 () () () 0 0)
397 'scattersearchtypes' 'scattersearchtypes' 'scattersearchtypes' 1 ((
MODULE UNKNOWN-INTENT UNKNOWN-PROC UNKNOWN UNKNOWN) (UNKNOWN 0 0 0
UNKNOWN ()) 0 0 () () 0 () () () 0 0)
398 'selected_real_kind' '(intrinsic)' 'selected_real_kind' 1 ((
PROCEDURE UNKNOWN-INTENT UNKNOWN-PROC UNKNOWN UNKNOWN FUNCTION) (REAL 4
0 0 REAL ()) 0 0 () () 398 () () () 0 0)
399 'square_roots_polinom' 'common_functions' 'square_roots_polinom' 1 (
(PROCEDURE UNKNOWN-INTENT MODULE-PROC DECL UNKNOWN SUBROUTINE) (UNKNOWN
0 0 0 UNKNOWN ()) 400 0 (401 402) () 0 () () () 0 0)
403 'tol_prec' 'scattersearchtypes' 'tol_prec' 1 ((PARAMETER
UNKNOWN-INTENT UNKNOWN-PROC UNKNOWN IMPLICIT-SAVE) (REAL 8 0 0 REAL ())
0 0 () (CONSTANT (REAL 8 0 0 REAL ()) 0 '0.12725dd1d243ac@-14') () 0 ()
() () 0 0)
404 'topology_data_fortran' 'scattersearchtypes' 'topology_data_fortran'
1 ((DERIVED UNKNOWN-INTENT UNKNOWN-PROC UNKNOWN UNKNOWN ALLOC_COMP) (
UNKNOWN 0 0 0 UNKNOWN ()) 0 0 () () 0 ((405 'num_r' (INTEGER 4 0 0
INTEGER ()) () (UNKNOWN-FL UNKNOWN-INTENT UNKNOWN-PROC UNKNOWN UNKNOWN)
UNKNOWN-ACCESS ()) (406 'num_left' (INTEGER 4 0 0 INTEGER ()) () (
UNKNOWN-FL UNKNOWN-INTENT UNKNOWN-PROC UNKNOWN UNKNOWN) UNKNOWN-ACCESS ())
(407 'rigth' (INTEGER 4 0 0 INTEGER ()) (1 DEFERRED () ()) (UNKNOWN-FL
UNKNOWN-INTENT UNKNOWN-PROC UNKNOWN UNKNOWN ALLOCATABLE DIMENSION)
UNKNOWN-ACCESS ()) (408 'left' (INTEGER 4 0 0 INTEGER ()) (1 DEFERRED ()
()) (UNKNOWN-FL UNKNOWN-INTENT UNKNOWN-PROC UNKNOWN UNKNOWN ALLOCATABLE
DIMENSION) UNKNOWN-ACCESS ())) PUBLIC (() ()) () 0 0)
234 'uoptions' 'scattersearchtypes' 'uoptions' 1 ((DERIVED
UNKNOWN-INTENT UNKNOWN-PROC UNKNOWN UNKNOWN ALLOC_COMP) (UNKNOWN 0 0 0
UNKNOWN ()) 0 0 () () 0 ((409 'empty' (INTEGER 4 0 0 INTEGER ()) () (
UNKNOWN-FL UNKNOWN-INTENT UNKNOWN-PROC UNKNOWN UNKNOWN) UNKNOWN-ACCESS ())
(410 'iterprint' (INTEGER 4 0 0 INTEGER ()) () (UNKNOWN-FL
UNKNOWN-INTENT UNKNOWN-PROC UNKNOWN UNKNOWN) UNKNOWN-ACCESS ()) (411
'plot' (INTEGER 4 0 0 INTEGER ()) () (UNKNOWN-FL UNKNOWN-INTENT
UNKNOWN-PROC UNKNOWN UNKNOWN) UNKNOWN-ACCESS ()) (412 'weight' (INTEGER
4 0 0 INTEGER ()) () (UNKNOWN-FL UNKNOWN-INTENT UNKNOWN-PROC UNKNOWN
UNKNOWN) UNKNOWN-ACCESS ()) (413 'nstuck_solution' (INTEGER 4 0 0
INTEGER ()) () (UNKNOWN-FL UNKNOWN-INTENT UNKNOWN-PROC UNKNOWN UNKNOWN)
UNKNOWN-ACCESS ()) (414 'strategy' (INTEGER 4 0 0 INTEGER ()) () (
UNKNOWN-FL UNKNOWN-INTENT UNKNOWN-PROC UNKNOWN UNKNOWN) UNKNOWN-ACCESS ())
(415 'inter_save' (INTEGER 4 0 0 INTEGER ()) () (UNKNOWN-FL
UNKNOWN-INTENT UNKNOWN-PROC UNKNOWN UNKNOWN) UNKNOWN-ACCESS ()) (416
'maxeval' (INTEGER 8 1 0 INTEGER ()) () (UNKNOWN-FL UNKNOWN-INTENT
UNKNOWN-PROC UNKNOWN UNKNOWN) UNKNOWN-ACCESS ()) (417 'maxtime' (REAL 8
1 0 REAL ()) () (UNKNOWN-FL UNKNOWN-INTENT UNKNOWN-PROC UNKNOWN UNKNOWN)
UNKNOWN-ACCESS ()) (418 'tolc' (REAL 8 0 0 REAL ()) () (UNKNOWN-FL
UNKNOWN-INTENT UNKNOWN-PROC UNKNOWN UNKNOWN) UNKNOWN-ACCESS ()) (419
'prob_bound' (REAL 8 0 0 REAL ()) () (UNKNOWN-FL UNKNOWN-INTENT
UNKNOWN-PROC UNKNOWN UNKNOWN) UNKNOWN-ACCESS ()) (420 'log_var' (
INTEGER 4 0 0 INTEGER ()) (1 DEFERRED () ()) (UNKNOWN-FL UNKNOWN-INTENT
UNKNOWN-PROC UNKNOWN UNKNOWN ALLOCATABLE DIMENSION) UNKNOWN-ACCESS ()) (
421 'init_point' (INTEGER 4 0 0 INTEGER ()) () (UNKNOWN-FL
UNKNOWN-INTENT UNKNOWN-PROC UNKNOWN UNKNOWN) UNKNOWN-ACCESS ())) PUBLIC
(() ()) () 0 0)
422 'valuepos' 'qsort_module' 'valuepos' 1 ((DERIVED UNKNOWN-INTENT
UNKNOWN-PROC UNKNOWN UNKNOWN) (UNKNOWN 0 0 0 UNKNOWN ()) 0 0 () () 0 ((
423 'value' (REAL 8 0 0 REAL ()) () (UNKNOWN-FL UNKNOWN-INTENT
UNKNOWN-PROC UNKNOWN UNKNOWN) UNKNOWN-ACCESS ()) (424 'position' (
INTEGER 4 0 0 INTEGER ()) () (UNKNOWN-FL UNKNOWN-INTENT UNKNOWN-PROC
UNKNOWN UNKNOWN) UNKNOWN-ACCESS ())) PUBLIC (() ()) () 0 0)
425 'variance_vector' 'common_functions' 'variance_vector' 1 ((
PROCEDURE UNKNOWN-INTENT MODULE-PROC DECL UNKNOWN FUNCTION
ALWAYS_EXPLICIT) (REAL 8 0 0 REAL ()) 426 0 (427) () 428 () () () 0 0)
24 'cptr' '__iso_c_binding' 'cptr' 23 ((DERIVED IN UNKNOWN-PROC UNKNOWN
UNKNOWN VALUE DUMMY) (DERIVED 57 0 0 DERIVED ()) 0 0 () () 0 () () () 0
0)
25 'fptr' '__iso_c_binding' 'fptr' 23 ((VARIABLE UNKNOWN-INTENT
UNKNOWN-PROC UNKNOWN UNKNOWN POINTER DUMMY) (VOID 0 0 0 VOID ()) 0 0 ()
() 0 () () () 0 0)
26 'shape' '__iso_c_binding' 'shape' 23 ((VARIABLE IN UNKNOWN-PROC
UNKNOWN UNKNOWN DIMENSION OPTIONAL DUMMY) (VOID 4 0 0 VOID ()) 0 0 () (
1 ASSUMED_SHAPE (CONSTANT (INTEGER 4 0 0 INTEGER ()) 0 '1') ()) 0 () ()
() 0 0)
14 'c_ptr_1' '__iso_c_binding' 'c_ptr_1' 13 ((DERIVED IN UNKNOWN-PROC
UNKNOWN UNKNOWN VALUE DUMMY) (DERIVED 57 0 0 DERIVED ()) 0 0 () () 0 ()
() () 0 0)
15 'c_ptr_2' '__iso_c_binding' 'c_ptr_2' 13 ((DERIVED IN UNKNOWN-PROC
UNKNOWN UNKNOWN OPTIONAL VALUE DUMMY) (DERIVED 57 0 0 DERIVED ()) 0 0 ()
() 0 () () () 0 0)
29 'cptr' '__iso_c_binding' 'cptr' 28 ((DERIVED IN UNKNOWN-PROC UNKNOWN
UNKNOWN VALUE DUMMY) (DERIVED 35 0 0 DERIVED ()) 0 0 () () 0 () () () 0
0)
30 'fptr' '__iso_c_binding' 'fptr' 28 ((VARIABLE UNKNOWN-INTENT
UNKNOWN-PROC UNKNOWN UNKNOWN DUMMY PROC_POINTER) (VOID 0 0 0 VOID ()) 0
0 () () 0 () () () 0 0)
113 'problem1' '' 'problem1' 112 ((VARIABLE INOUT UNKNOWN-PROC UNKNOWN
UNKNOWN DUMMY) (DERIVED 255 0 0 DERIVED ()) 0 0 () () 0 () () () 0 0)
114 'exp1' '' 'exp1' 112 ((VARIABLE UNKNOWN-INTENT UNKNOWN-PROC UNKNOWN
UNKNOWN DUMMY) (REAL 4 0 0 REAL ()) 0 0 () () 0 () () () 0 0)
115 'opts1' '' 'opts1' 112 ((VARIABLE UNKNOWN-INTENT UNKNOWN-PROC
UNKNOWN UNKNOWN DUMMY) (REAL 4 0 0 REAL ()) 0 0 () () 0 () () () 0 0)
116 'x_value' '' 'x_value' 112 ((VARIABLE UNKNOWN-INTENT UNKNOWN-PROC
UNKNOWN UNKNOWN DUMMY) (REAL 4 0 0 REAL ()) 0 0 () () 0 () () () 0 0)
117 'f_value' '' 'f_value' 112 ((VARIABLE UNKNOWN-INTENT UNKNOWN-PROC
UNKNOWN UNKNOWN DUMMY) (REAL 4 0 0 REAL ()) 0 0 () () 0 () () () 0 0)
272 'data1' '' 'data1' 271 ((VARIABLE INOUT UNKNOWN-PROC UNKNOWN UNKNOWN
DIMENSION DUMMY) (DERIVED 422 0 0 DERIVED ()) 0 0 () (1 ASSUMED_SHAPE (
CONSTANT (INTEGER 4 0 0 INTEGER ()) 0 '1') ()) 0 () () () 0 0)
275 'a' '' 'a' 274 ((VARIABLE INOUT UNKNOWN-PROC UNKNOWN UNKNOWN
DIMENSION DUMMY) (REAL 8 0 0 REAL ()) 0 0 () (1 ASSUMED_SHAPE (CONSTANT
(INTEGER 4 0 0 INTEGER ()) 0 '1') ()) 0 () () () 0 0)
276 'ind' '' 'ind' 274 ((VARIABLE INOUT UNKNOWN-PROC UNKNOWN UNKNOWN
DIMENSION DUMMY) (INTEGER 4 0 0 INTEGER ()) 0 0 () (1 ASSUMED_SHAPE (
CONSTANT (INTEGER 4 0 0 INTEGER ()) 0 '1') ()) 0 () () () 0 0)
118 'g_value' '' 'g_value' 112 ((VARIABLE UNKNOWN-INTENT UNKNOWN-PROC
UNKNOWN UNKNOWN DUMMY) (REAL 4 0 0 REAL ()) 0 0 () () 0 () () () 0 0)
119 'ncont' '' 'ncont' 112 ((VARIABLE UNKNOWN-INTENT UNKNOWN-PROC
UNKNOWN UNKNOWN DUMMY) (INTEGER 4 0 0 INTEGER ()) 0 0 () () 0 () () () 0
0)
120 'nfunc' '' 'nfunc' 112 ((VARIABLE UNKNOWN-INTENT UNKNOWN-PROC
UNKNOWN UNKNOWN DUMMY) (INTEGER 4 0 0 INTEGER ()) 0 0 () () 0 () () () 0
0)
121 'm' '' 'm' 112 ((VARIABLE UNKNOWN-INTENT UNKNOWN-PROC UNKNOWN
UNKNOWN DUMMY) (INTEGER 4 0 0 INTEGER ()) 0 0 () () 0 () () () 0 0)
122 'df' '' 'df' 112 ((VARIABLE UNKNOWN-INTENT UNKNOWN-PROC UNKNOWN
UNKNOWN DUMMY) (REAL 4 0 0 REAL ()) 0 0 () () 0 () () () 0 0)
123 'dg' '' 'dg' 112 ((VARIABLE UNKNOWN-INTENT UNKNOWN-PROC UNKNOWN
UNKNOWN DUMMY) (REAL 4 0 0 REAL ()) 0 0 () () 0 () () () 0 0)
124 'fitnessfunction_mysqp' '' 'fitnessfunction_mysqp' 112 ((VARIABLE
UNKNOWN-INTENT UNKNOWN-PROC UNKNOWN UNKNOWN DUMMY) (REAL 4 0 0 REAL ())
0 0 () () 0 () () () 0 0)
125 'neq' '' 'neq' 112 ((VARIABLE UNKNOWN-INTENT UNKNOWN-PROC UNKNOWN
UNKNOWN DUMMY) (INTEGER 4 0 0 INTEGER ()) 0 0 () () 0 () () () 0 0)
126 'fitnessfunction' '' 'fitnessfunction' 112 ((VARIABLE UNKNOWN-INTENT
UNKNOWN-PROC UNKNOWN UNKNOWN DUMMY) (REAL 4 0 0 REAL ()) 0 0 () () 0 ()
() () 0 0)
387 'problem1' '' 'problem1' 386 ((VARIABLE INOUT UNKNOWN-PROC UNKNOWN
UNKNOWN DUMMY) (DERIVED 255 0 0 DERIVED ()) 0 0 () () 0 () () () 0 0)
388 'exp1' '' 'exp1' 386 ((VARIABLE INOUT UNKNOWN-PROC UNKNOWN UNKNOWN
DUMMY) (DERIVED 57 0 0 DERIVED ()) 0 0 () () 0 () () () 0 0)
389 'opts1' '' 'opts1' 386 ((VARIABLE INOUT UNKNOWN-PROC UNKNOWN UNKNOWN
DUMMY) (DERIVED 231 0 0 DERIVED ()) 0 0 () () 0 () () () 0 0)
390 'fitnessfunction' '' 'fitnessfunction' 386 ((VARIABLE INOUT
UNKNOWN-PROC UNKNOWN UNKNOWN DUMMY) (DERIVED 35 0 0 DERIVED ()) 0 0 () ()
0 () () () 0 0)
391 'x_value' '' 'x_value' 386 ((VARIABLE INOUT UNKNOWN-PROC UNKNOWN
UNKNOWN ALLOCATABLE DIMENSION DUMMY) (REAL 8 0 0 REAL ()) 0 0 () (1
DEFERRED () ()) 0 () () () 0 0)
392 'f_value' '' 'f_value' 386 ((VARIABLE INOUT UNKNOWN-PROC UNKNOWN
UNKNOWN DUMMY) (REAL 8 0 0 REAL ()) 0 0 () () 0 () () () 0 0)
393 'array_stop' '' 'array_stop' 386 ((VARIABLE INOUT UNKNOWN-PROC
UNKNOWN UNKNOWN DUMMY) (DERIVED 57 0 0 DERIVED ()) 0 0 () () 0 () () ()
0 0)
394 'stopval' '' 'stopval' 386 ((VARIABLE INOUT UNKNOWN-PROC UNKNOWN
UNKNOWN DUMMY) (INTEGER 4 0 0 INTEGER ()) 0 0 () () 0 () () () 0 0)
395 'nproc' '' 'nproc' 386 ((VARIABLE INOUT UNKNOWN-PROC UNKNOWN UNKNOWN
DUMMY) (INTEGER 4 0 0 INTEGER ()) 0 0 () () 0 () () () 0 0)
396 'neval' '' 'neval' 386 ((VARIABLE INOUT UNKNOWN-PROC UNKNOWN UNKNOWN
DUMMY) (INTEGER 4 0 0 INTEGER ()) 0 0 () () 0 () () () 0 0)
9 'x' '' 'x' 8 ((VARIABLE INOUT UNKNOWN-PROC UNKNOWN UNKNOWN ALLOCATABLE
DIMENSION DUMMY) (REAL 8 0 0 REAL ()) 0 0 () (1 DEFERRED () ()) 0 () ()
() 0 0)
6 'res' '' 'res' 4 ((VARIABLE UNKNOWN-INTENT UNKNOWN-PROC UNKNOWN
UNKNOWN ALLOCATABLE DIMENSION RESULT ALWAYS_EXPLICIT) (REAL 8 0 0 REAL ())
0 0 () (2 DEFERRED () () () ()) 0 () () () 0 0)
5 'vector1' '' 'vector1' 4 ((VARIABLE IN UNKNOWN-PROC UNKNOWN UNKNOWN
ALLOCATABLE DIMENSION DUMMY) (REAL 8 0 0 REAL ()) 0 0 () (2 DEFERRED ()
() () ()) 0 () () () 0 0)
74 'res' '' 'res' 72 ((VARIABLE UNKNOWN-INTENT UNKNOWN-PROC UNKNOWN
UNKNOWN RESULT ALWAYS_EXPLICIT) (INTEGER 4 0 0 INTEGER ()) 0 0 () () 0 ()
() () 0 0)
79 'value1' '' 'value1' 77 ((VARIABLE IN UNKNOWN-PROC UNKNOWN UNKNOWN
DUMMY) (REAL 8 0 0 REAL ()) 0 0 () () 0 () () () 0 0)
81 'res1' '' 'res1' 77 ((VARIABLE UNKNOWN-INTENT UNKNOWN-PROC UNKNOWN
UNKNOWN ALLOCATABLE DIMENSION RESULT ALWAYS_EXPLICIT) (INTEGER 4 0 0
INTEGER ()) 0 0 () (2 DEFERRED () () () ()) 0 () () () 0 0)
80 'opt' '' 'opt' 77 ((VARIABLE IN UNKNOWN-PROC UNKNOWN UNKNOWN DUMMY) (
CHARACTER 1 0 0 CHARACTER ((CONSTANT (INTEGER 4 0 0 INTEGER ()) 0 '2')))
0 0 () () 0 () () () 0 0)
78 'matrix1' '' 'matrix1' 77 ((VARIABLE IN UNKNOWN-PROC UNKNOWN UNKNOWN
ALLOCATABLE DIMENSION DUMMY) (REAL 8 0 0 REAL ()) 0 0 () (2 DEFERRED ()
() () ()) 0 () () () 0 0)
93 'sizer' '' 'sizer' 90 ((VARIABLE INOUT UNKNOWN-PROC UNKNOWN UNKNOWN
DUMMY) (INTEGER 4 0 0 INTEGER ()) 0 0 () () 0 () () () 0 0)
95 'res1' '' 'res1' 90 ((VARIABLE UNKNOWN-INTENT UNKNOWN-PROC UNKNOWN
UNKNOWN ALLOCATABLE DIMENSION RESULT ALWAYS_EXPLICIT) (INTEGER 4 0 0
INTEGER ()) 0 0 () (1 DEFERRED () ()) 0 () () () 0 0)
94 'opt' '' 'opt' 90 ((VARIABLE IN UNKNOWN-PROC UNKNOWN UNKNOWN DUMMY) (
CHARACTER 1 0 0 CHARACTER ((CONSTANT (INTEGER 4 0 0 INTEGER ()) 0 '2')))
0 0 () () 0 () () () 0 0)
92 'vector2' '' 'vector2' 90 ((VARIABLE IN UNKNOWN-PROC UNKNOWN UNKNOWN
ALLOCATABLE DIMENSION DUMMY) (REAL 8 0 0 REAL ()) 0 0 () (1 DEFERRED ()
()) 0 () () () 0 0)
101 'sizer' '' 'sizer' 97 ((VARIABLE INOUT UNKNOWN-PROC UNKNOWN UNKNOWN
DUMMY) (INTEGER 4 0 0 INTEGER ()) 0 0 () () 0 () () () 0 0)
100 'opt' '' 'opt' 97 ((VARIABLE IN UNKNOWN-PROC UNKNOWN UNKNOWN DUMMY)
(CHARACTER 1 0 0 CHARACTER ((CONSTANT (INTEGER 4 0 0 INTEGER ()) 0 '2')))
0 0 () () 0 () () () 0 0)
142 'vectorout' '' 'vectorout' 139 ((VARIABLE INOUT UNKNOWN-PROC UNKNOWN
UNKNOWN ALLOCATABLE DIMENSION DUMMY) (INTEGER 4 0 0 INTEGER ()) 0 0 () (
1 DEFERRED () ()) 0 () () () 0 0)
141 'value' '' 'value' 139 ((VARIABLE IN UNKNOWN-PROC UNKNOWN UNKNOWN
DUMMY) (REAL 8 0 0 REAL ()) 0 0 () () 0 () () () 0 0)
140 'vector' '' 'vector' 139 ((VARIABLE IN UNKNOWN-PROC UNKNOWN UNKNOWN
ALLOCATABLE DIMENSION DUMMY) (REAL 8 0 0 REAL ()) 0 0 () (1 DEFERRED ()
()) 0 () () () 0 0)
106 'num' '' 'num' 104 ((VARIABLE UNKNOWN-INTENT UNKNOWN-PROC UNKNOWN
UNKNOWN DUMMY) (INTEGER 4 0 0 INTEGER ()) 0 0 () () 0 () () () 0 0)
148 'vectorout' '' 'vectorout' 145 ((VARIABLE INOUT UNKNOWN-PROC UNKNOWN
UNKNOWN ALLOCATABLE DIMENSION DUMMY) (INTEGER 4 0 0 INTEGER ()) 0 0 () (
1 DEFERRED () ()) 0 () () () 0 0)
149 'opt' '' 'opt' 145 ((VARIABLE IN UNKNOWN-PROC UNKNOWN UNKNOWN DUMMY)
(CHARACTER 1 0 0 CHARACTER ((CONSTANT (INTEGER 4 0 0 INTEGER ()) 0 '2')))
0 0 () () 0 () () () 0 0)
143 'opt' '' 'opt' 139 ((VARIABLE IN UNKNOWN-PROC UNKNOWN UNKNOWN DUMMY)
(CHARACTER 1 0 0 CHARACTER ((CONSTANT (INTEGER 4 0 0 INTEGER ()) 0 '2')))
0 0 () () 0 () () () 0 0)
154 'res' '' 'res' 151 ((VARIABLE UNKNOWN-INTENT UNKNOWN-PROC UNKNOWN
UNKNOWN RESULT ALWAYS_EXPLICIT) (INTEGER 4 0 0 INTEGER ()) 0 0 () () 0 ()
() () 0 0)
153 'value1' '' 'value1' 151 ((VARIABLE IN UNKNOWN-PROC UNKNOWN UNKNOWN
DUMMY) (INTEGER 4 0 0 INTEGER ()) 0 0 () () 0 () () () 0 0)
158 'matrix2' '' 'matrix2' 156 ((VARIABLE INOUT UNKNOWN-PROC UNKNOWN
UNKNOWN ALLOCATABLE DIMENSION DUMMY) (REAL 8 0 0 REAL ()) 0 0 () (2
DEFERRED () () () ()) 0 () () () 0 0)
152 'vector' '' 'vector' 151 ((VARIABLE IN UNKNOWN-PROC UNKNOWN UNKNOWN
ALLOCATABLE DIMENSION DUMMY) (INTEGER 4 0 0 INTEGER ()) 0 0 () (1
DEFERRED () ()) 0 () () () 0 0)
162 'vector2' '' 'vector2' 160 ((VARIABLE INOUT UNKNOWN-PROC UNKNOWN
UNKNOWN ALLOCATABLE DIMENSION DUMMY) (REAL 8 0 0 REAL ()) 0 0 () (1
DEFERRED () ()) 0 () () () 0 0)
165 'vector1' '' 'vector1' 164 ((VARIABLE IN UNKNOWN-PROC UNKNOWN
UNKNOWN ALLOCATABLE DIMENSION DUMMY) (INTEGER 4 0 0 INTEGER ()) 0 0 () (
1 DEFERRED () ()) 0 () () () 0 0)
166 'vector2' '' 'vector2' 164 ((VARIABLE INOUT UNKNOWN-PROC UNKNOWN
UNKNOWN ALLOCATABLE DIMENSION DUMMY) (INTEGER 4 0 0 INTEGER ()) 0 0 () (
1 DEFERRED () ()) 0 () () () 0 0)
161 'vector1' '' 'vector1' 160 ((VARIABLE IN UNKNOWN-PROC UNKNOWN
UNKNOWN ALLOCATABLE DIMENSION DUMMY) (REAL 8 0 0 REAL ()) 0 0 () (1
DEFERRED () ()) 0 () () () 0 0)
102 'res1' '' 'res1' 97 ((VARIABLE UNKNOWN-INTENT UNKNOWN-PROC UNKNOWN
UNKNOWN ALLOCATABLE DIMENSION RESULT ALWAYS_EXPLICIT) (INTEGER 4 0 0
INTEGER ()) 0 0 () (1 DEFERRED () ()) 0 () () () 0 0)
99 'value1' '' 'value1' 97 ((VARIABLE IN UNKNOWN-PROC UNKNOWN UNKNOWN
DUMMY) (REAL 8 0 0 REAL ()) 0 0 () () 0 () () () 0 0)
187 'indexvector' '' 'indexvector' 185 ((VARIABLE INOUT UNKNOWN-PROC
UNKNOWN UNKNOWN ALLOCATABLE DIMENSION DUMMY) (INTEGER 4 0 0 INTEGER ())
0 0 () (1 DEFERRED () ()) 0 () () () 0 0)
192 'd' '' 'd' 190 ((VARIABLE IN UNKNOWN-PROC UNKNOWN UNKNOWN DUMMY) (
INTEGER 4 0 0 INTEGER ()) 0 0 () () 0 () () () 0 0)
196 'd' '' 'd' 194 ((VARIABLE IN UNKNOWN-PROC UNKNOWN UNKNOWN DUMMY) (
INTEGER 4 0 0 INTEGER ()) 0 0 () () 0 () () () 0 0)
197 'value' '' 'value' 194 ((VARIABLE IN UNKNOWN-PROC UNKNOWN UNKNOWN
DUMMY) (REAL 8 0 0 REAL ()) 0 0 () () 0 () () () 0 0)
195 'mm' '' 'mm' 194 ((VARIABLE INOUT UNKNOWN-PROC UNKNOWN UNKNOWN
DIMENSION POINTER DUMMY) (REAL 8 0 0 REAL ()) 0 0 () (1 DEFERRED () ())
0 () () () 0 0)
98 'vector1' '' 'vector1' 97 ((VARIABLE IN UNKNOWN-PROC UNKNOWN UNKNOWN
ALLOCATABLE DIMENSION DUMMY) (REAL 8 0 0 REAL ()) 0 0 () (1 DEFERRED ()
()) 0 () () () 0 0)
282 'contador' '' 'contador' 278 ((VARIABLE INOUT UNKNOWN-PROC UNKNOWN
UNKNOWN DUMMY) (INTEGER 4 0 0 INTEGER ()) 0 0 () () 0 () () () 0 0)
283 'm' '' 'm' 278 ((VARIABLE IN UNKNOWN-PROC UNKNOWN UNKNOWN
ALLOCATABLE DIMENSION DUMMY) (REAL 8 0 0 REAL ()) 0 0 () (1 DEFERRED ()
()) 0 () () () 0 0)
288 'm' '' 'm' 285 ((VARIABLE IN UNKNOWN-PROC UNKNOWN UNKNOWN
ALLOCATABLE DIMENSION DUMMY) (REAL 8 0 0 REAL ()) 0 0 () (1 DEFERRED ()
()) 0 () () () 0 0)
291 'x' '' 'x' 290 ((VARIABLE INOUT UNKNOWN-PROC UNKNOWN UNKNOWN
ALLOCATABLE DIMENSION DUMMY) (REAL 8 0 0 REAL ()) 0 0 () (1 DEFERRED ()
()) 0 () () () 0 0)
287 'contador' '' 'contador' 285 ((VARIABLE INOUT UNKNOWN-PROC UNKNOWN
UNKNOWN DUMMY) (INTEGER 4 0 0 INTEGER ()) 0 0 () () 0 () () () 0 0)
281 'sizej' '' 'sizej' 278 ((VARIABLE IN UNKNOWN-PROC UNKNOWN UNKNOWN
DUMMY) (INTEGER 4 0 0 INTEGER ()) 0 0 () () 0 () () () 0 0)
254 'mm' '' 'mm' 253 ((VARIABLE UNKNOWN-INTENT UNKNOWN-PROC UNKNOWN
UNKNOWN ALLOCATABLE DIMENSION DUMMY) (REAL 8 0 0 REAL ()) 0 0 () (1
DEFERRED () ()) 0 () () () 0 0)
294 'xu' '' 'xu' 290 ((VARIABLE IN UNKNOWN-PROC UNKNOWN UNKNOWN
ALLOCATABLE DIMENSION DUMMY) (REAL 8 0 0 REAL ()) 0 0 () (1 DEFERRED ()
()) 0 () () () 0 0)
293 'xl' '' 'xl' 290 ((VARIABLE IN UNKNOWN-PROC UNKNOWN UNKNOWN
ALLOCATABLE DIMENSION DUMMY) (REAL 8 0 0 REAL ()) 0 0 () (1 DEFERRED ()
()) 0 () () () 0 0)
296 'contador' '' 'contador' 290 ((VARIABLE INOUT UNKNOWN-PROC UNKNOWN
UNKNOWN DUMMY) (INTEGER 4 0 0 INTEGER ()) 0 0 () () 0 () () () 0 0)
295 'cont' '' 'cont' 290 ((VARIABLE IN UNKNOWN-PROC UNKNOWN UNKNOWN
DUMMY) (INTEGER 4 0 0 INTEGER ()) 0 0 () () 0 () () () 0 0)
297 'm' '' 'm' 290 ((VARIABLE IN UNKNOWN-PROC UNKNOWN UNKNOWN
ALLOCATABLE DIMENSION DUMMY) (REAL 8 0 0 REAL ()) 0 0 () (1 DEFERRED ()
()) 0 () () () 0 0)
292 'd' '' 'd' 290 ((VARIABLE IN UNKNOWN-PROC UNKNOWN UNKNOWN DUMMY) (
INTEGER 4 0 0 INTEGER ()) 0 0 () () 0 () () () 0 0)
320 'exp1' '' 'exp1' 319 ((VARIABLE INOUT UNKNOWN-PROC UNKNOWN UNKNOWN
DUMMY) (DERIVED 57 0 0 DERIVED ()) 0 0 () () 0 () () () 0 0)
323 'xl' '' 'xl' 319 ((VARIABLE IN UNKNOWN-PROC UNKNOWN UNKNOWN
ALLOCATABLE DIMENSION DUMMY) (REAL 8 0 0 REAL ()) 0 0 () (1 DEFERRED ()
()) 0 () () () 0 0)
325 'cont' '' 'cont' 319 ((VARIABLE IN UNKNOWN-PROC UNKNOWN UNKNOWN
DUMMY) (INTEGER 4 0 0 INTEGER ()) 0 0 () () 0 () () () 0 0)
324 'xu' '' 'xu' 319 ((VARIABLE IN UNKNOWN-PROC UNKNOWN UNKNOWN
ALLOCATABLE DIMENSION DUMMY) (REAL 8 0 0 REAL ()) 0 0 () (1 DEFERRED ()
()) 0 () () () 0 0)
322 'd' '' 'd' 319 ((VARIABLE IN UNKNOWN-PROC UNKNOWN UNKNOWN DUMMY) (
INTEGER 4 0 0 INTEGER ()) 0 0 () () 0 () () () 0 0)
321 'x' '' 'x' 319 ((VARIABLE INOUT UNKNOWN-PROC UNKNOWN UNKNOWN
ALLOCATABLE DIMENSION DUMMY) (REAL 8 0 0 REAL ()) 0 0 () (1 DEFERRED ()
()) 0 () () () 0 0)
331 'xl' '' 'xl' 327 ((VARIABLE IN UNKNOWN-PROC UNKNOWN UNKNOWN
ALLOCATABLE DIMENSION DUMMY) (REAL 8 0 0 REAL ()) 0 0 () (1 DEFERRED ()
()) 0 () () () 0 0)
332 'xu' '' 'xu' 327 ((VARIABLE IN UNKNOWN-PROC UNKNOWN UNKNOWN
ALLOCATABLE DIMENSION DUMMY) (REAL 8 0 0 REAL ()) 0 0 () (1 DEFERRED ()
()) 0 () () () 0 0)
336 'x' '' 'x' 334 ((VARIABLE INOUT UNKNOWN-PROC UNKNOWN UNKNOWN
ALLOCATABLE DIMENSION DUMMY) (REAL 8 0 0 REAL ()) 0 0 () (1 DEFERRED ()
()) 0 () () () 0 0)
335 'exp1' '' 'exp1' 334 ((VARIABLE INOUT UNKNOWN-PROC UNKNOWN UNKNOWN
DUMMY) (DERIVED 57 0 0 DERIVED ()) 0 0 () () 0 () () () 0 0)
330 'd' '' 'd' 327 ((VARIABLE IN UNKNOWN-PROC UNKNOWN UNKNOWN DUMMY) (
INTEGER 4 0 0 INTEGER ()) 0 0 () () 0 () () () 0 0)
340 'vector1' '' 'vector1' 339 ((VARIABLE INOUT UNKNOWN-PROC UNKNOWN
UNKNOWN ALLOCATABLE DIMENSION DUMMY) (INTEGER 4 0 0 INTEGER ()) 0 0 () (
1 DEFERRED () ()) 0 () () () 0 0)
357 'value1' '' 'value1' 355 ((VARIABLE IN UNKNOWN-PROC UNKNOWN UNKNOWN
DUMMY) (REAL 8 0 0 REAL ()) 0 0 () () 0 () () () 0 0)
356 'matrix' '' 'matrix' 355 ((VARIABLE INOUT UNKNOWN-PROC UNKNOWN
UNKNOWN ALLOCATABLE DIMENSION DUMMY) (REAL 8 0 0 REAL ()) 0 0 () (2
DEFERRED () () () ()) 0 () () () 0 0)
374 'res' '' 'res' 372 ((VARIABLE UNKNOWN-INTENT UNKNOWN-PROC UNKNOWN
UNKNOWN RESULT) (REAL 8 0 0 REAL ()) 0 0 () () 0 () () () 0 0)
373 'exp1' '' 'exp1' 372 ((VARIABLE INOUT UNKNOWN-PROC UNKNOWN UNKNOWN
DUMMY) (DERIVED 57 0 0 DERIVED ()) 0 0 () () 0 () () () 0 0)
345 'res1' '' 'res1' 344 ((VARIABLE INOUT UNKNOWN-PROC UNKNOWN UNKNOWN
ALLOCATABLE DIMENSION DUMMY) (INTEGER 4 0 0 INTEGER ()) 0 0 () (1
DEFERRED () ()) 0 () () () 0 0)
337 'd' '' 'd' 334 ((VARIABLE IN UNKNOWN-PROC UNKNOWN UNKNOWN DUMMY) (
INTEGER 4 0 0 INTEGER ()) 0 0 () () 0 () () () 0 0)
329 'x' '' 'x' 327 ((VARIABLE INOUT UNKNOWN-PROC UNKNOWN UNKNOWN
ALLOCATABLE DIMENSION DUMMY) (REAL 8 0 0 REAL ()) 0 0 () (1 DEFERRED ()
()) 0 () () () 0 0)
428 'variance' '' 'variance' 426 ((VARIABLE UNKNOWN-INTENT UNKNOWN-PROC
UNKNOWN UNKNOWN RESULT ALWAYS_EXPLICIT) (REAL 8 0 0 REAL ()) 0 0 () () 0
() () () 0 0)
427 'vector1' '' 'vector1' 426 ((VARIABLE IN UNKNOWN-PROC UNKNOWN
UNKNOWN ALLOCATABLE DIMENSION DUMMY) (REAL 8 0 0 REAL ()) 0 0 () (1
DEFERRED () ()) 0 () () () 0 0)
73 'vector' '' 'vector' 72 ((VARIABLE IN UNKNOWN-PROC UNKNOWN UNKNOWN
ALLOCATABLE DIMENSION DUMMY) (INTEGER 4 0 0 INTEGER ()) 0 0 () (1
DEFERRED () ()) 0 () () () 0 0)
84 'matrix1' '' 'matrix1' 83 ((VARIABLE IN UNKNOWN-PROC UNKNOWN UNKNOWN
ALLOCATABLE DIMENSION DUMMY) (REAL 8 0 0 REAL ()) 0 0 () (2 DEFERRED ()
() () ()) 0 () () () 0 0)
85 'matrix2' '' 'matrix2' 83 ((VARIABLE IN UNKNOWN-PROC UNKNOWN UNKNOWN
ALLOCATABLE DIMENSION DUMMY) (REAL 8 0 0 REAL ()) 0 0 () (2 DEFERRED ()
() () ()) 0 () () () 0 0)
86 'size' '' 'size' 83 ((VARIABLE INOUT UNKNOWN-PROC UNKNOWN UNKNOWN
DUMMY) (INTEGER 4 0 0 INTEGER ()) 0 0 () () 0 () () () 0 0)
88 'res1' '' 'res1' 83 ((VARIABLE UNKNOWN-INTENT UNKNOWN-PROC UNKNOWN
UNKNOWN ALLOCATABLE DIMENSION RESULT ALWAYS_EXPLICIT) (INTEGER 4 0 0
INTEGER ()) 0 0 () (2 DEFERRED () () () ()) 0 () () () 0 0)
87 'opt' '' 'opt' 83 ((VARIABLE IN UNKNOWN-PROC UNKNOWN UNKNOWN DUMMY) (
CHARACTER 1 0 0 CHARACTER ((CONSTANT (INTEGER 4 0 0 INTEGER ()) 0 '2')))
0 0 () () 0 () () () 0 0)
91 'vector1' '' 'vector1' 90 ((VARIABLE IN UNKNOWN-PROC UNKNOWN UNKNOWN
ALLOCATABLE DIMENSION DUMMY) (REAL 8 0 0 REAL ()) 0 0 () (1 DEFERRED ()
()) 0 () () () 0 0)
105 'vector1' '' 'vector1' 104 ((VARIABLE INOUT UNKNOWN-PROC UNKNOWN
UNKNOWN ALLOCATABLE DIMENSION DUMMY) (INTEGER 4 0 0 INTEGER ()) 0 0 () (
1 DEFERRED () ()) 0 () () () 0 0)
109 'mm' '' 'mm' 108 ((VARIABLE INOUT UNKNOWN-PROC UNKNOWN UNKNOWN
ALLOCATABLE DIMENSION DUMMY) (REAL 8 0 0 REAL ()) 0 0 () (1 DEFERRED ()
()) 0 () () () 0 0)
129 'x' '' 'x' 128 ((VARIABLE UNKNOWN-INTENT UNKNOWN-PROC UNKNOWN
UNKNOWN DIMENSION POINTER DUMMY) (REAL 8 0 0 REAL ()) 0 0 () (1 DEFERRED
() ()) 0 () () () 0 0)
146 'vector' '' 'vector' 145 ((VARIABLE IN UNKNOWN-PROC UNKNOWN UNKNOWN
ALLOCATABLE DIMENSION DUMMY) (INTEGER 4 0 0 INTEGER ()) 0 0 () (1
DEFERRED () ()) 0 () () () 0 0)
147 'value1' '' 'value1' 145 ((VARIABLE IN UNKNOWN-PROC UNKNOWN UNKNOWN
DUMMY) (INTEGER 4 0 0 INTEGER ()) 0 0 () () 0 () () () 0 0)
157 'matrix1' '' 'matrix1' 156 ((VARIABLE IN UNKNOWN-PROC UNKNOWN
UNKNOWN ALLOCATABLE DIMENSION DUMMY) (REAL 8 0 0 REAL ()) 0 0 () (2
DEFERRED () () () ()) 0 () () () 0 0)
182 'res1' '' 'res1' 181 ((VARIABLE IN UNKNOWN-PROC UNKNOWN UNKNOWN
ALLOCATABLE DIMENSION DUMMY) (INTEGER 4 0 0 INTEGER ()) 0 0 () (1
DEFERRED () ()) 0 () () () 0 0)
183 'bbb' '' 'bbb' 181 ((VARIABLE INOUT UNKNOWN-PROC UNKNOWN UNKNOWN
ALLOCATABLE DIMENSION DUMMY) (INTEGER 4 0 0 INTEGER ()) 0 0 () (1
DEFERRED () ()) 0 () () () 0 0)
186 'res1' '' 'res1' 185 ((VARIABLE IN UNKNOWN-PROC UNKNOWN UNKNOWN
ALLOCATABLE DIMENSION DUMMY) (INTEGER 4 0 0 INTEGER ()) 0 0 () (2
DEFERRED () () () ()) 0 () () () 0 0)
191 'mm' '' 'mm' 190 ((VARIABLE INOUT UNKNOWN-PROC UNKNOWN UNKNOWN
ALLOCATABLE DIMENSION DUMMY) (REAL 8 0 0 REAL ()) 0 0 () (1 DEFERRED ()
()) 0 () () () 0 0)
200 'x' '' 'x' 199 ((VARIABLE INOUT UNKNOWN-PROC UNKNOWN UNKNOWN
ALLOCATABLE DIMENSION DUMMY) (REAL 8 0 0 REAL ()) 0 0 () (1 DEFERRED ()
()) 0 () () () 0 0)
201 'currentsize' '' 'currentsize' 199 ((VARIABLE IN UNKNOWN-PROC
UNKNOWN UNKNOWN DUMMY) (INTEGER 4 0 0 INTEGER ()) 0 0 () () 0 () () () 0
0)
223 'matrix2' '' 'matrix2' 221 ((VARIABLE IN UNKNOWN-PROC UNKNOWN
UNKNOWN ALLOCATABLE DIMENSION DUMMY) (REAL 8 0 0 REAL ()) 0 0 () (2
DEFERRED () () () ()) 0 () () () 0 0)
222 'matrix1' '' 'matrix1' 221 ((VARIABLE IN UNKNOWN-PROC UNKNOWN
UNKNOWN ALLOCATABLE DIMENSION DUMMY) (REAL 8 0 0 REAL ()) 0 0 () (2
DEFERRED () () () ()) 0 () () () 0 0)
229 'pars' '' 'pars' 227 ((VARIABLE IN UNKNOWN-PROC UNKNOWN UNKNOWN
DUMMY) (INTEGER 4 0 0 INTEGER ()) 0 0 () () 0 () () () 0 0)
228 'vector' '' 'vector' 227 ((VARIABLE IN UNKNOWN-PROC UNKNOWN UNKNOWN
ALLOCATABLE DIMENSION DUMMY) (INTEGER 4 0 0 INTEGER ()) 0 0 () (1
DEFERRED () ()) 0 () () () 0 0)
230 'vectorout' '' 'vectorout' 227 ((VARIABLE INOUT UNKNOWN-PROC UNKNOWN
UNKNOWN ALLOCATABLE DIMENSION DUMMY) (INTEGER 4 0 0 INTEGER ()) 0 0 () (
2 DEFERRED () () () ()) 0 () () () 0 0)
224 'res' '' 'res' 221 ((VARIABLE UNKNOWN-INTENT UNKNOWN-PROC UNKNOWN
UNKNOWN ALLOCATABLE DIMENSION RESULT ALWAYS_EXPLICIT) (REAL 8 0 0 REAL ())
0 0 () (2 DEFERRED () () () ()) 0 () () () 0 0)
251 'matrix' '' 'matrix' 250 ((VARIABLE IN UNKNOWN-PROC UNKNOWN UNKNOWN
ALLOCATABLE DIMENSION DUMMY) (INTEGER 4 0 0 INTEGER ()) 0 0 () (2
DEFERRED () () () ()) 0 () () () 0 0)
248 'matrix' '' 'matrix' 247 ((VARIABLE IN UNKNOWN-PROC UNKNOWN UNKNOWN
ALLOCATABLE DIMENSION DUMMY) (REAL 8 0 0 REAL ()) 0 0 () (2 DEFERRED ()
() () ()) 0 () () () 0 0)
280 'sizei' '' 'sizei' 278 ((VARIABLE IN UNKNOWN-PROC UNKNOWN UNKNOWN
DUMMY) (INTEGER 4 0 0 INTEGER ()) 0 0 () () 0 () () () 0 0)
279 'x' '' 'x' 278 ((VARIABLE INOUT UNKNOWN-PROC UNKNOWN UNKNOWN
ALLOCATABLE DIMENSION DUMMY) (REAL 8 0 0 REAL ()) 0 0 () (2 DEFERRED ()
() () ()) 0 () () () 0 0)
286 'num' '' 'num' 285 ((VARIABLE INOUT UNKNOWN-PROC UNKNOWN UNKNOWN
DUMMY) (REAL 8 0 0 REAL ()) 0 0 () () 0 () () () 0 0)
302 'xl' '' 'xl' 299 ((VARIABLE IN UNKNOWN-PROC UNKNOWN UNKNOWN
ALLOCATABLE DIMENSION DUMMY) (REAL 8 0 0 REAL ()) 0 0 () (1 DEFERRED ()
()) 0 () () () 0 0)
305 'm' '' 'm' 299 ((VARIABLE IN UNKNOWN-PROC UNKNOWN UNKNOWN
ALLOCATABLE DIMENSION DUMMY) (REAL 8 0 0 REAL ()) 0 0 () (1 DEFERRED ()
()) 0 () () () 0 0)
304 'contador' '' 'contador' 299 ((VARIABLE INOUT UNKNOWN-PROC UNKNOWN
UNKNOWN DUMMY) (INTEGER 4 0 0 INTEGER ()) 0 0 () () 0 () () () 0 0)
303 'xu' '' 'xu' 299 ((VARIABLE IN UNKNOWN-PROC UNKNOWN UNKNOWN
ALLOCATABLE DIMENSION DUMMY) (REAL 8 0 0 REAL ()) 0 0 () (1 DEFERRED ()
()) 0 () () () 0 0)
301 'd' '' 'd' 299 ((VARIABLE IN UNKNOWN-PROC UNKNOWN UNKNOWN DUMMY) (
INTEGER 4 0 0 INTEGER ()) 0 0 () () 0 () () () 0 0)
300 'x' '' 'x' 299 ((VARIABLE INOUT UNKNOWN-PROC UNKNOWN UNKNOWN
ALLOCATABLE DIMENSION DUMMY) (REAL 8 0 0 REAL ()) 0 0 () (1 DEFERRED ()
()) 0 () () () 0 0)
309 'd' '' 'd' 307 ((VARIABLE IN UNKNOWN-PROC UNKNOWN UNKNOWN DUMMY) (
INTEGER 4 0 0 INTEGER ()) 0 0 () () 0 () () () 0 0)
308 'x' '' 'x' 307 ((VARIABLE INOUT UNKNOWN-PROC UNKNOWN UNKNOWN
ALLOCATABLE DIMENSION DUMMY) (REAL 8 0 0 REAL ()) 0 0 () (1 DEFERRED ()
()) 0 () () () 0 0)
311 'm' '' 'm' 307 ((VARIABLE IN UNKNOWN-PROC UNKNOWN UNKNOWN
ALLOCATABLE DIMENSION DUMMY) (REAL 8 0 0 REAL ()) 0 0 () (1 DEFERRED ()
()) 0 () () () 0 0)
310 'contador' '' 'contador' 307 ((VARIABLE INOUT UNKNOWN-PROC UNKNOWN
UNKNOWN DUMMY) (INTEGER 4 0 0 INTEGER ()) 0 0 () () 0 () () () 0 0)
314 'exp1' '' 'exp1' 313 ((VARIABLE INOUT UNKNOWN-PROC UNKNOWN UNKNOWN
DUMMY) (DERIVED 57 0 0 DERIVED ()) 0 0 () () 0 () () () 0 0)
316 'sizei' '' 'sizei' 313 ((VARIABLE IN UNKNOWN-PROC UNKNOWN UNKNOWN
DUMMY) (INTEGER 4 0 0 INTEGER ()) 0 0 () () 0 () () () 0 0)
315 'x' '' 'x' 313 ((VARIABLE INOUT UNKNOWN-PROC UNKNOWN UNKNOWN
ALLOCATABLE DIMENSION DUMMY) (REAL 8 0 0 REAL ()) 0 0 () (2 DEFERRED ()
() () ()) 0 () () () 0 0)
317 'sizej' '' 'sizej' 313 ((VARIABLE IN UNKNOWN-PROC UNKNOWN UNKNOWN
DUMMY) (INTEGER 4 0 0 INTEGER ()) 0 0 () () 0 () () () 0 0)
328 'exp1' '' 'exp1' 327 ((VARIABLE INOUT UNKNOWN-PROC UNKNOWN UNKNOWN
DUMMY) (DERIVED 57 0 0 DERIVED ()) 0 0 () () 0 () () () 0 0)
377 'vx' '' 'vx' 376 ((VARIABLE INOUT UNKNOWN-PROC UNKNOWN UNKNOWN
ALLOCATABLE DIMENSION DUMMY) (REAL 8 0 0 REAL ()) 0 0 () (2 DEFERRED ()
() () ()) 0 () () () 0 0)
379 'aaa' '' 'aaa' 376 ((VARIABLE IN UNKNOWN-PROC UNKNOWN UNKNOWN
ALLOCATABLE DIMENSION DUMMY) (INTEGER 4 0 0 INTEGER ()) 0 0 () (1
DEFERRED () ()) 0 () () () 0 0)
378 'hyperx' '' 'hyperx' 376 ((VARIABLE IN UNKNOWN-PROC UNKNOWN UNKNOWN
ALLOCATABLE DIMENSION DUMMY) (REAL 8 0 0 REAL ()) 0 0 () (2 DEFERRED ()
() () ()) 0 () () () 0 0)
383 'res2' '' 'res2' 381 ((VARIABLE INOUT UNKNOWN-PROC UNKNOWN UNKNOWN
ALLOCATABLE DIMENSION DUMMY) (INTEGER 4 0 0 INTEGER ()) 0 0 () (1
DEFERRED () ()) 0 () () () 0 0)
384 'sizer' '' 'sizer' 381 ((VARIABLE INOUT UNKNOWN-PROC UNKNOWN UNKNOWN
DUMMY) (INTEGER 4 0 0 INTEGER ()) 0 0 () () 0 () () () 0 0)
401 'matrix1' '' 'matrix1' 400 ((VARIABLE IN UNKNOWN-PROC UNKNOWN
UNKNOWN DIMENSION DUMMY) (REAL 8 0 0 REAL ()) 0 0 () (1 EXPLICIT (
CONSTANT (INTEGER 4 0 0 INTEGER ()) 0 '1') (CONSTANT (INTEGER 4 0 0
INTEGER ()) 0 '3')) 0 () () () 0 0)
402 'result1' '' 'result1' 400 ((VARIABLE INOUT UNKNOWN-PROC UNKNOWN
UNKNOWN DIMENSION DUMMY) (REAL 8 0 0 REAL ()) 0 0 () (1 EXPLICIT (
CONSTANT (INTEGER 4 0 0 INTEGER ()) 0 '1') (CONSTANT (INTEGER 4 0 0
INTEGER ()) 0 '2')) 0 () () () 0 0)
382 'res1' '' 'res1' 381 ((VARIABLE IN UNKNOWN-PROC UNKNOWN UNKNOWN
ALLOCATABLE DIMENSION DUMMY) (INTEGER 4 0 0 INTEGER ()) 0 0 () (2
DEFERRED () () () ()) 0 () () () 0 0)
)

('__iso_c_binding' 0 2 'abs_matrix' 0 3 'all_positive' 0 7 'auxprecisin'
0 10 'c_alert' 0 11 'c_associated' 0 12 'c_backspace' 0 16 'c_bool' 0 17
'c_carriage_return' 0 18 'c_char' 0 19 'c_double' 0 20 'c_double_complex'
0 21 'c_f_pointer' 0 22 'c_f_procpointer' 0 27 'c_float' 0 31
'c_float_complex' 0 32 'c_form_feed' 0 33 'c_funloc' 0 34 'c_funptr' 0
35 'c_horizontal_tab' 0 37 'c_int' 0 38 'c_int128_t' 0 39 'c_int16_t' 0
40 'c_int32_t' 0 41 'c_int64_t' 0 42 'c_int8_t' 0 43 'c_int_fast128_t' 0
44 'c_int_fast16_t' 0 45 'c_int_fast32_t' 0 46 'c_int_fast64_t' 0 47
'c_int_fast8_t' 0 48 'c_int_least128_t' 0 49 'c_int_least16_t' 0 50
'c_int_least32_t' 0 51 'c_int_least64_t' 0 52 'c_int_least8_t' 0 53
'c_intmax_t' 0 54 'c_intptr_t' 0 55 'c_loc' 0 56 'c_long' 0 58
'c_long_double' 0 59 'c_long_double_complex' 0 60 'c_long_long' 0 61
'c_new_line' 0 62 'c_null_char' 0 63 'c_null_funptr' 0 64 'c_null_ptr' 0
65 'c_ptr' 0 57 'c_short' 0 67 'c_signed_char' 0 68 'c_size_t' 0 69
'c_vertical_tab' 0 70 'choose' 0 71 'common_functions' 0 75
'compare_matrix' 0 76 'compare_multiple_matrix' 0 82
'compare_multiple_vector' 0 89 'compare_vector' 0 96
'delete_values_vector_int' 0 103 'destroy_vector' 0 107 'eps_m' 0 110
'evaluate_gradient' 0 111 'ex1' 0 127 'extraparametters' 0 130
'find_in_vector' 0 138 'find_in_vector_int' 0 144 'findinteger' 0 150
'fusion_matrix' 0 155 'fusion_vector' 0 159 'fusion_vector_int' 0 163
'goptions' 0 167 'index_of_ones' 0 180 'index_of_ones_matrix' 0 184
'infinite' 0 188 'inicializa_vector' 0 189 'inicializa_vector_value' 0
193 'insert_dinamic_vector_double_precission' 0 198 'loptions' 0 202
'max_matrix' 0 220 'misqp_interface' 0 225 'nchoosek_fpar' 0 226 'opts'
0 231 'outfuction' 0 237 'precision_d' 0 244 'precision_f' 0 245
'print_matrix' 0 246 'print_matrix_integer' 0 249 'print_vector' 0 252
'problem' 0 255 'qsort_module' 0 269 'qsortc' 0 270 'qsortc_ind' 0 273
'random_det_matrix_seed_10' 0 277 'random_det_number' 0 284
'random_det_vector_5' 0 289 'random_det_vector_seed' 0 298
'random_det_vector_seed_10' 0 306 'random_matrix_seed_10' 0 312
'random_vector_5' 0 318 'random_vector_seed' 0 326 'random_vector_seed_10'
0 333 'randperm_int' 0 338 'range_d' 0 341 'range_f' 0 342 'reajust_index'
0 343 'real' 0 346 'refsettype' 0 347 'replace_matrix' 0 354 'resultsf'
0 358 'return_random_number' 0 371 'return_values_matrix_index' 0 375
'row_one' 0 380 'run_misqp' 0 385 'scattersearchtypes' 0 397
'selected_real_kind' 0 398 'square_roots_polinom' 0 399 'tol_prec' 0 403
'topology_data_fortran' 0 404 'uoptions' 0 234 'valuepos' 0 422
'variance_vector' 0 425)
