GFORTRAN module version '0' created from /home/csic/gim/drp/DE_experiments/paralleltestbed_CURRENT/src/method_module_fortran/outputhdf5.f90 on Mon Feb 23 14:11:34 2015
MD5:d0d9b2fc28f7723eeaf9a291f08d38a8 -- If you edit this, you'll get what you deserve.

(() () () () () () () () () () () () () () () () () () () () () () () ()
() () ())

()

()

()

()

(2 'outputhdf5' 'outputhdf5' 'outputhdf5' 1 ((MODULE UNKNOWN-INTENT
UNKNOWN-PROC UNKNOWN UNKNOWN) (UNKNOWN 0 0 0 UNKNOWN ()) 0 0 () () 0 ()
() () 0 0)
)

('outputhdf5' 0 2)
