GFORTRAN module version '0' created from /home/david/programas/paralleltestbed_14_2_2014/src/method_module_fortran/qsort_mod.f90 on Wed Feb 26 13:46:20 2014
MD5:a1ce195e62d93e43e17ad4b945852aae -- If you edit this, you'll get what you deserve.

(() () () () () () () () () () () () () () () () () () () () () () () ()
() () ())

()

()

()

()

(2 'group' 'qsort_mod' 'group' 1 ((DERIVED UNKNOWN-INTENT UNKNOWN-PROC
UNKNOWN UNKNOWN) (UNKNOWN 0 0 0 UNKNOWN ()) 0 0 () () 0 ((3 'order' (
INTEGER 4 0 0 INTEGER ()) () (UNKNOWN-FL UNKNOWN-INTENT UNKNOWN-PROC
UNKNOWN UNKNOWN) UNKNOWN-ACCESS ()) (4 'value' (REAL 4 0 0 REAL ()) () (
UNKNOWN-FL UNKNOWN-INTENT UNKNOWN-PROC UNKNOWN UNKNOWN) UNKNOWN-ACCESS ()))
PUBLIC (() ()) () 0 0)
5 'qsort' 'qsort_mod' 'qsort' 1 ((PROCEDURE UNKNOWN-INTENT MODULE-PROC
DECL UNKNOWN SUBROUTINE RECURSIVE) (UNKNOWN 0 0 0 UNKNOWN ()) 6 0 (7 8)
() 0 () () () 0 0)
9 'qsort_mod' 'qsort_mod' 'qsort_mod' 1 ((MODULE UNKNOWN-INTENT
UNKNOWN-PROC UNKNOWN UNKNOWN) (UNKNOWN 0 0 0 UNKNOWN ()) 0 0 () () 0 ()
() () 0 0)
7 'a' '' 'a' 6 ((VARIABLE INOUT UNKNOWN-PROC UNKNOWN UNKNOWN DIMENSION
DUMMY) (DERIVED 2 0 0 DERIVED ()) 0 0 () (1 EXPLICIT (CONSTANT (INTEGER
4 0 0 INTEGER ()) 0 '1') (VARIABLE (INTEGER 4 0 0 INTEGER ()) 0 8 ())) 0
() () () 0 0)
8 'na' '' 'na' 6 ((VARIABLE IN UNKNOWN-PROC UNKNOWN UNKNOWN DUMMY) (
INTEGER 4 0 0 INTEGER ()) 0 0 () () 0 () () () 0 0)
)

('group' 0 2 'qsort' 0 5 'qsort_mod' 0 9)
