GFORTRAN module version '0' created from /home/csic/gim/drp/DE_experiments/paralleltestbed_CURRENT/src/method_module_fortran/scattersearchtypes.f90 on Mon Feb 23 14:11:32 2015
MD5:2cd6209a2234b5321eecf7a0c1b05250 -- If you edit this, you'll get what you deserve.

(() () () () () () () () () () () () () () () () () () () () () () () ()
() () ())

()

()

()

()

(2 '__iso_c_binding' '__iso_c_binding' '__iso_c_binding' 1 ((MODULE
UNKNOWN-INTENT UNKNOWN-PROC UNKNOWN UNKNOWN INTRINSIC) (UNKNOWN 0 0 0
UNKNOWN ()) 0 0 () () 0 () () () 2 0)
3 'auxprecisin' 'scattersearchtypes' 'auxprecisin' 1 ((PARAMETER
UNKNOWN-INTENT UNKNOWN-PROC UNKNOWN IMPLICIT-SAVE) (REAL 8 0 0 REAL ())
0 0 () (CONSTANT (REAL 8 0 0 REAL ()) 0 '0.27100000000000@4') () 0 () ()
() 0 0)
4 'c_alert' '__iso_c_binding' '' 1 ((PARAMETER UNKNOWN-INTENT
UNKNOWN-PROC UNKNOWN UNKNOWN IS_C_INTEROP IS_ISO_C) (CHARACTER 1 1 1
CHARACTER ((CONSTANT (INTEGER 4 0 0 INTEGER ()) 0 '1'))) 0 0 () (
CONSTANT (CHARACTER 1 1 1 UNKNOWN (())) 0 1 '\U00000007') () 0 () () ()
2 32)
5 'c_associated' '__iso_c_binding' '__iso_c_binding_c_associated' 1 ((
PROCEDURE UNKNOWN-INTENT MODULE-PROC DECL UNKNOWN FUNCTION
ALWAYS_EXPLICIT IS_ISO_C) (LOGICAL 4 0 0 LOGICAL ()) 6 0 (7 8) () 5 () ()
() 2 44)
9 'c_backspace' '__iso_c_binding' '' 1 ((PARAMETER UNKNOWN-INTENT
UNKNOWN-PROC UNKNOWN UNKNOWN IS_C_INTEROP IS_ISO_C) (CHARACTER 1 1 1
CHARACTER ((CONSTANT (INTEGER 4 0 0 INTEGER ()) 0 '1'))) 0 0 () (
CONSTANT (CHARACTER 1 1 1 UNKNOWN (())) 0 1 '\U00000008') () 0 () () ()
2 33)
10 'c_bool' '__iso_c_binding' '' 1 ((PARAMETER UNKNOWN-INTENT
UNKNOWN-PROC UNKNOWN UNKNOWN IS_C_INTEROP IS_ISO_C) (INTEGER 4 1 1
LOGICAL ()) 0 0 () (CONSTANT (INTEGER 4 1 1 UNKNOWN ()) 0 '1') () 0 () ()
() 2 29)
11 'c_carriage_return' '__iso_c_binding' '' 1 ((PARAMETER UNKNOWN-INTENT
UNKNOWN-PROC UNKNOWN UNKNOWN IS_C_INTEROP IS_ISO_C) (CHARACTER 1 1 1
CHARACTER ((CONSTANT (INTEGER 4 0 0 INTEGER ()) 0 '1'))) 0 0 () (
CONSTANT (CHARACTER 1 1 1 UNKNOWN (())) 0 1 '\U0000000d') () 0 () () ()
2 36)
12 'c_char' '__iso_c_binding' '' 1 ((PARAMETER UNKNOWN-INTENT
UNKNOWN-PROC UNKNOWN UNKNOWN IS_C_INTEROP IS_ISO_C) (INTEGER 4 1 1
CHARACTER ()) 0 0 () (CONSTANT (INTEGER 4 1 1 UNKNOWN ()) 0 '1') () 0 ()
() () 2 30)
13 'c_double' '__iso_c_binding' '' 1 ((PARAMETER UNKNOWN-INTENT
UNKNOWN-PROC UNKNOWN UNKNOWN IS_C_INTEROP IS_ISO_C) (INTEGER 4 1 1 REAL
()) 0 0 () (CONSTANT (INTEGER 4 1 1 UNKNOWN ()) 0 '8') () 0 () () () 2
24)
14 'c_double_complex' '__iso_c_binding' '' 1 ((PARAMETER UNKNOWN-INTENT
UNKNOWN-PROC UNKNOWN UNKNOWN IS_C_INTEROP IS_ISO_C) (INTEGER 4 1 1
COMPLEX ()) 0 0 () (CONSTANT (INTEGER 4 1 1 UNKNOWN ()) 0 '8') () 0 () ()
() 2 27)
15 'c_f_pointer' '__iso_c_binding' '__iso_c_binding_c_f_pointer' 1 ((
PROCEDURE UNKNOWN-INTENT MODULE-PROC DECL UNKNOWN SUBROUTINE
ALWAYS_EXPLICIT IS_ISO_C) (UNKNOWN 0 0 0 UNKNOWN ()) 16 0 (17 18 19) ()
0 () () () 2 43)
20 'c_f_procpointer' '__iso_c_binding' '__iso_c_binding_c_f_procpointer'
1 ((PROCEDURE UNKNOWN-INTENT MODULE-PROC DECL UNKNOWN SUBROUTINE
IS_ISO_C) (UNKNOWN 0 0 0 UNKNOWN ()) 21 0 (22 23) () 0 () () () 2 47)
24 'c_float' '__iso_c_binding' '' 1 ((PARAMETER UNKNOWN-INTENT
UNKNOWN-PROC UNKNOWN UNKNOWN IS_C_INTEROP IS_ISO_C) (INTEGER 4 1 1 REAL
()) 0 0 () (CONSTANT (INTEGER 4 1 1 UNKNOWN ()) 0 '4') () 0 () () () 2
23)
25 'c_float_complex' '__iso_c_binding' '' 1 ((PARAMETER UNKNOWN-INTENT
UNKNOWN-PROC UNKNOWN UNKNOWN IS_C_INTEROP IS_ISO_C) (INTEGER 4 1 1
COMPLEX ()) 0 0 () (CONSTANT (INTEGER 4 1 1 UNKNOWN ()) 0 '4') () 0 () ()
() 2 26)
26 'c_form_feed' '__iso_c_binding' '' 1 ((PARAMETER UNKNOWN-INTENT
UNKNOWN-PROC UNKNOWN UNKNOWN IS_C_INTEROP IS_ISO_C) (CHARACTER 1 1 1
CHARACTER ((CONSTANT (INTEGER 4 0 0 INTEGER ()) 0 '1'))) 0 0 () (
CONSTANT (CHARACTER 1 1 1 UNKNOWN (())) 0 1 '\U0000000c') () 0 () () ()
2 34)
27 'c_funloc' '__iso_c_binding' '__iso_c_binding_c_funloc' 1 ((
PROCEDURE UNKNOWN-INTENT UNKNOWN-PROC UNKNOWN UNKNOWN EXTERNAL PURE
IS_ISO_C) (DERIVED 28 0 0 DERIVED ()) 0 0 () () 27 () () () 2 46)
28 'c_funptr' '__iso_c_binding' '' 1 ((DERIVED UNKNOWN-INTENT
UNKNOWN-PROC UNKNOWN UNKNOWN IS_BIND_C IS_C_INTEROP IS_ISO_C) (DERIVED
28 1 1 UNKNOWN ()) 0 0 () () 0 ((29 '__c_funptr_c_address' (INTEGER 8 1
0 INTEGER ()) () (UNKNOWN-FL UNKNOWN-INTENT UNKNOWN-PROC UNKNOWN UNKNOWN)
UNKNOWN-ACCESS ())) UNKNOWN-ACCESS () () 2 41)
30 'c_horizontal_tab' '__iso_c_binding' '' 1 ((PARAMETER UNKNOWN-INTENT
UNKNOWN-PROC UNKNOWN UNKNOWN IS_C_INTEROP IS_ISO_C) (CHARACTER 1 1 1
CHARACTER ((CONSTANT (INTEGER 4 0 0 INTEGER ()) 0 '1'))) 0 0 () (
CONSTANT (CHARACTER 1 1 1 UNKNOWN (())) 0 1 '\U00000009') () 0 () () ()
2 37)
31 'c_int' '__iso_c_binding' '' 1 ((PARAMETER UNKNOWN-INTENT
UNKNOWN-PROC UNKNOWN UNKNOWN IS_C_INTEROP IS_ISO_C) (INTEGER 4 1 1
INTEGER ()) 0 0 () (CONSTANT (INTEGER 4 1 1 UNKNOWN ()) 0 '4') () 0 () ()
() 2 0)
32 'c_int128_t' '__iso_c_binding' '' 1 ((PARAMETER UNKNOWN-INTENT
UNKNOWN-PROC UNKNOWN UNKNOWN IS_C_INTEROP IS_ISO_C) (INTEGER 4 1 1
INTEGER ()) 0 0 () (CONSTANT (INTEGER 4 1 1 UNKNOWN ()) 0 '16') () 0 ()
() () 2 12)
33 'c_int16_t' '__iso_c_binding' '' 1 ((PARAMETER UNKNOWN-INTENT
UNKNOWN-PROC UNKNOWN UNKNOWN IS_C_INTEROP IS_ISO_C) (INTEGER 4 1 1
INTEGER ()) 0 0 () (CONSTANT (INTEGER 4 1 1 UNKNOWN ()) 0 '2') () 0 () ()
() 2 9)
34 'c_int32_t' '__iso_c_binding' '' 1 ((PARAMETER UNKNOWN-INTENT
UNKNOWN-PROC UNKNOWN UNKNOWN IS_C_INTEROP IS_ISO_C) (INTEGER 4 1 1
INTEGER ()) 0 0 () (CONSTANT (INTEGER 4 1 1 UNKNOWN ()) 0 '4') () 0 () ()
() 2 10)
35 'c_int64_t' '__iso_c_binding' '' 1 ((PARAMETER UNKNOWN-INTENT
UNKNOWN-PROC UNKNOWN UNKNOWN IS_C_INTEROP IS_ISO_C) (INTEGER 4 1 1
INTEGER ()) 0 0 () (CONSTANT (INTEGER 4 1 1 UNKNOWN ()) 0 '8') () 0 () ()
() 2 11)
36 'c_int8_t' '__iso_c_binding' '' 1 ((PARAMETER UNKNOWN-INTENT
UNKNOWN-PROC UNKNOWN UNKNOWN IS_C_INTEROP IS_ISO_C) (INTEGER 4 1 1
INTEGER ()) 0 0 () (CONSTANT (INTEGER 4 1 1 UNKNOWN ()) 0 '1') () 0 () ()
() 2 8)
37 'c_int_fast128_t' '__iso_c_binding' '' 1 ((PARAMETER UNKNOWN-INTENT
UNKNOWN-PROC UNKNOWN UNKNOWN IS_C_INTEROP IS_ISO_C) (INTEGER 4 1 1
INTEGER ()) 0 0 () (CONSTANT (INTEGER 4 1 1 UNKNOWN ()) 0 '-2') () 0 ()
() () 2 22)
38 'c_int_fast16_t' '__iso_c_binding' '' 1 ((PARAMETER UNKNOWN-INTENT
UNKNOWN-PROC UNKNOWN UNKNOWN IS_C_INTEROP IS_ISO_C) (INTEGER 4 1 1
INTEGER ()) 0 0 () (CONSTANT (INTEGER 4 1 1 UNKNOWN ()) 0 '-2') () 0 ()
() () 2 19)
39 'c_int_fast32_t' '__iso_c_binding' '' 1 ((PARAMETER UNKNOWN-INTENT
UNKNOWN-PROC UNKNOWN UNKNOWN IS_C_INTEROP IS_ISO_C) (INTEGER 4 1 1
INTEGER ()) 0 0 () (CONSTANT (INTEGER 4 1 1 UNKNOWN ()) 0 '-2') () 0 ()
() () 2 20)
40 'c_int_fast64_t' '__iso_c_binding' '' 1 ((PARAMETER UNKNOWN-INTENT
UNKNOWN-PROC UNKNOWN UNKNOWN IS_C_INTEROP IS_ISO_C) (INTEGER 4 1 1
INTEGER ()) 0 0 () (CONSTANT (INTEGER 4 1 1 UNKNOWN ()) 0 '-2') () 0 ()
() () 2 21)
41 'c_int_fast8_t' '__iso_c_binding' '' 1 ((PARAMETER UNKNOWN-INTENT
UNKNOWN-PROC UNKNOWN UNKNOWN IS_C_INTEROP IS_ISO_C) (INTEGER 4 1 1
INTEGER ()) 0 0 () (CONSTANT (INTEGER 4 1 1 UNKNOWN ()) 0 '-2') () 0 ()
() () 2 18)
42 'c_int_least128_t' '__iso_c_binding' '' 1 ((PARAMETER UNKNOWN-INTENT
UNKNOWN-PROC UNKNOWN UNKNOWN IS_C_INTEROP IS_ISO_C) (INTEGER 4 1 1
INTEGER ()) 0 0 () (CONSTANT (INTEGER 4 1 1 UNKNOWN ()) 0 '16') () 0 ()
() () 2 17)
43 'c_int_least16_t' '__iso_c_binding' '' 1 ((PARAMETER UNKNOWN-INTENT
UNKNOWN-PROC UNKNOWN UNKNOWN IS_C_INTEROP IS_ISO_C) (INTEGER 4 1 1
INTEGER ()) 0 0 () (CONSTANT (INTEGER 4 1 1 UNKNOWN ()) 0 '2') () 0 () ()
() 2 14)
44 'c_int_least32_t' '__iso_c_binding' '' 1 ((PARAMETER UNKNOWN-INTENT
UNKNOWN-PROC UNKNOWN UNKNOWN IS_C_INTEROP IS_ISO_C) (INTEGER 4 1 1
INTEGER ()) 0 0 () (CONSTANT (INTEGER 4 1 1 UNKNOWN ()) 0 '4') () 0 () ()
() 2 15)
45 'c_int_least64_t' '__iso_c_binding' '' 1 ((PARAMETER UNKNOWN-INTENT
UNKNOWN-PROC UNKNOWN UNKNOWN IS_C_INTEROP IS_ISO_C) (INTEGER 4 1 1
INTEGER ()) 0 0 () (CONSTANT (INTEGER 4 1 1 UNKNOWN ()) 0 '8') () 0 () ()
() 2 16)
46 'c_int_least8_t' '__iso_c_binding' '' 1 ((PARAMETER UNKNOWN-INTENT
UNKNOWN-PROC UNKNOWN UNKNOWN IS_C_INTEROP IS_ISO_C) (INTEGER 4 1 1
INTEGER ()) 0 0 () (CONSTANT (INTEGER 4 1 1 UNKNOWN ()) 0 '1') () 0 () ()
() 2 13)
47 'c_intmax_t' '__iso_c_binding' '' 1 ((PARAMETER UNKNOWN-INTENT
UNKNOWN-PROC UNKNOWN UNKNOWN IS_C_INTEROP IS_ISO_C) (INTEGER 4 1 1
INTEGER ()) 0 0 () (CONSTANT (INTEGER 4 1 1 UNKNOWN ()) 0 '8') () 0 () ()
() 2 4)
48 'c_intptr_t' '__iso_c_binding' '' 1 ((PARAMETER UNKNOWN-INTENT
UNKNOWN-PROC UNKNOWN UNKNOWN IS_C_INTEROP IS_ISO_C) (INTEGER 4 1 1
INTEGER ()) 0 0 () (CONSTANT (INTEGER 4 1 1 UNKNOWN ()) 0 '8') () 0 () ()
() 2 5)
49 'c_loc' '__iso_c_binding' '__iso_c_binding_c_loc' 1 ((PROCEDURE
UNKNOWN-INTENT UNKNOWN-PROC UNKNOWN UNKNOWN EXTERNAL PURE IS_ISO_C) (
DERIVED 50 0 0 DERIVED ()) 0 0 () () 49 () () () 2 45)
51 'c_long' '__iso_c_binding' '' 1 ((PARAMETER UNKNOWN-INTENT
UNKNOWN-PROC UNKNOWN UNKNOWN IS_C_INTEROP IS_ISO_C) (INTEGER 4 1 1
INTEGER ()) 0 0 () (CONSTANT (INTEGER 4 1 1 UNKNOWN ()) 0 '8') () 0 () ()
() 2 2)
52 'c_long_double' '__iso_c_binding' '' 1 ((PARAMETER UNKNOWN-INTENT
UNKNOWN-PROC UNKNOWN UNKNOWN IS_C_INTEROP IS_ISO_C) (INTEGER 4 1 1 REAL
()) 0 0 () (CONSTANT (INTEGER 4 1 1 UNKNOWN ()) 0 '10') () 0 () () () 2
25)
53 'c_long_double_complex' '__iso_c_binding' '' 1 ((PARAMETER
UNKNOWN-INTENT UNKNOWN-PROC UNKNOWN UNKNOWN IS_C_INTEROP IS_ISO_C) (
INTEGER 4 1 1 COMPLEX ()) 0 0 () (CONSTANT (INTEGER 4 1 1 UNKNOWN ()) 0
'10') () 0 () () () 2 28)
54 'c_long_long' '__iso_c_binding' '' 1 ((PARAMETER UNKNOWN-INTENT
UNKNOWN-PROC UNKNOWN UNKNOWN IS_C_INTEROP IS_ISO_C) (INTEGER 4 1 1
INTEGER ()) 0 0 () (CONSTANT (INTEGER 4 1 1 UNKNOWN ()) 0 '8') () 0 () ()
() 2 3)
55 'c_new_line' '__iso_c_binding' '' 1 ((PARAMETER UNKNOWN-INTENT
UNKNOWN-PROC UNKNOWN UNKNOWN IS_C_INTEROP IS_ISO_C) (CHARACTER 1 1 1
CHARACTER ((CONSTANT (INTEGER 4 0 0 INTEGER ()) 0 '1'))) 0 0 () (
CONSTANT (CHARACTER 1 1 1 UNKNOWN (())) 0 1 '\U0000000a') () 0 () () ()
2 35)
56 'c_null_char' '__iso_c_binding' '' 1 ((PARAMETER UNKNOWN-INTENT
UNKNOWN-PROC UNKNOWN UNKNOWN IS_C_INTEROP IS_ISO_C) (CHARACTER 1 1 1
CHARACTER ((CONSTANT (INTEGER 4 0 0 INTEGER ()) 0 '1'))) 0 0 () (
CONSTANT (CHARACTER 1 1 1 UNKNOWN (())) 0 1 '\U00000000') () 0 () () ()
2 31)
57 'c_null_funptr' '__iso_c_binding' '__iso_c_binding_c_null_funptr' 1 (
(PARAMETER UNKNOWN-INTENT UNKNOWN-PROC UNKNOWN EXPLICIT-SAVE IS_BIND_C
IS_C_INTEROP IS_ISO_C) (DERIVED 28 1 1 UNKNOWN ()) 0 0 () (STRUCTURE (
DERIVED 28 0 0 DERIVED ()) 0 ((() ())) ()) () 0 () () () 2 42)
58 'c_null_ptr' '__iso_c_binding' '__iso_c_binding_c_null_ptr' 1 ((
PARAMETER UNKNOWN-INTENT UNKNOWN-PROC UNKNOWN EXPLICIT-SAVE IS_BIND_C
IS_C_INTEROP IS_ISO_C) (DERIVED 50 1 1 UNKNOWN ()) 0 0 () (STRUCTURE (
DERIVED 50 0 0 DERIVED ()) 0 ((() ())) ()) () 0 () () () 2 40)
50 'c_ptr' '__iso_c_binding' '' 1 ((DERIVED UNKNOWN-INTENT UNKNOWN-PROC
UNKNOWN UNKNOWN IS_BIND_C IS_C_INTEROP IS_ISO_C) (DERIVED 50 1 1 UNKNOWN
()) 0 0 () () 0 ((59 '__c_ptr_c_address' (INTEGER 8 1 0 INTEGER ()) () (
UNKNOWN-FL UNKNOWN-INTENT UNKNOWN-PROC UNKNOWN UNKNOWN) UNKNOWN-ACCESS ()))
UNKNOWN-ACCESS () () 2 39)
60 'c_short' '__iso_c_binding' '' 1 ((PARAMETER UNKNOWN-INTENT
UNKNOWN-PROC UNKNOWN UNKNOWN IS_C_INTEROP IS_ISO_C) (INTEGER 4 1 1
INTEGER ()) 0 0 () (CONSTANT (INTEGER 4 1 1 UNKNOWN ()) 0 '2') () 0 () ()
() 2 1)
61 'c_signed_char' '__iso_c_binding' '' 1 ((PARAMETER UNKNOWN-INTENT
UNKNOWN-PROC UNKNOWN UNKNOWN IS_C_INTEROP IS_ISO_C) (INTEGER 4 1 1
INTEGER ()) 0 0 () (CONSTANT (INTEGER 4 1 1 UNKNOWN ()) 0 '1') () 0 () ()
() 2 7)
62 'c_size_t' '__iso_c_binding' '' 1 ((PARAMETER UNKNOWN-INTENT
UNKNOWN-PROC UNKNOWN UNKNOWN IS_C_INTEROP IS_ISO_C) (INTEGER 4 1 1
INTEGER ()) 0 0 () (CONSTANT (INTEGER 4 1 1 UNKNOWN ()) 0 '8') () 0 () ()
() 2 6)
63 'c_vertical_tab' '__iso_c_binding' '' 1 ((PARAMETER UNKNOWN-INTENT
UNKNOWN-PROC UNKNOWN UNKNOWN IS_C_INTEROP IS_ISO_C) (CHARACTER 1 1 1
CHARACTER ((CONSTANT (INTEGER 4 0 0 INTEGER ()) 0 '1'))) 0 0 () (
CONSTANT (CHARACTER 1 1 1 UNKNOWN (())) 0 1 '\U0000000b') () 0 () () ()
2 38)
64 'eps_m' 'scattersearchtypes' 'eps_m' 1 ((PARAMETER UNKNOWN-INTENT
UNKNOWN-PROC UNKNOWN IMPLICIT-SAVE) (REAL 8 0 0 REAL ()) 0 0 () (
CONSTANT (REAL 8 0 0 REAL ()) 0 '0.12725dd1d243ac@-14') () 0 () () () 0
0)
65 'extraparametters' 'scattersearchtypes' 'extraparametters' 1 ((
DERIVED UNKNOWN-INTENT UNKNOWN-PROC UNKNOWN UNKNOWN ALLOC_COMP) (
UNKNOWN 0 0 0 UNKNOWN ()) 0 0 () () 0 ((66 'empty' (INTEGER 4 0 0
INTEGER ()) () (UNKNOWN-FL UNKNOWN-INTENT UNKNOWN-PROC UNKNOWN UNKNOWN)
UNKNOWN-ACCESS ()) (67 'texp' (INTEGER 8 0 0 INTEGER ()) (1 DEFERRED ()
()) (UNKNOWN-FL UNKNOWN-INTENT UNKNOWN-PROC UNKNOWN UNKNOWN ALLOCATABLE
DIMENSION) UNKNOWN-ACCESS ()) (68 'yexp' (REAL 8 0 0 REAL ()) (2
DEFERRED () () () ()) (UNKNOWN-FL UNKNOWN-INTENT UNKNOWN-PROC UNKNOWN
UNKNOWN ALLOCATABLE DIMENSION) UNKNOWN-ACCESS ()) (69 'k1' (REAL 4 1 0
REAL ()) () (UNKNOWN-FL UNKNOWN-INTENT UNKNOWN-PROC UNKNOWN UNKNOWN)
UNKNOWN-ACCESS ()) (70 'k2' (REAL 4 1 0 REAL ()) () (UNKNOWN-FL
UNKNOWN-INTENT UNKNOWN-PROC UNKNOWN UNKNOWN) UNKNOWN-ACCESS ()) (71 'k3'
(REAL 4 1 0 REAL ()) () (UNKNOWN-FL UNKNOWN-INTENT UNKNOWN-PROC UNKNOWN
UNKNOWN) UNKNOWN-ACCESS ()) (72 'k4' (REAL 4 1 0 REAL ()) () (
UNKNOWN-FL UNKNOWN-INTENT UNKNOWN-PROC UNKNOWN UNKNOWN) UNKNOWN-ACCESS ()))
PUBLIC (() ()) () 0 0)
73 'goptions' 'scattersearchtypes' 'goptions' 1 ((DERIVED UNKNOWN-INTENT
UNKNOWN-PROC UNKNOWN UNKNOWN) (UNKNOWN 0 0 0 UNKNOWN ()) 0 0 () () 0 ((
74 'empty' (INTEGER 4 0 0 INTEGER ()) () (UNKNOWN-FL UNKNOWN-INTENT
UNKNOWN-PROC UNKNOWN UNKNOWN) UNKNOWN-ACCESS ()) (75 'dim_refset' (
INTEGER 4 0 0 INTEGER ()) () (UNKNOWN-FL UNKNOWN-INTENT UNKNOWN-PROC
UNKNOWN UNKNOWN) UNKNOWN-ACCESS ()) (76 'ndiverse' (INTEGER 4 0 0
INTEGER ()) () (UNKNOWN-FL UNKNOWN-INTENT UNKNOWN-PROC UNKNOWN UNKNOWN)
UNKNOWN-ACCESS ()) (77 'initiate' (INTEGER 4 0 0 INTEGER ()) () (
UNKNOWN-FL UNKNOWN-INTENT UNKNOWN-PROC UNKNOWN UNKNOWN) UNKNOWN-ACCESS ())
(78 'combination' (INTEGER 4 0 0 INTEGER ()) () (UNKNOWN-FL
UNKNOWN-INTENT UNKNOWN-PROC UNKNOWN UNKNOWN) UNKNOWN-ACCESS ()) (79
'regenerate' (INTEGER 4 0 0 INTEGER ()) () (UNKNOWN-FL UNKNOWN-INTENT
UNKNOWN-PROC UNKNOWN UNKNOWN) UNKNOWN-ACCESS ()) (80 'intens' (INTEGER 4
0 0 INTEGER ()) () (UNKNOWN-FL UNKNOWN-INTENT UNKNOWN-PROC UNKNOWN
UNKNOWN) UNKNOWN-ACCESS ()) (81 'diverse_criteria' (INTEGER 4 0 0
INTEGER ()) () (UNKNOWN-FL UNKNOWN-INTENT UNKNOWN-PROC UNKNOWN UNKNOWN)
UNKNOWN-ACCESS ()) (82 'n_stuck' (INTEGER 4 0 0 INTEGER ()) () (
UNKNOWN-FL UNKNOWN-INTENT UNKNOWN-PROC UNKNOWN UNKNOWN) UNKNOWN-ACCESS ())
(83 'tolf' (REAL 8 0 0 REAL ()) () (UNKNOWN-FL UNKNOWN-INTENT
UNKNOWN-PROC UNKNOWN UNKNOWN) UNKNOWN-ACCESS ()) (84 'tolx' (REAL 8 0 0
REAL ()) () (UNKNOWN-FL UNKNOWN-INTENT UNKNOWN-PROC UNKNOWN UNKNOWN)
UNKNOWN-ACCESS ()) (85 'delete' (CHARACTER 1 1 0 CHARACTER ((CONSTANT (
INTEGER 4 0 0 INTEGER ()) 0 '20'))) () (UNKNOWN-FL UNKNOWN-INTENT
UNKNOWN-PROC UNKNOWN UNKNOWN) UNKNOWN-ACCESS ())) PUBLIC (() ()) () 0 0)
86 'infinite' 'scattersearchtypes' 'infinite' 1 ((PARAMETER
UNKNOWN-INTENT UNKNOWN-PROC UNKNOWN IMPLICIT-SAVE) (REAL 8 0 0 REAL ())
0 0 () (CONSTANT (REAL 8 0 0 REAL ()) 0 '0.fffffffffffff8@256') () 0 ()
() () 0 0)
87 'loptions' 'scattersearchtypes' 'loptions' 1 ((DERIVED UNKNOWN-INTENT
UNKNOWN-PROC UNKNOWN UNKNOWN ALLOC_COMP) (UNKNOWN 0 0 0 UNKNOWN ()) 0 0
() () 0 ((88 'empty' (INTEGER 4 0 0 INTEGER ()) () (UNKNOWN-FL
UNKNOWN-INTENT UNKNOWN-PROC UNKNOWN UNKNOWN) UNKNOWN-ACCESS ()) (89 'tol'
(INTEGER 4 0 0 INTEGER ()) () (UNKNOWN-FL UNKNOWN-INTENT UNKNOWN-PROC
UNKNOWN UNKNOWN) UNKNOWN-ACCESS ()) (90 'iterprint' (INTEGER 4 0 0
INTEGER ()) () (UNKNOWN-FL UNKNOWN-INTENT UNKNOWN-PROC UNKNOWN UNKNOWN)
UNKNOWN-ACCESS ()) (91 'n1' (INTEGER 4 0 0 INTEGER ()) () (UNKNOWN-FL
UNKNOWN-INTENT UNKNOWN-PROC UNKNOWN UNKNOWN) UNKNOWN-ACCESS ()) (92 'n2'
(INTEGER 4 0 0 INTEGER ()) () (UNKNOWN-FL UNKNOWN-INTENT UNKNOWN-PROC
UNKNOWN UNKNOWN) UNKNOWN-ACCESS ()) (93 'bestx' (INTEGER 4 0 0 INTEGER ())
() (UNKNOWN-FL UNKNOWN-INTENT UNKNOWN-PROC UNKNOWN UNKNOWN)
UNKNOWN-ACCESS ()) (94 'merit_filter' (INTEGER 4 0 0 INTEGER ()) () (
UNKNOWN-FL UNKNOWN-INTENT UNKNOWN-PROC UNKNOWN UNKNOWN) UNKNOWN-ACCESS ())
(95 'distance_filter' (INTEGER 4 0 0 INTEGER ()) () (UNKNOWN-FL
UNKNOWN-INTENT UNKNOWN-PROC UNKNOWN UNKNOWN) UNKNOWN-ACCESS ()) (96
'wait_maxdist_limit' (INTEGER 4 0 0 INTEGER ()) () (UNKNOWN-FL
UNKNOWN-INTENT UNKNOWN-PROC UNKNOWN UNKNOWN) UNKNOWN-ACCESS ()) (97
'wait_th_limit' (INTEGER 4 0 0 INTEGER ()) () (UNKNOWN-FL UNKNOWN-INTENT
UNKNOWN-PROC UNKNOWN UNKNOWN) UNKNOWN-ACCESS ()) (98 'threshold_local' (
REAL 8 0 0 REAL ()) () (UNKNOWN-FL UNKNOWN-INTENT UNKNOWN-PROC UNKNOWN
UNKNOWN) UNKNOWN-ACCESS ()) (99 'thfactor' (REAL 8 0 0 REAL ()) () (
UNKNOWN-FL UNKNOWN-INTENT UNKNOWN-PROC UNKNOWN UNKNOWN) UNKNOWN-ACCESS ())
(100 'maxdistfactor' (REAL 8 0 0 REAL ()) () (UNKNOWN-FL UNKNOWN-INTENT
UNKNOWN-PROC UNKNOWN UNKNOWN) UNKNOWN-ACCESS ()) (101 'balance' (REAL 8
0 0 REAL ()) () (UNKNOWN-FL UNKNOWN-INTENT UNKNOWN-PROC UNKNOWN UNKNOWN)
UNKNOWN-ACCESS ()) (102 'extrap' (DERIVED 65 0 0 DERIVED ()) () (
UNKNOWN-FL UNKNOWN-INTENT UNKNOWN-PROC UNKNOWN UNKNOWN) UNKNOWN-ACCESS (
STRUCTURE (DERIVED 65 0 0 DERIVED ()) 0 ((() ()) ((NULL (INTEGER 8 0 0
INTEGER ()) 0) ()) ((NULL (REAL 8 0 0 REAL ()) 0) ()) (() ()) (() ()) (
() ()) (() ())) ())) (103 'solver' (CHARACTER 1 1 0 CHARACTER ((
CONSTANT (INTEGER 4 0 0 INTEGER ()) 0 '20'))) () (UNKNOWN-FL
UNKNOWN-INTENT UNKNOWN-PROC UNKNOWN UNKNOWN) UNKNOWN-ACCESS ()) (104
'finish' (CHARACTER 1 1 0 CHARACTER ((CONSTANT (INTEGER 4 0 0 INTEGER ())
0 '20'))) (1 DEFERRED () ()) (UNKNOWN-FL UNKNOWN-INTENT UNKNOWN-PROC
UNKNOWN UNKNOWN ALLOCATABLE DIMENSION) UNKNOWN-ACCESS ())) PUBLIC (() ())
() 0 0)
105 'opts' 'scattersearchtypes' 'opts' 1 ((DERIVED UNKNOWN-INTENT
UNKNOWN-PROC UNKNOWN UNKNOWN ALLOC_COMP) (UNKNOWN 0 0 0 UNKNOWN ()) 0 0
() () 0 ((106 'empty' (INTEGER 4 0 0 INTEGER ()) () (UNKNOWN-FL
UNKNOWN-INTENT UNKNOWN-PROC UNKNOWN UNKNOWN) UNKNOWN-ACCESS ()) (107
'useroptions' (DERIVED 108 0 0 DERIVED ()) () (UNKNOWN-FL UNKNOWN-INTENT
UNKNOWN-PROC UNKNOWN UNKNOWN) UNKNOWN-ACCESS (STRUCTURE (DERIVED 108 0 0
DERIVED ()) 0 ((() ()) (() ()) (() ()) (() ()) (() ()) (() ()) (() ()) (
() ()) (() ()) (() ()) (() ()) ((NULL (INTEGER 4 0 0 INTEGER ()) 0) ())
(() ())) ())) (109 'globaloptions' (DERIVED 73 0 0 DERIVED ()) () (
UNKNOWN-FL UNKNOWN-INTENT UNKNOWN-PROC UNKNOWN UNKNOWN) UNKNOWN-ACCESS ())
(110 'localoptions' (DERIVED 87 0 0 DERIVED ()) () (UNKNOWN-FL
UNKNOWN-INTENT UNKNOWN-PROC UNKNOWN UNKNOWN) UNKNOWN-ACCESS (STRUCTURE (
DERIVED 87 0 0 DERIVED ()) 0 ((() ()) (() ()) (() ()) (() ()) (() ()) (
() ()) (() ()) (() ()) (() ()) (() ()) (() ()) (() ()) (() ()) (() ()) (
(STRUCTURE (DERIVED 65 0 0 DERIVED ()) 0 ((() ()) ((NULL (INTEGER 8 0 0
INTEGER ()) 0) ()) ((NULL (REAL 8 0 0 REAL ()) 0) ()) (() ()) (() ()) (
() ()) (() ())) ()) ()) (() ()) ((NULL (CHARACTER 1 1 0 CHARACTER ((
CONSTANT (INTEGER 4 0 0 INTEGER ()) 0 '20'))) 0) ())) ()))) PUBLIC (() ())
() 0 0)
111 'outfuction' 'scattersearchtypes' 'outfuction' 1 ((DERIVED
UNKNOWN-INTENT UNKNOWN-PROC UNKNOWN UNKNOWN ALLOC_COMP) (UNKNOWN 0 0 0
UNKNOWN ()) 0 0 () () 0 ((112 'value' (REAL 8 0 0 REAL ()) () (
UNKNOWN-FL UNKNOWN-INTENT UNKNOWN-PROC UNKNOWN UNKNOWN) UNKNOWN-ACCESS ())
(113 'value_penalty' (REAL 8 0 0 REAL ()) () (UNKNOWN-FL UNKNOWN-INTENT
UNKNOWN-PROC UNKNOWN UNKNOWN) UNKNOWN-ACCESS ()) (114 'pena' (REAL 8 0 0
REAL ()) () (UNKNOWN-FL UNKNOWN-INTENT UNKNOWN-PROC UNKNOWN UNKNOWN)
UNKNOWN-ACCESS ()) (115 'nlc' (REAL 8 0 0 REAL ()) (1 DEFERRED () ()) (
UNKNOWN-FL UNKNOWN-INTENT UNKNOWN-PROC UNKNOWN UNKNOWN ALLOCATABLE
DIMENSION) UNKNOWN-ACCESS ()) (116 'include' (INTEGER 4 0 0 INTEGER ())
() (UNKNOWN-FL UNKNOWN-INTENT UNKNOWN-PROC UNKNOWN UNKNOWN)
UNKNOWN-ACCESS ()) (117 'x' (REAL 8 0 0 REAL ()) (1 DEFERRED () ()) (
UNKNOWN-FL UNKNOWN-INTENT UNKNOWN-PROC UNKNOWN UNKNOWN ALLOCATABLE
DIMENSION) UNKNOWN-ACCESS ())) PUBLIC (() ()) () 0 0)
118 'precision_d' 'scattersearchtypes' 'precision_d' 1 ((PARAMETER
UNKNOWN-INTENT UNKNOWN-PROC UNKNOWN IMPLICIT-SAVE) (INTEGER 4 0 0
INTEGER ()) 0 0 () (CONSTANT (INTEGER 4 0 0 INTEGER ()) 0 '15') () 0 ()
() () 0 0)
119 'precision_f' 'scattersearchtypes' 'precision_f' 1 ((PARAMETER
UNKNOWN-INTENT UNKNOWN-PROC UNKNOWN IMPLICIT-SAVE) (INTEGER 4 0 0
INTEGER ()) 0 0 () (CONSTANT (INTEGER 4 0 0 INTEGER ()) 0 '7') () 0 () ()
() 0 0)
120 'problem' 'scattersearchtypes' 'problem' 1 ((DERIVED UNKNOWN-INTENT
UNKNOWN-PROC UNKNOWN UNKNOWN ALLOC_COMP) (UNKNOWN 0 0 0 UNKNOWN ()) 0 0
() () 0 ((121 'empty' (INTEGER 4 0 0 INTEGER ()) () (UNKNOWN-FL
UNKNOWN-INTENT UNKNOWN-PROC UNKNOWN UNKNOWN) UNKNOWN-ACCESS ()) (122 'f'
(CHARACTER 1 0 0 CHARACTER ((CONSTANT (INTEGER 4 0 0 INTEGER ()) 0 '20')))
() (UNKNOWN-FL UNKNOWN-INTENT UNKNOWN-PROC UNKNOWN UNKNOWN)
UNKNOWN-ACCESS ()) (123 'neq' (INTEGER 4 0 0 INTEGER ()) () (UNKNOWN-FL
UNKNOWN-INTENT UNKNOWN-PROC UNKNOWN UNKNOWN) UNKNOWN-ACCESS ()) (124
'int_var' (INTEGER 4 0 0 INTEGER ()) () (UNKNOWN-FL UNKNOWN-INTENT
UNKNOWN-PROC UNKNOWN UNKNOWN) UNKNOWN-ACCESS ()) (125 'bin_var' (
INTEGER 4 0 0 INTEGER ()) () (UNKNOWN-FL UNKNOWN-INTENT UNKNOWN-PROC
UNKNOWN UNKNOWN) UNKNOWN-ACCESS ()) (126 'vtr' (REAL 8 0 0 REAL ()) (1
DEFERRED () ()) (UNKNOWN-FL UNKNOWN-INTENT UNKNOWN-PROC UNKNOWN UNKNOWN
ALLOCATABLE DIMENSION) UNKNOWN-ACCESS ()) (127 'xl' (REAL 8 0 0 REAL ())
(1 DEFERRED () ()) (UNKNOWN-FL UNKNOWN-INTENT UNKNOWN-PROC UNKNOWN
UNKNOWN ALLOCATABLE DIMENSION) UNKNOWN-ACCESS ()) (128 'xu' (REAL 8 0 0
REAL ()) (1 DEFERRED () ()) (UNKNOWN-FL UNKNOWN-INTENT UNKNOWN-PROC
UNKNOWN UNKNOWN ALLOCATABLE DIMENSION) UNKNOWN-ACCESS ()) (129 'cl' (
REAL 8 0 0 REAL ()) (1 DEFERRED () ()) (UNKNOWN-FL UNKNOWN-INTENT
UNKNOWN-PROC UNKNOWN UNKNOWN ALLOCATABLE DIMENSION) UNKNOWN-ACCESS ()) (
130 'cu' (REAL 8 0 0 REAL ()) (1 DEFERRED () ()) (UNKNOWN-FL
UNKNOWN-INTENT UNKNOWN-PROC UNKNOWN UNKNOWN ALLOCATABLE DIMENSION)
UNKNOWN-ACCESS ()) (131 'ineq' (INTEGER 4 0 0 INTEGER ()) () (
UNKNOWN-FL UNKNOWN-INTENT UNKNOWN-PROC UNKNOWN UNKNOWN) UNKNOWN-ACCESS ())
(132 'x0' (REAL 8 0 0 REAL ()) (2 DEFERRED () () () ()) (UNKNOWN-FL
UNKNOWN-INTENT UNKNOWN-PROC UNKNOWN UNKNOWN ALLOCATABLE DIMENSION)
UNKNOWN-ACCESS ()) (133 'f0' (REAL 8 0 0 REAL ()) (1 DEFERRED () ()) (
UNKNOWN-FL UNKNOWN-INTENT UNKNOWN-PROC UNKNOWN UNKNOWN ALLOCATABLE
DIMENSION) UNKNOWN-ACCESS ())) PUBLIC (() ()) () 0 0)
134 'range_d' 'scattersearchtypes' 'range_d' 1 ((PARAMETER
UNKNOWN-INTENT UNKNOWN-PROC UNKNOWN IMPLICIT-SAVE) (INTEGER 4 0 0
INTEGER ()) 0 0 () (CONSTANT (INTEGER 4 0 0 INTEGER ()) 0 '307') () 0 ()
() () 0 0)
135 'range_f' 'scattersearchtypes' 'range_f' 1 ((PARAMETER
UNKNOWN-INTENT UNKNOWN-PROC UNKNOWN IMPLICIT-SAVE) (INTEGER 4 0 0
INTEGER ()) 0 0 () (CONSTANT (INTEGER 4 0 0 INTEGER ()) 0 '150') () 0 ()
() () 0 0)
136 'real' '(intrinsic)' 'real' 1 ((PROCEDURE UNKNOWN-INTENT
UNKNOWN-PROC UNKNOWN UNKNOWN FUNCTION) (REAL 4 0 0 REAL ()) 0 0 () ()
136 () () () 0 0)
137 'refsettype' 'scattersearchtypes' 'refsettype' 1 ((DERIVED
UNKNOWN-INTENT UNKNOWN-PROC UNKNOWN UNKNOWN ALLOC_COMP) (UNKNOWN 0 0 0
UNKNOWN ()) 0 0 () () 0 ((138 'x' (REAL 8 0 0 REAL ()) (2 DEFERRED () ()
() ()) (UNKNOWN-FL UNKNOWN-INTENT UNKNOWN-PROC UNKNOWN UNKNOWN
ALLOCATABLE DIMENSION) UNKNOWN-ACCESS ()) (139 'f' (REAL 8 0 0 REAL ())
(1 DEFERRED () ()) (UNKNOWN-FL UNKNOWN-INTENT UNKNOWN-PROC UNKNOWN
UNKNOWN ALLOCATABLE DIMENSION) UNKNOWN-ACCESS ()) (140 'fpen' (REAL 8 0
0 REAL ()) (1 DEFERRED () ()) (UNKNOWN-FL UNKNOWN-INTENT UNKNOWN-PROC
UNKNOWN UNKNOWN ALLOCATABLE DIMENSION) UNKNOWN-ACCESS ()) (141 'nlc' (
REAL 8 0 0 REAL ()) (2 DEFERRED () () () ()) (UNKNOWN-FL UNKNOWN-INTENT
UNKNOWN-PROC UNKNOWN UNKNOWN ALLOCATABLE DIMENSION) UNKNOWN-ACCESS ()) (
142 'penalty' (REAL 8 0 0 REAL ()) (1 DEFERRED () ()) (UNKNOWN-FL
UNKNOWN-INTENT UNKNOWN-PROC UNKNOWN UNKNOWN ALLOCATABLE DIMENSION)
UNKNOWN-ACCESS ()) (143 'parent_index' (INTEGER 4 0 0 INTEGER ()) (1
DEFERRED () ()) (UNKNOWN-FL UNKNOWN-INTENT UNKNOWN-PROC UNKNOWN UNKNOWN
ALLOCATABLE DIMENSION) UNKNOWN-ACCESS ())) PUBLIC (() ()) () 0 0)
144 'resultsf' 'scattersearchtypes' 'resultsf' 1 ((DERIVED
UNKNOWN-INTENT UNKNOWN-PROC UNKNOWN UNKNOWN ALLOC_COMP) (UNKNOWN 0 0 0
UNKNOWN ()) 0 0 () () 0 ((145 'refsett' (DERIVED 137 0 0 DERIVED ()) ()
(UNKNOWN-FL UNKNOWN-INTENT UNKNOWN-PROC UNKNOWN UNKNOWN) UNKNOWN-ACCESS
(STRUCTURE (DERIVED 137 0 0 DERIVED ()) 0 (((NULL (REAL 8 0 0 REAL ()) 0)
()) ((NULL (REAL 8 0 0 REAL ()) 0) ()) ((NULL (REAL 8 0 0 REAL ()) 0) ())
((NULL (REAL 8 0 0 REAL ()) 0) ()) ((NULL (REAL 8 0 0 REAL ()) 0) ()) (
(NULL (INTEGER 4 0 0 INTEGER ()) 0) ())) ())) (146 'fbest' (REAL 8 0 0
REAL ()) (1 DEFERRED () ()) (UNKNOWN-FL UNKNOWN-INTENT UNKNOWN-PROC
UNKNOWN UNKNOWN ALLOCATABLE DIMENSION) UNKNOWN-ACCESS ()) (147 'xbest' (
REAL 8 0 0 REAL ()) (1 DEFERRED () ()) (UNKNOWN-FL UNKNOWN-INTENT
UNKNOWN-PROC UNKNOWN UNKNOWN ALLOCATABLE DIMENSION) UNKNOWN-ACCESS ()) (
148 'cputime' (REAL 8 1 0 REAL ()) () (UNKNOWN-FL UNKNOWN-INTENT
UNKNOWN-PROC UNKNOWN UNKNOWN) UNKNOWN-ACCESS ()) (149 'f' (REAL 8 0 0
REAL ()) (1 DEFERRED () ()) (UNKNOWN-FL UNKNOWN-INTENT UNKNOWN-PROC
UNKNOWN UNKNOWN ALLOCATABLE DIMENSION) UNKNOWN-ACCESS ()) (150 'x' (
REAL 8 0 0 REAL ()) (2 DEFERRED () () () ()) (UNKNOWN-FL UNKNOWN-INTENT
UNKNOWN-PROC UNKNOWN UNKNOWN ALLOCATABLE DIMENSION) UNKNOWN-ACCESS ()) (
151 'time' (REAL 8 1 0 REAL ()) (1 DEFERRED () ()) (UNKNOWN-FL
UNKNOWN-INTENT UNKNOWN-PROC UNKNOWN UNKNOWN ALLOCATABLE DIMENSION)
UNKNOWN-ACCESS ()) (152 'neval' (INTEGER 8 1 0 INTEGER ()) (1 DEFERRED ()
()) (UNKNOWN-FL UNKNOWN-INTENT UNKNOWN-PROC UNKNOWN UNKNOWN ALLOCATABLE
DIMENSION) UNKNOWN-ACCESS ()) (153 'numeval' (INTEGER 8 1 0 INTEGER ())
() (UNKNOWN-FL UNKNOWN-INTENT UNKNOWN-PROC UNKNOWN UNKNOWN)
UNKNOWN-ACCESS ()) (154 'local_solutions' (INTEGER 8 1 0 INTEGER ()) ()
(UNKNOWN-FL UNKNOWN-INTENT UNKNOWN-PROC UNKNOWN UNKNOWN) UNKNOWN-ACCESS
()) (155 'local_solutions_values' (INTEGER 8 1 0 INTEGER ()) (1 DEFERRED
() ()) (UNKNOWN-FL UNKNOWN-INTENT UNKNOWN-PROC UNKNOWN UNKNOWN
ALLOCATABLE DIMENSION) UNKNOWN-ACCESS ()) (156 'end_crit' (INTEGER 8 1 0
INTEGER ()) () (UNKNOWN-FL UNKNOWN-INTENT UNKNOWN-PROC UNKNOWN UNKNOWN)
UNKNOWN-ACCESS ())) PUBLIC (() ()) () 0 0)
157 'scattersearchtypes' 'scattersearchtypes' 'scattersearchtypes' 1 ((
MODULE UNKNOWN-INTENT UNKNOWN-PROC UNKNOWN UNKNOWN) (UNKNOWN 0 0 0
UNKNOWN ()) 0 0 () () 0 () () () 0 0)
158 'selected_real_kind' '(intrinsic)' 'selected_real_kind' 1 ((
PROCEDURE UNKNOWN-INTENT UNKNOWN-PROC UNKNOWN UNKNOWN FUNCTION) (REAL 4
0 0 REAL ()) 0 0 () () 158 () () () 0 0)
159 'tol_prec' 'scattersearchtypes' 'tol_prec' 1 ((PARAMETER
UNKNOWN-INTENT UNKNOWN-PROC UNKNOWN IMPLICIT-SAVE) (REAL 8 0 0 REAL ())
0 0 () (CONSTANT (REAL 8 0 0 REAL ()) 0 '0.12725dd1d243ac@-14') () 0 ()
() () 0 0)
160 'topology_data_fortran' 'scattersearchtypes' 'topology_data_fortran'
1 ((DERIVED UNKNOWN-INTENT UNKNOWN-PROC UNKNOWN UNKNOWN ALLOC_COMP) (
UNKNOWN 0 0 0 UNKNOWN ()) 0 0 () () 0 ((161 'num_r' (INTEGER 4 0 0
INTEGER ()) () (UNKNOWN-FL UNKNOWN-INTENT UNKNOWN-PROC UNKNOWN UNKNOWN)
UNKNOWN-ACCESS ()) (162 'num_left' (INTEGER 4 0 0 INTEGER ()) () (
UNKNOWN-FL UNKNOWN-INTENT UNKNOWN-PROC UNKNOWN UNKNOWN) UNKNOWN-ACCESS ())
(163 'rigth' (INTEGER 4 0 0 INTEGER ()) (1 DEFERRED () ()) (UNKNOWN-FL
UNKNOWN-INTENT UNKNOWN-PROC UNKNOWN UNKNOWN ALLOCATABLE DIMENSION)
UNKNOWN-ACCESS ()) (164 'left' (INTEGER 4 0 0 INTEGER ()) (1 DEFERRED ()
()) (UNKNOWN-FL UNKNOWN-INTENT UNKNOWN-PROC UNKNOWN UNKNOWN ALLOCATABLE
DIMENSION) UNKNOWN-ACCESS ())) PUBLIC (() ()) () 0 0)
108 'uoptions' 'scattersearchtypes' 'uoptions' 1 ((DERIVED
UNKNOWN-INTENT UNKNOWN-PROC UNKNOWN UNKNOWN ALLOC_COMP) (UNKNOWN 0 0 0
UNKNOWN ()) 0 0 () () 0 ((165 'empty' (INTEGER 4 0 0 INTEGER ()) () (
UNKNOWN-FL UNKNOWN-INTENT UNKNOWN-PROC UNKNOWN UNKNOWN) UNKNOWN-ACCESS ())
(166 'iterprint' (INTEGER 4 0 0 INTEGER ()) () (UNKNOWN-FL
UNKNOWN-INTENT UNKNOWN-PROC UNKNOWN UNKNOWN) UNKNOWN-ACCESS ()) (167
'plot' (INTEGER 4 0 0 INTEGER ()) () (UNKNOWN-FL UNKNOWN-INTENT
UNKNOWN-PROC UNKNOWN UNKNOWN) UNKNOWN-ACCESS ()) (168 'weight' (INTEGER
4 0 0 INTEGER ()) () (UNKNOWN-FL UNKNOWN-INTENT UNKNOWN-PROC UNKNOWN
UNKNOWN) UNKNOWN-ACCESS ()) (169 'nstuck_solution' (INTEGER 4 0 0
INTEGER ()) () (UNKNOWN-FL UNKNOWN-INTENT UNKNOWN-PROC UNKNOWN UNKNOWN)
UNKNOWN-ACCESS ()) (170 'strategy' (INTEGER 4 0 0 INTEGER ()) () (
UNKNOWN-FL UNKNOWN-INTENT UNKNOWN-PROC UNKNOWN UNKNOWN) UNKNOWN-ACCESS ())
(171 'inter_save' (INTEGER 4 0 0 INTEGER ()) () (UNKNOWN-FL
UNKNOWN-INTENT UNKNOWN-PROC UNKNOWN UNKNOWN) UNKNOWN-ACCESS ()) (172
'maxeval' (INTEGER 8 1 0 INTEGER ()) () (UNKNOWN-FL UNKNOWN-INTENT
UNKNOWN-PROC UNKNOWN UNKNOWN) UNKNOWN-ACCESS ()) (173 'maxtime' (REAL 8
1 0 REAL ()) () (UNKNOWN-FL UNKNOWN-INTENT UNKNOWN-PROC UNKNOWN UNKNOWN)
UNKNOWN-ACCESS ()) (174 'tolc' (REAL 8 0 0 REAL ()) () (UNKNOWN-FL
UNKNOWN-INTENT UNKNOWN-PROC UNKNOWN UNKNOWN) UNKNOWN-ACCESS ()) (175
'prob_bound' (REAL 8 0 0 REAL ()) () (UNKNOWN-FL UNKNOWN-INTENT
UNKNOWN-PROC UNKNOWN UNKNOWN) UNKNOWN-ACCESS ()) (176 'log_var' (
INTEGER 4 0 0 INTEGER ()) (1 DEFERRED () ()) (UNKNOWN-FL UNKNOWN-INTENT
UNKNOWN-PROC UNKNOWN UNKNOWN ALLOCATABLE DIMENSION) UNKNOWN-ACCESS ()) (
177 'init_point' (INTEGER 4 0 0 INTEGER ()) () (UNKNOWN-FL
UNKNOWN-INTENT UNKNOWN-PROC UNKNOWN UNKNOWN) UNKNOWN-ACCESS ())) PUBLIC
(() ()) () 0 0)
17 'cptr' '__iso_c_binding' 'cptr' 16 ((DERIVED IN UNKNOWN-PROC UNKNOWN
UNKNOWN VALUE DUMMY) (DERIVED 50 0 0 DERIVED ()) 0 0 () () 0 () () () 0
0)
18 'fptr' '__iso_c_binding' 'fptr' 16 ((VARIABLE UNKNOWN-INTENT
UNKNOWN-PROC UNKNOWN UNKNOWN POINTER DUMMY) (VOID 0 0 0 VOID ()) 0 0 ()
() 0 () () () 0 0)
19 'shape' '__iso_c_binding' 'shape' 16 ((VARIABLE IN UNKNOWN-PROC
UNKNOWN UNKNOWN DIMENSION OPTIONAL DUMMY) (VOID 4 0 0 VOID ()) 0 0 () (
1 ASSUMED_SHAPE (CONSTANT (INTEGER 4 0 0 INTEGER ()) 0 '1') ()) 0 () ()
() 0 0)
7 'c_ptr_1' '__iso_c_binding' 'c_ptr_1' 6 ((DERIVED IN UNKNOWN-PROC
UNKNOWN UNKNOWN VALUE DUMMY) (DERIVED 50 0 0 DERIVED ()) 0 0 () () 0 ()
() () 0 0)
8 'c_ptr_2' '__iso_c_binding' 'c_ptr_2' 6 ((DERIVED IN UNKNOWN-PROC
UNKNOWN UNKNOWN OPTIONAL VALUE DUMMY) (DERIVED 50 0 0 DERIVED ()) 0 0 ()
() 0 () () () 0 0)
22 'cptr' '__iso_c_binding' 'cptr' 21 ((DERIVED IN UNKNOWN-PROC UNKNOWN
UNKNOWN VALUE DUMMY) (DERIVED 28 0 0 DERIVED ()) 0 0 () () 0 () () () 0
0)
23 'fptr' '__iso_c_binding' 'fptr' 21 ((VARIABLE UNKNOWN-INTENT
UNKNOWN-PROC UNKNOWN UNKNOWN DUMMY PROC_POINTER) (VOID 0 0 0 VOID ()) 0
0 () () 0 () () () 0 0)
)

('__iso_c_binding' 0 2 'auxprecisin' 0 3 'c_alert' 0 4 'c_associated' 0
5 'c_backspace' 0 9 'c_bool' 0 10 'c_carriage_return' 0 11 'c_char' 0 12
'c_double' 0 13 'c_double_complex' 0 14 'c_f_pointer' 0 15
'c_f_procpointer' 0 20 'c_float' 0 24 'c_float_complex' 0 25 'c_form_feed'
0 26 'c_funloc' 0 27 'c_funptr' 0 28 'c_horizontal_tab' 0 30 'c_int' 0
31 'c_int128_t' 0 32 'c_int16_t' 0 33 'c_int32_t' 0 34 'c_int64_t' 0 35
'c_int8_t' 0 36 'c_int_fast128_t' 0 37 'c_int_fast16_t' 0 38
'c_int_fast32_t' 0 39 'c_int_fast64_t' 0 40 'c_int_fast8_t' 0 41
'c_int_least128_t' 0 42 'c_int_least16_t' 0 43 'c_int_least32_t' 0 44
'c_int_least64_t' 0 45 'c_int_least8_t' 0 46 'c_intmax_t' 0 47
'c_intptr_t' 0 48 'c_loc' 0 49 'c_long' 0 51 'c_long_double' 0 52
'c_long_double_complex' 0 53 'c_long_long' 0 54 'c_new_line' 0 55
'c_null_char' 0 56 'c_null_funptr' 0 57 'c_null_ptr' 0 58 'c_ptr' 0 50
'c_short' 0 60 'c_signed_char' 0 61 'c_size_t' 0 62 'c_vertical_tab' 0
63 'eps_m' 0 64 'extraparametters' 0 65 'goptions' 0 73 'infinite' 0 86
'loptions' 0 87 'opts' 0 105 'outfuction' 0 111 'precision_d' 0 118
'precision_f' 0 119 'problem' 0 120 'range_d' 0 134 'range_f' 0 135 'real'
0 136 'refsettype' 0 137 'resultsf' 0 144 'scattersearchtypes' 0 157
'selected_real_kind' 0 158 'tol_prec' 0 159 'topology_data_fortran' 0
160 'uoptions' 0 108)
